{
    "@class": "com.kony.gen.viz.model.component.KVizButton",
    "DNDConfig": null,
    "__parentReadjusting__": false,
    "_height_": {
        "type": "string",
        "value": "90%"
    },
    "_left_": {
        "type": "string",
        "value": "2%"
    },
    "_margin_": [
        6,
        6,
        6,
        6
    ],
    "_padding_": [
        0,
        0,
        0,
        0
    ],
    "_skin_": "s184a9f68e834d6aa017819b71ff5ad4",
    "_text_": "",
    "_top_": {
        "type": "string",
        "value": "0dp"
    },
    "_width_": {
        "type": "string",
        "value": "20%"
    },
    "canUpdateUI": true,
    "containerweight": 100,
    "contentalignment": 4,
    "displaytext": true,
    "focusskin": "s184a9f68e834d6aa017819b71ff5ad4",
    "id": "btnBack",
    "ide_onClick": "AS_Button_a4e715a360c945c7a10bcb1c4666163b",
    "info": null,
    "iphone": {
        "psp": {
            "showProgressIndicator": false
        }
    },
    "isvisible": true,
    "kuid": "j3f26c799d174cbe82b5d7e30a3ffe4c",
    "name": "kony.ui.Button",
    "onclick": "AS_Button_28dbaec57daf4f039d5ba389e3784d0a",
    "parent": "flxHeader",
    "pf": "frmUserSettingsPinLoginKA",
    "showprogressindicator": false,
    "texti18n": "i18n.common.back",
    "wType": "Button",
    "zindex": 1
}