{
    "@class": "com.kony.gen.viz.model.component.KVizButton",
    "DNDConfig": null,
    "__parentReadjusting__": false,
    "_height_": {
        "type": "string",
        "value": "50dp"
    },
    "_margin_": [
        6,
        6,
        6,
        6
    ],
    "_padding_": [
        0,
        0,
        0,
        0
    ],
    "_right_": {
        "type": "string",
        "value": "10dp"
    },
    "_skin_": "s6ba61c1f3b24f2d9a607a6d158dd307",
    "_text_": "Send",
    "_top_": {
        "type": "string",
        "value": "0dp"
    },
    "_width_": {
        "type": "string",
        "value": "50dp"
    },
    "canUpdateUI": true,
    "containerweight": 100,
    "contentalignment": 5,
    "displaytext": true,
    "focusskin": "s6ba61c1f3b24f2d9a607a6d158dd307",
    "id": "btnEditKA",
    "ide_onClick": "AS_Button_d73085c8c7b44bcd93923a167e1d186a",
    "info": null,
    "iphone": {
        "psp": {
            "showProgressIndicator": false
        }
    },
    "isvisible": true,
    "kuid": "ca338341374f4ee5aa81b22a59669cdb",
    "name": "kony.ui.Button",
    "onclick": "AS_Button_e1ca8e78445b4b4aa53efb4793fd7658",
    "parent": "flxTitleBarWrapperKA",
    "pf": "frmCardlessSendMessage",
    "showprogressindicator": false,
    "wType": "Button",
    "zindex": 1
}