{
    "DNDConfig": null,
    "__markedForDelete__": true,
    "__parentReadjusting__": false,
    "_height_": {
        "type": "string",
        "value": "25dp"
    },
    "_margin_": [
        0,
        0,
        0,
        0
    ],
    "_orientation_": 6,
    "_padding_": [
        0,
        0,
        0,
        0
    ],
    "_percent_": true,
    "_right_": {
        "type": "string",
        "value": "5%"
    },
    "_skin_": "s8cee9ddcb344024afcc0f0e0d2a9e37",
    "_top_": {
        "type": "string",
        "value": "0dp"
    },
    "_width_": {
        "type": "string",
        "value": "44dp"
    },
    "allboxes": [],
    "autogrowmode": 0,
    "canUpdateUI": true,
    "centery": {
        "type": "string",
        "value": "50%"
    },
    "children": [
        "CopyflxInnerEnabled0c1a477c63a8c41",
        "CopyflxLineEnabled0ja3b408f5d0541"
    ],
    "clipbounds": true,
    "containerweight": 100,
    "enablescrolling": true,
    "id": "flxAlertWithdrawalEnable",
    "ide_onClick": "AS_FlexContainer_f0147413333f47ea8594157eff29c0fe",
    "info": null,
    "isvisible": true,
    "kuid": "cd4f2afc0b03484d91e752fcc0effb4a",
    "layouttype": 2,
    "name": "kony.ui.FlexContainer",
    "parent": "flxAlertWithdrawal",
    "pf": "frmAlertsKA",
    "snapgridsize": 10,
    "snaptogrid": true,
    "wType": "FlexContainer",
    "widgetalignment": 1,
    "zindex": 1
}