{
    "@class": "com.kony.gen.viz.model.component.KVizButton",
    "DNDConfig": null,
    "__parentReadjusting__": false,
    "_height_": {
        "type": "string",
        "value": "100%"
    },
    "_left_": {
        "type": "string",
        "value": "0%"
    },
    "_margin_": [
        6,
        6,
        6,
        6
    ],
    "_padding_": [
        0,
        0,
        0,
        0
    ],
    "_skin_": "sbdbc65107b746c7870a660f64d4b256",
    "_text_": "j",
    "_top_": {
        "type": "string",
        "value": "0%"
    },
    "_width_": {
        "type": "string",
        "value": "15%"
    },
    "canUpdateUI": true,
    "containerweight": 100,
    "contentalignment": 5,
    "disabledSkins": {},
    "displaytext": true,
    "focusskin": "sbdbc65107b746c7870a660f64d4b256",
    "id": "btnBack",
    "ide_onClick": "AS_Button_c004a147154541408558d7a6840daf1d",
    "info": null,
    "isvisible": true,
    "kuid": "bc827f74b6b846c19df61497afb4e695",
    "name": "kony.ui.Button",
    "parent": "flxSMSHeader",
    "pf": "frmSMSNotification",
    "texti18n": "i18n.common.back",
    "wType": "Button",
    "zindex": 2
}