{
    "@class": "com.kony.gen.viz.model.component.KVizButton",
    "DNDConfig": null,
    "__parentReadjusting__": false,
    "_height_": {
        "type": "string",
        "value": "20%"
    },
    "_left_": {
        "type": "string",
        "value": "2%"
    },
    "_margin_": [
        6,
        6,
        6,
        6
    ],
    "_padding_": [
        0,
        0,
        0,
        0
    ],
    "_skin_": "sbe5cfc83be54ef0a3a786a16e8e8ea8",
    "_text_": "",
    "_top_": {
        "type": "string",
        "value": "66%"
    },
    "_width_": {
        "type": "string",
        "value": "30%"
    },
    "canUpdateUI": true,
    "containerId": true,
    "containerweight": 100,
    "contentalignment": 4,
    "displaytext": true,
    "focusskin": "s9ea34420ae84500888cb1452369b78e",
    "id": "btnViewDetailsKA",
    "info": null,
    "isvisible": true,
    "kuid": "a5e5d9e701a34671836cead7d29afcab",
    "name": "kony.ui.Button",
    "parent": "flxSegMain2",
    "pf": "segSelectProductKA",
    "texti18n": "i18n.NUO.ViewDetails",
    "wType": "Button",
    "zindex": 1
}