{
    "DNDConfig": null,
    "__parentReadjusting__": false,
    "_height_": {
        "type": "ref",
        "value": "preferred"
    },
    "_left_": {
        "type": "string",
        "value": "0dp"
    },
    "_margin_": [
        0,
        0,
        0,
        0
    ],
    "_orientation_": 6,
    "_padding_": [
        0,
        0,
        0,
        0
    ],
    "_percent_": true,
    "_skin_": "s388f0c575ef4d08ac3a5ed0a4b90085",
    "_top_": {
        "type": "string",
        "value": "15dp"
    },
    "_width_": {
        "type": "string",
        "value": "100%"
    },
    "allboxes": [],
    "autogrowmode": 1,
    "canUpdateUI": true,
    "children": [
        "CopylblNotes0b76aa8e8ea9249",
        "CopyFlexContainerImportantNotice0ca16e307340a44",
        "CopylblWarningDescription0fe6733c43c4946",
        "tbxCreateSecureCodeKA",
        "tbxReEnterSecureCodeKA",
        "lblInvalidSecureCode"
    ],
    "clipbounds": true,
    "containerweight": 100,
    "enablescrolling": true,
    "id": "flxCreateSecureCodeKA",
    "info": null,
    "isvisible": true,
    "kuid": "i04577be19c64d6ea76f280e75f7de43",
    "layouttype": 4,
    "name": "kony.ui.FlexContainer",
    "parent": "flxSecureCodeKA",
    "pf": "frmConfirmCashWithDraw",
    "snapgridsize": 10,
    "snaptogrid": true,
    "wType": "FlexContainer",
    "widgetalignment": 1,
    "zindex": 1
}