{
    "DNDConfig": null,
    "__parentReadjusting__": false,
    "_height_": {
        "type": "ref",
        "value": "preferred"
    },
    "_left_": {
        "type": "string",
        "value": "0dp"
    },
    "_margin_": [
        0,
        0,
        0,
        0
    ],
    "_padding_": [
        0,
        0,
        0,
        0
    ],
    "_skin_": "s5449e85b7e0472ba7d4939096f3873d",
    "_top_": {
        "type": "string",
        "value": "60dp"
    },
    "_width_": {
        "type": "string",
        "value": "100%"
    },
    "allboxes": [],
    "autogrowmode": 1,
    "canUpdateUI": true,
    "children": [
        "lblHeadingKA",
        "CopysuccessIcon0f42e785ae2344c",
        "CopyLabel04e32e5c0a78845",
        "CopyLabel0d00f815bcc7c41",
        "refID",
        "deleteScheduleTransactionButton",
        "CopydeleteScheduleTransactionButton0ff2090b870b341"
    ],
    "clipbounds": true,
    "containerweight": 100,
    "enabled": false,
    "enablescrolling": true,
    "id": "FlexContainer00a3c07fadcbf4b",
    "info": null,
    "isvisible": true,
    "kuid": "56637a480b984dc38eb843aa1ad9e3ea",
    "layouttype": 4,
    "name": "kony.ui.FlexContainer",
    "orientation": 6,
    "parent": "touchFeature",
    "percent": true,
    "pf": "frmConfirmationCardKA",
    "snapgridsize": 10,
    "snaptogrid": true,
    "wType": "FlexContainer",
    "widgetalignment": 1,
    "zindex": 1
}