{
    "@class": "com.kony.gen.viz.model.component.KVizLabel", 
    "DNDConfig": null, 
    "__parentReadjusting__": false, 
    "_height_": {
        "type": "ref", 
        "value": "preferred"
    }, 
    "_left_": {
        "type": "string", 
        "value": "0"
    }, 
    "_margin_": [
        1, 
        1, 
        1, 
        1
    ], 
    "_padding_": [
        0, 
        0, 
        0, 
        0
    ], 
    "_skin_": "sbcb6b10071c42cfa99d1352f532f823", 
    "_text_": "Your ID is SC2345", 
    "_top_": {
        "type": "string", 
        "value": "7dp"
    }, 
    "_width_": {
        "type": "string", 
        "value": "100%"
    }, 
    "_wrapping_": 2, 
    "canUpdateUI": true, 
    "containerweight": 100, 
    "contentalignment": 5, 
    "enabled": false, 
    "id": "refID", 
    "info": null, 
    "ipad": {
        "psp": {
            "wrapping": 2
        }
    }, 
    "iphone": {
        "psp": {
            "wrapping": 2
        }
    }, 
    "isvisible": true, 
    "kuid": "33cd8ea0ba004137b43ad86846c65a24", 
    "name": "kony.ui.Label", 
    "parent": "FlexContainer00a3c07fadcbf4b", 
    "pf": "frmConfirmationCardKA", 
    "texti18n": "i18n.opening_account.frmConfirmationCardKA.CopyLabel09dd01806856b4f", 
    "tooltip": "", 
    "wType": "Label"
}