{
    "@class": "com.kony.gen.viz.model.component.KVizButton",
    "DNDConfig": null,
    "__markedForDelete__": true,
    "__parentReadjusting__": false,
    "_height_": {
        "type": "string",
        "value": "94%"
    },
    "_left_": {
        "type": "string",
        "value": "6.97%"
    },
    "_margin_": [
        6,
        6,
        6,
        6
    ],
    "_padding_": [
        0,
        0,
        0,
        0
    ],
    "_skin_": "s064afd968c64abb94c8e379d3f4c61f",
    "_text_": "No Thanks",
    "_width_": {
        "type": "string",
        "value": "40%"
    },
    "canUpdateUI": true,
    "centery": {
        "type": "string",
        "value": "50.26%"
    },
    "containerweight": 100,
    "contentalignment": 5,
    "displaytext": true,
    "focusskin": "s17e292d54bd48bd8bd8a070c6c1819a",
    "id": "noThanks",
    "ide_onClick": "AS_Button_fecbbcd7ddfb47379ac2d28eb593b3e4",
    "info": null,
    "iphone": {
        "psp": {
            "showProgressIndicator": false
        }
    },
    "isvisible": true,
    "kuid": "8487d5afd48c4788937cecf015b64d70",
    "name": "kony.ui.Button",
    "onclick": "AS_Button_922c47fe95a640a0b96a9d201d7cf787",
    "parent": "FlexContainer0a0f9bf90d35346",
    "pf": "frmTermsAndConditionsKA",
    "showprogressindicator": false,
    "texti18n": "i18n.common.cancelC",
    "wType": "Button",
    "zindex": 1
}