{
    "@class": "com.kony.gen.viz.model.component.KVizButton",
    "DNDConfig": null,
    "__parentReadjusting__": false,
    "_height_": {
        "type": "string",
        "value": "50dp"
    },
    "_left_": {
        "type": "string",
        "value": "88%"
    },
    "_margin_": [
        6,
        6,
        6,
        6
    ],
    "_padding_": [
        0,
        0,
        0,
        0
    ],
    "_skin_": "sef0e6318cb74729a63354552567c681",
    "_text_": "",
    "_top_": {
        "type": "string",
        "value": "8dp"
    },
    "_width_": {
        "type": "ref",
        "value": "preferred"
    },
    "canUpdateUI": true,
    "centery": {
        "type": "string",
        "value": "50%"
    },
    "containerweight": 100,
    "contentalignment": 5,
    "disabledSkins": {
        "focusSkin": "s10149300144466da99cbf92f4fdacc8"
    },
    "displaytext": true,
    "id": "btnNextDeposite",
    "ide_onClick": "AS_Button_g473dc801a854ad7a77ca7255ad954aa",
    "info": null,
    "isvisible": true,
    "kuid": "gc0b13c7988e4acc8f284e6d42caa925",
    "name": "kony.ui.Button",
    "parent": "flxHeader",
    "pf": "frmOpenTermDeposit",
    "texti18n": "i18n.login.next",
    "wType": "Button",
    "zindex": 1
}