{
    "@class": "com.kony.gen.viz.model.container.KVizGroup",
    "DNDConfig": null,
    "_height_": {
        "type": "ref",
        "value": "preferred"
    },
    "_margin_": [
        0,
        0,
        0,
        0
    ],
    "_opacity_": 100,
    "_orientation_": 6,
    "_padding_": [
        3,
        0,
        3,
        0
    ],
    "_percent_": true,
    "_skin_": "s60649ded06c41298977d6c6ae22c708",
    "_spacing_": 0,
    "_width_": "100%",
    "allboxes": [],
    "canUpdateUI": true,
    "children": [
        "grpMContent"
    ],
    "clipbounds": true,
    "containerId": true,
    "containerweight": 100,
    "enablescrolling": true,
    "id": "grpMIMain",
    "info": null,
    "isTemplate": true,
    "isvisible": true,
    "kuid": "f724ebd9e0634d1286f10e119f36a0cb",
    "layouttype": 3,
    "name": "kony.ui.Group",
    "paddinginpixel": true,
    "parent": "tempMenuItem",
    "pf": "tempMenuItem",
    "snapgridsize": 10,
    "snaptogrid": false,
    "wType": "Group",
    "widgetalignment": 1
}