{
    "@class": "com.kony.gen.viz.model.component.KVizTextBox2",
    "DNDConfig": null,
    "__markedForDelete__": true,
    "__parentReadjusting__": false,
    "_height_": {
        "type": "string",
        "value": "100%"
    },
    "_left_": {
        "type": "string",
        "value": "0%"
    },
    "_margin_": [
        0,
        0,
        0,
        0
    ],
    "_padding_": [
        3,
        0,
        0,
        0
    ],
    "_placeholder_": "Search",
    "_skin_": "s70e06df8e7c4e77883f1e3a20e7cc99",
    "_text_": "",
    "_width_": {
        "type": "string",
        "value": "92%"
    },
    "autocapitalize": "none",
    "autocomplete": false,
    "autocorrect": false,
    "autofilter": false,
    "canUpdateUI": true,
    "centery": {
        "type": "string",
        "value": "50%"
    },
    "containerheight": "",
    "containerheightmode": 1,
    "containerweight": 100,
    "contentalignment": 4,
    "focusskin": "s70e06df8e7c4e77883f1e3a20e7cc99",
    "id": "tbxSearch",
    "ide_onDone": "AS_TextField_afb8098dd86646adb2bd2750f8645807",
    "ide_onTextChange": "AS_TextField_e6ec3d5b87ae434fa632b2ce56460c57",
    "info": null,
    "iphone": {},
    "isvisible": true,
    "keyboardtype": "A",
    "kuid": "c61ad88ec9ea4764882eb4c1f0381cf4",
    "mode": "A",
    "name": "kony.ui.TextBox2",
    "parent": "flxSearchHolder",
    "pf": "frmBillerListForm",
    "placeholderi18n": "i18n.transfer.searchPlh",
    "placeholderskin": "s2484680d5974fa68d5a96a96c6b37b6",
    "securetextentry": false,
    "textinputmode": "A",
    "viewtype": "default",
    "wType": "TextField",
    "zindex": 1
}