{
    "@class": "com.kony.gen.viz.model.component.KVizLabel", 
    "DNDConfig": null, 
    "__parentReadjusting__": false, 
    "_height_": {
        "type": "string", 
        "value": "1dp"
    }, 
    "_left_": {
        "type": "string", 
        "value": "0dp"
    }, 
    "_margin_": [
        1, 
        1, 
        1, 
        1
    ], 
    "_padding_": [
        0, 
        0, 
        0, 
        0
    ], 
    "_skin_": "sf1509fe27784468a25bc6c092dc9273", 
    "_text_": "Label", 
    "_top_": {
        "type": "string", 
        "value": "0dp"
    }, 
    "_width_": {
        "type": "string", 
        "value": "100%"
    }, 
    "_wrapping_": 2, 
    "android": {
        "textStyle": {
            "letterSpacing": 0, 
            "strikeThrough": false
        }
    }, 
    "canUpdateUI": true, 
    "containerweight": 100, 
    "contentalignment": 4, 
    "id": "lblLine1KA", 
    "info": null, 
    "ipad": {
        "psp": {
            "wrapping": 2
        }
    }, 
    "iphone": {
        "psp": {
            "wrapping": 2
        }
    }, 
    "isvisible": true, 
    "kuid": "3e2f918130ed4adcbe94359b7b3efed0", 
    "name": "kony.ui.Label", 
    "parent": "mainContent", 
    "pf": "frmRecentDepositKA", 
    "texti18n": "i18n.deposit.frmRecentDepositKA.lblLine1KA", 
    "tooltip": "", 
    "wType": "Label", 
    "zindex": 1
}