{
    "@class": "com.kony.gen.viz.model.component.KVizLabel", 
    "DNDConfig": null, 
    "__parentReadjusting__": false, 
    "_height_": {
        "type": "ref", 
        "value": "preferred"
    }, 
    "_left_": {
        "type": "string", 
        "value": "5%"
    }, 
    "_margin_": [
        1, 
        1, 
        1, 
        1
    ], 
    "_padding_": [
        0, 
        0, 
        0, 
        0
    ], 
    "_skin_": "se033b4241724171afff711026194d8f", 
    "_text_": "05-20-2016", 
    "_top_": {
        "type": "string", 
        "value": "40dp"
    }, 
    "_width_": {
        "type": "string", 
        "value": "95%"
    }, 
    "_wrapping_": 2, 
    "canUpdateUI": true, 
    "containerweight": 100, 
    "contentalignment": 4, 
    "enabled": false, 
    "id": "lblTransactionDateValueKA", 
    "info": null, 
    "ipad": {
        "psp": {
            "wrapping": 2
        }
    }, 
    "iphone": {
        "psp": {
            "wrapping": 2
        }
    }, 
    "isvisible": true, 
    "kuid": "bc76131945414c839ffc029abd349a3e", 
    "name": "kony.ui.Label", 
    "parent": "flxSchedule", 
    "pf": "frmRecentDepositKA", 
    "tooltip": "", 
    "wType": "Label", 
    "zindex": 1
}