{
    "@class": "com.kony.gen.viz.model.component.KVizLabel", 
    "DNDConfig": null, 
    "__parentReadjusting__": false, 
    "_height_": {
        "type": "ref", 
        "value": "preferred"
    }, 
    "_margin_": [
        1, 
        1, 
        1, 
        1
    ], 
    "_padding_": [
        0, 
        0, 
        0, 
        0
    ], 
    "_skin_": "se033b4241724171afff711026194d8f", 
    "_text_": "Deposit to Savings 2453", 
    "_top_": {
        "type": "string", 
        "value": "5dp"
    }, 
    "_width_": {
        "type": "string", 
        "value": "80%"
    }, 
    "_wrapping_": 2, 
    "canUpdateUI": true, 
    "centerx": {
        "type": "string", 
        "value": "50%"
    }, 
    "containerweight": 100, 
    "contentalignment": 5, 
    "enabled": false, 
    "id": "transactionName", 
    "info": null, 
    "ipad": {
        "psp": {
            "wrapping": 2
        }
    }, 
    "iphone": {
        "psp": {
            "wrapping": 2
        }
    }, 
    "isvisible": true, 
    "kuid": "aaaeab08c31b4a5dacce7455d1d1591b", 
    "name": "kony.ui.Label", 
    "parent": "FlexContainer00bb80511034544", 
    "pf": "frmRecentDepositKA", 
    "texti18n": "i18n.deposit.frmRecentDepositKA.transactionName", 
    "tooltip": "", 
    "wType": "Label", 
    "zindex": 1
}