{
    "@class": "com.kony.gen.viz.model.component.KVizSwitch",
    "DNDConfig": null,
    "__parentReadjusting__": false,
    "_height_": {
        "type": "string",
        "value": "32dp"
    },
    "_margin_": [
        0,
        0,
        0,
        0
    ],
    "_padding_": [
        0,
        0,
        0,
        0
    ],
    "_render_": true,
    "_right_": {
        "type": "string",
        "value": "10dp"
    },
    "_skin_": "s76ff61aef1d4b5b86c2641d87a9f5d0",
    "_top_": {
        "type": "string",
        "value": "13dp"
    },
    "_width_": {
        "type": "string",
        "value": "50dp"
    },
    "android": {
        "render": false
    },
    "canUpdateUI": true,
    "containerweight": 100,
    "id": "checkClearanceSwitchAlert",
    "ide_onSlide": "AS_Switch_fd37c81d67da4812bfc3decd982edeb1",
    "info": null,
    "iphone": {
        "render": true
    },
    "isvisible": true,
    "kiosk": {
        "render": false
    },
    "kuid": "9ceeacacf0f4451d86c1ec54a1829607",
    "leftsidetext": "ON",
    "name": "kony.ui.Switch",
    "onslide": null,
    "osPlatform": "iphone",
    "osVersion": "iOS7",
    "parent": "flxIosCheckAlertsSwitchKA",
    "pf": "frmAccountAlertsKA",
    "rightsidetext": "OFF",
    "selectedindex": 1,
    "spaan": {
        "render": false
    },
    "spabb": {
        "render": false
    },
    "spaip": {
        "render": true
    },
    "spawinphone8": {
        "render": false
    },
    "wType": "Switch",
    "widgetalignment": 5,
    "winphone8": {
        "render": false
    },
    "zindex": 1
}