{
    "@class": "com.kony.gen.viz.model.component.KVizImage2",
    "DNDConfig": null,
    "__parentReadjusting__": false,
    "_base64_": null,
    "_height_": {
        "type": "string",
        "value": "30dp"
    },
    "_left_": {
        "type": "number",
        "value": "0"
    },
    "_margin_": [
        0,
        0,
        0,
        0
    ],
    "_padding_": [
        0,
        0,
        0,
        0
    ],
    "_skin_": "sa625024fef740fea5133ed43bbfac5f",
    "_src_": "checkbox_off.png",
    "_top_": {
        "type": "string",
        "value": "0dp"
    },
    "_width_": {
        "type": "string",
        "value": "30dp"
    },
    "canUpdateUI": true,
    "centery": {
        "type": "string",
        "value": "50.37%"
    },
    "containerweight": 100,
    "context": {
        "channel": "mobile",
        "formID": "frmAccountAlertsKA",
        "platform": "iphone",
        "templateType": "forms",
        "topLevelBox": null
    },
    "id": "successCheckClearanceInfoImgKA",
    "imagescalemode": 1,
    "info": null,
    "invokedProperty": "src",
    "isvisible": true,
    "kuid": "01519a17cf6e403b99f019de1bd003a9",
    "name": "kony.ui.Image2",
    "parent": "flxCheckClearanceImageKA",
    "pf": "frmAccountAlertsKA",
    "srcType": 1,
    "wType": "Image",
    "widgetalignment": 5,
    "zindex": 1
}