{
    "@class": "com.kony.gen.viz.model.component.KVizLabel",
    "DNDConfig": null,
    "__markedForDelete__": true,
    "__parentReadjusting__": false,
    "_height_": {
        "type": "string",
        "value": "39dp"
    },
    "_margin_": [
        1,
        1,
        1,
        1
    ],
    "_padding_": [
        0,
        0,
        0,
        0
    ],
    "_skin_": "s09477fbfb2f45048565b6d787d0cd37",
    "_text_": "Account Detail",
    "_top_": {
        "type": "string",
        "value": "9dp"
    },
    "_width_": {
        "type": "string",
        "value": "90%"
    },
    "_wrapping_": 2,
    "canUpdateUI": true,
    "centerx": {
        "type": "string",
        "value": "50%"
    },
    "containerweight": 100,
    "contentalignment": 5,
    "enabled": false,
    "id": "AccountDetailsLbl",
    "info": null,
    "ipad": {
        "psp": {
            "wrapping": 2
        }
    },
    "iphone": {
        "psp": {
            "wrapping": 2
        }
    },
    "isvisible": true,
    "kuid": "f13cf254bd3e4b9a85a54dd94786e896",
    "name": "kony.ui.Label",
    "parent": "accountDetailsFlx",
    "pf": "frmAccountDetailKA",
    "texti18n": "i18n.account.AccountDetails",
    "tooltip": "",
    "wType": "Label",
    "zindex": 1
}