{
    "@class": "com.kony.gen.viz.model.component.KVizLabel",
    "DNDConfig": null,
    "__markedForDelete__": true,
    "__parentReadjusting__": false,
    "_height_": {
        "type": "ref",
        "value": "preferred"
    },
    "_left_": {
        "type": "string",
        "value": "15dp"
    },
    "_margin_": [
        1,
        1,
        1,
        1
    ],
    "_padding_": [
        0,
        0,
        0,
        0
    ],
    "_skin_": "s3c238342a2841e1b37f8c4545626ca3",
    "_text_": "Account Balance",
    "_top_": {
        "type": "string",
        "value": "0dp"
    },
    "_width_": {
        "type": "ref",
        "value": "preferred"
    },
    "_wrapping_": 2,
    "canUpdateUI": true,
    "containerweight": 100,
    "contentalignment": 5,
    "enabled": false,
    "id": "Copylblaccountbalance0jcc60ca0679e47",
    "info": null,
    "ipad": {
        "psp": {
            "wrapping": 2
        }
    },
    "iphone": {
        "psp": {
            "wrapping": 2
        }
    },
    "isvisible": true,
    "kuid": "j70f161804ed45b0a8592d768fb7b7b4",
    "name": "kony.ui.Label",
    "parent": "CopyFlexContainer0dece3f7e088945",
    "pf": "frmAccountDetailKA",
    "texti18n": "i18n.overview.accountBalance",
    "tooltip": "",
    "wType": "Label",
    "zindex": 1
}