{
    "DNDConfig": null,
    "__markedForDelete__": true,
    "__parentReadjusting__": false,
    "_height_": {
        "type": "string",
        "value": "100%"
    },
    "_left_": {
        "type": "string",
        "value": "0dp"
    },
    "_margin_": [
        0,
        0,
        0,
        0
    ],
    "_padding_": [
        0,
        0,
        0,
        0
    ],
    "_skin_": "s70ada2a35b147dd81600d092800acc6",
    "_top_": {
        "type": "string",
        "value": "0dp"
    },
    "_width_": {
        "type": "string",
        "value": "100%"
    },
    "allboxes": [],
    "autogrowmode": 0,
    "canUpdateUI": true,
    "children": [
        "CopyMoreIcon0g4a9f5226a044c",
        "CopyMorelbl0ebaafaa289d94a"
    ],
    "clipbounds": false,
    "containerweight": 100,
    "enabled": false,
    "enablescrolling": true,
    "id": "CopyMoreFlx0f464e9747a1e4d",
    "info": null,
    "isvisible": true,
    "kuid": "c2578a599faa456a9ca7252686532d55",
    "layouttype": 4,
    "name": "kony.ui.FlexContainer",
    "orientation": 6,
    "parent": "CopyMoreWrapper0c65fcc8b23ab42",
    "percent": true,
    "pf": "frmAccountDetailKA",
    "snapgridsize": 10,
    "snaptogrid": true,
    "wType": "FlexContainer",
    "widgetalignment": 1,
    "zindex": 1
}