{
    "DNDConfig": null,
    "__markedForDelete__": true,
    "__parentReadjusting__": false,
    "_height_": {
        "type": "string",
        "value": "100%"
    },
    "_left_": {
        "type": "string",
        "value": "0dp"
    },
    "_margin_": [
        0,
        0,
        0,
        0
    ],
    "_orientation_": 6,
    "_padding_": [
        0,
        0,
        0,
        0
    ],
    "_percent_": true,
    "_skin_": "s388f0c575ef4d08ac3a5ed0a4b90085",
    "_top_": {
        "type": "string",
        "value": "0dp"
    },
    "_width_": {
        "type": "string",
        "value": "100%"
    },
    "allboxes": [],
    "autogrowmode": 0,
    "canUpdateUI": true,
    "children": [
        "CopyinterestEarnedLabel0h59544fc55f948",
        "CopylblCcPaynowIcon0ia9bd60362544a",
        "CopylblEdit0b4a3f2847e3d44"
    ],
    "clipbounds": true,
    "containerweight": 100,
    "enablescrolling": true,
    "id": "CopyflxRight0e87efefcf3084c",
    "ide_onClick": "AS_FlexContainer_f7800c64f31444fb860620e18a315379",
    "info": null,
    "isvisible": true,
    "kuid": "aa81cfc92d6f4ebf99bc228bac75edf6",
    "layouttype": 2,
    "name": "kony.ui.FlexContainer",
    "parent": "flxOrderCheckBook",
    "pf": "frmAccountDetailKA",
    "snapgridsize": 10,
    "snaptogrid": true,
    "wType": "FlexContainer",
    "widgetalignment": 1,
    "zindex": 10
}