{
    "DNDConfig": null,
    "__markedForDelete__": true,
    "__parentReadjusting__": false,
    "_height_": {
        "type": "string",
        "value": "100dp"
    },
    "_left_": {
        "type": "string",
        "value": "10%"
    },
    "_margin_": [
        0,
        0,
        0,
        0
    ],
    "_padding_": [
        0,
        0,
        0,
        0
    ],
    "_skin_": "sea3237c8c1f4d00a700dfbca8bea354",
    "_top_": {
        "type": "string",
        "value": "240dp"
    },
    "_width_": {
        "type": "string",
        "value": "33%"
    },
    "allboxes": [],
    "autogrowmode": 0,
    "canUpdateUI": true,
    "children": [
        "Copyflxm0b9d64a74d42340",
        "CopyMorebtn0dd8b3bd4bcdd41",
        "CopyMoreHiddenKey0g5692532d4f041"
    ],
    "clipbounds": false,
    "containerweight": 100,
    "enabled": false,
    "enablescrolling": true,
    "id": "CopyflxMoreOption0jb23f1a5856e4e",
    "info": null,
    "isvisible": true,
    "kuid": "fce8ee35e7b34ea4823907a7db10dc87",
    "layouttype": 2,
    "name": "kony.ui.FlexContainer",
    "orientation": 6,
    "parent": "CopyflxMore0dcd89fda4fe54d",
    "percent": true,
    "pf": "frmAccountDetailKA",
    "snapgridsize": 10,
    "snaptogrid": true,
    "wType": "FlexContainer",
    "widgetalignment": 1,
    "zindex": 1
}