{
    "@class": "com.kony.gen.viz.model.component.KVizLabel",
    "DNDConfig": null,
    "__parentReadjusting__": false,
    "_height_": {
        "type": "string",
        "value": "50dp"
    },
    "_left_": {
        "type": "string",
        "value": "0%"
    },
    "_margin_": [
        1,
        1,
        1,
        1
    ],
    "_padding_": [
        1,
        0,
        0,
        0
    ],
    "_skin_": "sf2f7e3ac7a042b78a5362a2a6ff6149",
    "_text_": "j",
    "_top_": {
        "type": "string",
        "value": "0dp"
    },
    "_width_": {
        "type": "string",
        "value": "30%"
    },
    "_wrapping_": 2,
    "android": {
        "textStyle": {
            "letterSpacing": 0,
            "strikeThrough": false
        }
    },
    "canUpdateUI": true,
    "containerweight": 100,
    "contentalignment": 4,
    "id": "lblBackDealIcon",
    "ide_onTouchEnd": "AS_Label_a1928eebf22847b9bbcce0ec29acd050",
    "info": null,
    "ipad": {
        "psp": {
            "wrapping": 2
        }
    },
    "iphone": {
        "psp": {
            "wrapping": 2
        }
    },
    "isvisible": true,
    "kuid": "ea8ddf29009c4d0b9e16f3a8c23193bd",
    "name": "kony.ui.Label",
    "paddinginpixel": false,
    "parent": "flxDealsTopBar",
    "pf": "frmAccountDetailKA",
    "tooltip": "",
    "wType": "Label",
    "zindex": 1
}