{
    "DNDConfig": null,
    "__markedForDelete__": true,
    "__parentReadjusting__": false,
    "_bottom_": {
        "type": "string",
        "value": "0dp"
    },
    "_height_": {
        "type": "string",
        "value": "68%"
    },
    "_left_": {
        "type": "string",
        "value": "0dp"
    },
    "_margin_": [
        0,
        0,
        0,
        0
    ],
    "_padding_": [
        0,
        0,
        0,
        0
    ],
    "_skin_": "s8a5affe47304598ba6c22a8203da41b",
    "_top_": {
        "type": "string",
        "value": "19%"
    },
    "_width_": {
        "type": "string",
        "value": "100%"
    },
    "allboxes": [],
    "allowhorizontalbounce": false,
    "allowverticalbounce": true,
    "bounces": true,
    "canUpdateUI": true,
    "children": [
        "dealsWrapper",
        "CopyandroidInsightsCover0ae6415e4664a40"
    ],
    "clipbounds": true,
    "containerweight": 100,
    "decelerat": false,
    "dragg": false,
    "enabled": false,
    "enablescrolling": false,
    "horizontalscrollindicator": true,
    "id": "dealsOuterScroll",
    "info": null,
    "isvisible": true,
    "kuid": "f85e3751a1bf47de921f1457da13a3aa",
    "layouttype": 2,
    "name": "kony.ui.FlexScrollContainer",
    "onscrolling": "AS_FlexScrollContainer_a15b7500a04e48c0afa2ff334e0b1317",
    "ontouchend": "AS_FlexScrollContainer_eff01ea249ec4b70b738d9a14ebc6f2c",
    "orientation": 6,
    "pagingenabled": false,
    "parent": "flxDeals",
    "percent": true,
    "pf": "frmAccountsLandingKA",
    "scrolldirection": 2,
    "snapgridsize": 10,
    "snaptogrid": true,
    "track": false,
    "verticalscrollindicator": false,
    "vizProps": {
        "hide": false
    },
    "wType": "FlexScrollContainer",
    "widgetalignment": 1,
    "zindex": 1
}