{
    "@class": "com.kony.gen.viz.model.component.KVizLabel",
    "DNDConfig": null,
    "__markedForDelete__": true,
    "__parentReadjusting__": false,
    "_height_": {
        "type": "ref",
        "value": "preferred"
    },
    "_left_": {
        "type": "string",
        "value": "17.52%"
    },
    "_margin_": [
        1,
        1,
        1,
        1
    ],
    "_padding_": [
        0,
        0,
        0,
        0
    ],
    "_skin_": "s25eaab7a17f44c2a4d4448a03130788",
    "_text_": "You do not have any Activated Banking Accounts",
    "_top_": {
        "type": "string",
        "value": "20dp"
    },
    "_width_": {
        "type": "string",
        "value": "65%"
    },
    "_wrapping_": 2,
    "canUpdateUI": true,
    "centerx": {
        "type": "string",
        "value": "50%"
    },
    "centery": {
        "type": "string",
        "value": "15.50%"
    },
    "containerweight": 100,
    "contentalignment": 5,
    "enabled": false,
    "id": "LabelNoRecordsKA",
    "info": null,
    "ipad": {
        "psp": {
            "wrapping": 2
        }
    },
    "iphone": {
        "psp": {
            "wrapping": 2
        }
    },
    "isvisible": false,
    "kuid": "9874365097f643f1be03cf938b6de987",
    "name": "kony.ui.Label",
    "parent": "accountsInnerScroll",
    "pf": "frmAccountsLandingKA",
    "texti18n": "i18n.alerts.NoAccountsMsg",
    "tooltip": "",
    "wType": "Label",
    "zindex": 1
}