{
    "DNDConfig": null,
    "__parentReadjusting__": false,
    "_height_": {
        "type": "ref",
        "value": "preferred"
    },
    "_left_": {
        "type": "string",
        "value": "0dp"
    },
    "_margin_": [
        0,
        0,
        0,
        0
    ],
    "_orientation_": 6,
    "_padding_": [
        0,
        0,
        0,
        0
    ],
    "_percent_": true,
    "_skin_": "s77117634aa14e58908cea4332c51ada",
    "_top_": {
        "type": "string",
        "value": "210dp"
    },
    "_width_": {
        "type": "string",
        "value": "100%"
    },
    "allboxes": [],
    "autogrowmode": 1,
    "canUpdateUI": true,
    "children": [
        "lblquestion3",
        "lstboxquestn3",
        "CopylblLineKA0094e603337474c",
        "tbxAnswer3",
        "CopylblLineKA0b98c3838f27c40"
    ],
    "clipbounds": true,
    "containerweight": 100,
    "enablescrolling": true,
    "id": "flxquestion3",
    "info": null,
    "isvisible": true,
    "kuid": "7af117ae5c864b589cc1585bf809367f",
    "layouttype": 2,
    "name": "kony.ui.FlexContainer",
    "parent": "flxscrollquestions",
    "pf": "frmEnrolluserLandingKA",
    "snapgridsize": 10,
    "snaptogrid": true,
    "wType": "FlexContainer",
    "widgetalignment": 1,
    "zindex": 1
}