{
    "DNDConfig": null,
    "__markedForDelete__": true,
    "__parentReadjusting__": false,
    "_height_": {
        "type": "string",
        "value": "30%"
    },
    "_margin_": [
        0,
        0,
        0,
        0
    ],
    "_orientation_": 6,
    "_padding_": [
        0,
        0,
        0,
        0
    ],
    "_percent_": true,
    "_skin_": "s388f0c575ef4d08ac3a5ed0a4b90085",
    "_top_": {
        "type": "string",
        "value": "2%"
    },
    "_width_": {
        "type": "string",
        "value": "95%"
    },
    "allboxes": [],
    "autogrowmode": 0,
    "canUpdateUI": true,
    "centerx": {
        "type": "string",
        "value": "50%"
    },
    "children": [
        "CopyflxCondition0b324925061a144",
        "CopyflxCondition0e77c4054b89f4a",
        "CopyflxCondition0dca65c03fb0343",
        "CopyflxCondition0bb39ff0ea27c42",
        "CopyflxCondition0g5a2cbe6e57248",
        "lblAllowededSpecialCharactersuname"
    ],
    "clipbounds": true,
    "containerweight": 100,
    "enablescrolling": true,
    "id": "flxUsernameValidation",
    "info": null,
    "isvisible": false,
    "kuid": "i4f860df193545e9a6b9f72f5eb68a27",
    "layouttype": 4,
    "name": "kony.ui.FlexContainer",
    "parent": "flxUserPass",
    "pf": "frmEnrolluserLandingKA",
    "snapgridsize": 10,
    "snaptogrid": true,
    "wType": "FlexContainer",
    "widgetalignment": 1,
    "zindex": 1
}