{
    "@class": "com.kony.gen.viz.model.component.KVizTextBox2",
    "DNDConfig": null,
    "__markedForDelete__": true,
    "__parentReadjusting__": false,
    "_bottom_": {
        "type": "string",
        "value": "4%"
    },
    "_height_": {
        "type": "string",
        "value": "60%"
    },
    "_margin_": [
        0,
        0,
        0,
        0
    ],
    "_padding_": [
        3,
        0,
        0,
        0
    ],
    "_placeholder_": "",
    "_skin_": "s029998596d3421892d0917ea7492e1d",
    "_text_": "",
    "_width_": {
        "type": "string",
        "value": "100%"
    },
    "accessibilityconfig": {
        "a11yLabel": "Confirm your password and click next"
    },
    "android": {
        "ide_onEndEditing": "AS_TextField_c5ac0110dbba405c94d1862a4e8642fa",
        "psp": {
            "keyboardActionLabel": 1
        }
    },
    "autocapitalize": "none",
    "autocomplete": false,
    "autocorrect": false,
    "autofilter": false,
    "canUpdateUI": true,
    "centerx": {
        "type": "string",
        "value": "50%"
    },
    "containerheight": "",
    "containerheightmode": 1,
    "containerweight": 100,
    "contentalignment": 4,
    "disabledSkins": {},
    "focusskin": "s029998596d3421892d0917ea7492e1d",
    "id": "tbxConfrmPwdKA",
    "ide_onDone": "AS_TextField_d73fbb049c8848d184432e4d2c245e79",
    "ide_onTextChange": "AS_TextField_f958340f0288419582fe0ba29281bd4b",
    "ide_onTouchEnd": "AS_TextField_ha10c8a825c5479693b5046341776c30",
    "info": null,
    "iphone": {
        "ide_onEndEditing": "AS_TextField_g0f69379be7649278bc79502e6601aa6",
        "psp": {
            "pasteboardType": 1,
            "showClearButton": false,
            "showCloseButton": false,
            "showProgressIndicator": false
        }
    },
    "isvisible": true,
    "keyboardtype": "A",
    "kuid": "g4fd10c8cb664ea4a6b95e1a502a2d55",
    "mode": "A",
    "name": "kony.ui.TextBox2",
    "parent": "flxConfirmPassword",
    "pasteboardtype": 1,
    "pf": "frmEnrolluserLandingKA",
    "securetextentry": true,
    "textinputmode": "A",
    "viewtype": "default",
    "wType": "TextField",
    "zindex": 1
}