{
    "@class": "com.kony.gen.viz.model.component.KVizButton",
    "DNDConfig": null,
    "__parentReadjusting__": false,
    "_height_": {
        "type": "string",
        "value": "50dp"
    },
    "_margin_": [
        6,
        6,
        6,
        6
    ],
    "_padding_": [
        0,
        0,
        0,
        0
    ],
    "_right_": {
        "type": "string",
        "value": "35dp"
    },
    "_skin_": "s2862c07881f45d7a83129ef63b9095f",
    "_text_": "L",
    "_top_": {
        "type": "string",
        "value": "-0.07%"
    },
    "_width_": {
        "type": "string",
        "value": "60dp"
    },
    "canUpdateUI": true,
    "containerId": true,
    "containerweight": 100,
    "contentalignment": 5,
    "disabledSkins": {},
    "displaytext": true,
    "focusskin": "s2862c07881f45d7a83129ef63b9095f",
    "id": "btnNav",
    "ide_onClick": "AS_Button_b6e13270cfa14c249cdba2f4a8b6ed6e",
    "info": null,
    "isvisible": false,
    "kuid": "a27fab42879c47e5a19843f3a5faeac2",
    "name": "kony.ui.Button",
    "parent": "flxCardsLandingTemplate",
    "pf": "tmpSegCardsLanding",
    "wType": "Button",
    "zindex": 1
}