{
    "@class": "com.kony.gen.viz.model.component.KVizLabel",
    "DNDConfig": null,
    "_margin_": [
        0,
        2,
        0,
        6
    ],
    "_padding_": [
        0,
        0,
        0,
        0
    ],
    "_skin_": "s22e125e32e949dca335f945f9ac0cab",
    "_text_": "Select the reason for card de-activation",
    "_wrapping_": 2,
    "android": {
        "textStyle": {
            "letterSpacing": 0,
            "strikeThrough": false
        }
    },
    "canUpdateUI": true,
    "containerweight": 100,
    "contentalignment": 5,
    "donotUpdateContainerWeight": false,
    "id": "lblStopCardDesc",
    "info": null,
    "ipad": {
        "psp": {
            "wrapping": 2
        }
    },
    "iphone": {
        "psp": {
            "wrapping": 2
        }
    },
    "isvisible": true,
    "kuid": "a2aa5867e0764096b58f8585b4422029",
    "margininpixel": false,
    "name": "kony.ui.Label",
    "paddInPixel": [
        0,
        0,
        0,
        0
    ],
    "parent": "HBxTitle",
    "pf": "popupStopCard",
    "texti18n": "i18n.stopCard.Activate",
    "tooltip": "",
    "wType": "Label"
}