{
    "@class": "com.kony.gen.viz.model.component.KVizButton", 
    "DNDConfig": null, 
    "__parentReadjusting__": false, 
    "_height_": {
        "type": "string", 
        "value": "42dp"
    }, 
    "_margin_": [
        6, 
        6, 
        6, 
        6
    ], 
    "_padding_": [
        0, 
        0, 
        0, 
        0
    ], 
    "_skin_": "s51d68053cae4eba826625de179be4ae", 
    "_text_": "RE-LOGIN...", 
    "_top_": {
        "type": "string", 
        "value": "60dp"
    }, 
    "_width_": {
        "type": "string", 
        "value": "80%"
    }, 
    "canUpdateUI": true, 
    "centerx": {
        "type": "string", 
        "value": "50.00%"
    }, 
    "containerweight": 100, 
    "contentalignment": 5, 
    "displaytext": true, 
    "focusskin": "sbe13586f59d4a768bfe23c1b619f8c6", 
    "id": "btnReLoginKA", 
    "ide_onClick": "AS_Button_e0e28eca07b24c208c20dee2fd9a9fb6", 
    "info": null, 
    "iphone": {
        "psp": {
            "showProgressIndicator": false
        }
    }, 
    "isvisible": true, 
    "kuid": "5aaf9dae167d4efe83373be1ab0d3501", 
    "name": "kony.ui.Button", 
    "onclick": "AS_Button_b9bdaa9f9f044b07a3cc0b9a37121d52", 
    "parent": "FlexContainer00a3c07fadcbf4b", 
    "pf": "frmConfirmationUserNameKA", 
    "showprogressindicator": false, 
    "texti18n": "i18n.common.reLogin", 
    "wType": "Button", 
    "zindex": 1
}