{
    "@class": "com.kony.gen.viz.model.component.KVizButton",
    "DNDConfig": null,
    "__parentReadjusting__": false,
    "_height_": {
        "type": "string",
        "value": "100%"
    },
    "_margin_": [
        6,
        6,
        6,
        6
    ],
    "_padding_": [
        0,
        0,
        0,
        0
    ],
    "_right_": {
        "type": "string",
        "value": "9%"
    },
    "_skin_": "sfdddcea6cff4d788f42120343a323ef",
    "_text_": "d",
    "_top_": {
        "type": "string",
        "value": "0%"
    },
    "_width_": {
        "type": "string",
        "value": "90%"
    },
    "canUpdateUI": true,
    "containerweight": 100,
    "contentalignment": 6,
    "displaytext": true,
    "focusskin": "sfdddcea6cff4d788f42120343a323ef",
    "id": "btnDropDownCard",
    "ide_onClick": "AS_Button_gc010130bb594a9c80894a7b91fffaa9",
    "info": null,
    "isvisible": true,
    "kuid": "cbbe60bdf04c4174b23c00a5c9c4ee6f",
    "name": "kony.ui.Button",
    "parent": "flxCardNumber",
    "pf": "frmCreditCardPayment",
    "wType": "Button",
    "zindex": 3
}