{
    "@class": "com.kony.gen.viz.model.component.KVizTextBox2",
    "DNDConfig": null,
    "__parentReadjusting__": false,
    "_height_": {
        "type": "string",
        "value": "45%"
    },
    "_left_": {
        "type": "string",
        "value": "5%"
    },
    "_margin_": [
        0,
        0,
        0,
        0
    ],
    "_padding_": [
        0,
        0,
        0,
        0
    ],
    "_placeholder_": "0.000",
    "_skin_": "sa25e426dcb94c13ab46f59a2b31a09a",
    "_text_": "",
    "_top_": {
        "type": "string",
        "value": "40%"
    },
    "_width_": {
        "type": "string",
        "value": "90%"
    },
    "android": {
        "ide_onEndEditing": "AS_TextField_a114ddfa993a49a3bac129e464ba5bbe",
        "psp": {
            "keyboardActionLabel": 1
        }
    },
    "autocapitalize": "none",
    "autocomplete": false,
    "autocorrect": false,
    "autofilter": false,
    "canUpdateUI": true,
    "containerheight": "",
    "containerheightmode": 1,
    "containerweight": 100,
    "contentalignment": 4,
    "focusskin": "sa25e426dcb94c13ab46f59a2b31a09a",
    "id": "txtFieldAmount",
    "ide_onDone": "AS_TextField_d95f6ac7bcad4cb4986a6cbbea503257",
    "ide_onTextChange": "AS_TextField_a38625f8a0e247b98d05d406f50bb2cc",
    "ide_onTouchStart": "AS_TextField_cce7105e7c5a415ebe77e51f49ec19d1",
    "info": null,
    "iphone": {
        "ide_onEndEditing": "AS_TextField_b95916bd4add4f63858daa242f1d9835",
        "psp": {
            "keyboardActionLabel": 1,
            "showClearButton": false,
            "showCloseButton": false,
            "showProgressIndicator": false
        }
    },
    "isvisible": true,
    "keyboardactionlabel": 4,
    "keyboardstyle": "number",
    "keyboardtype": "A",
    "kuid": "fd72bbcfd27d4ceeb7e6cbb43a4ce0b6",
    "maxtextlength": 9,
    "mode": "N",
    "name": "kony.ui.TextBox2",
    "paddinginpixel": false,
    "parent": "flxAmount",
    "pf": "frmCreditCardPayment",
    "securetextentry": false,
    "showclearbutton": false,
    "showoprogressindicator": false,
    "spa": {},
    "textinputmode": "N",
    "viewtype": "default",
    "wType": "TextField",
    "zindex": 1
}