{
    "@class": "com.kony.gen.viz.model.component.KVizButton", 
    "DNDConfig": null, 
    "__parentReadjusting__": false, 
    "_height_": {
        "type": "string", 
        "value": "35dp"
    }, 
    "_margin_": [
        6, 
        6, 
        6, 
        6
    ], 
    "_padding_": [
        0, 
        0, 
        0, 
        0
    ], 
    "_skin_": "s94d80e187a44bd9bb9ce6db5e729010", 
    "_text_": "No Thanks", 
    "_top_": {
        "type": "string", 
        "value": "4dp"
    }, 
    "_width_": {
        "type": "string", 
        "value": "260dp"
    }, 
    "canUpdateUI": true, 
    "centerx": {
        "type": "string", 
        "value": "50.03%"
    }, 
    "containerweight": 100, 
    "contentalignment": 5, 
    "displaytext": true, 
    "focusskin": "s6e8459b84e349d98629a088bbfe1304", 
    "id": "noThanks", 
    "ide_onClick": "AS_Button_78bed686e92749438c003ca03526e6aa", 
    "info": null, 
    "iphone": {
        "psp": {
            "showProgressIndicator": false
        }
    }, 
    "isvisible": true, 
    "kuid": "73eb989b2e91401997146b849a1a0b4d", 
    "name": "kony.ui.Button", 
    "onclick": "AS_Button_922c47fe95a640a0b96a9d201d7cf787", 
    "parent": "FlexContainer00a3c07fadcbf4b", 
    "pf": "frmDeviceRegisterationIncorrectPinActicvationKA", 
    "showprogressindicator": false, 
    "texti18n": "i18n.common.noThanks", 
    "wType": "Button", 
    "zindex": 1
}