{
    "@class": "com.kony.gen.viz.model.component.KVizButton",
    "DNDConfig": null,
    "__markedForDelete__": true,
    "__parentReadjusting__": false,
    "_height_": {
        "type": "ref",
        "value": "preferred"
    },
    "_left_": {
        "type": "string",
        "value": "5%"
    },
    "_margin_": [
        6,
        6,
        6,
        6
    ],
    "_padding_": [
        0,
        0,
        0,
        0
    ],
    "_skin_": "s1858dc0a19e403a93a532b59571c961",
    "_text_": "t",
    "_width_": {
        "type": "ref",
        "value": "preferred"
    },
    "canUpdateUI": true,
    "centery": {
        "type": "string",
        "value": "50%"
    },
    "containerweight": 100,
    "contentalignment": 5,
    "displaytext": true,
    "focusskin": "s1858dc0a19e403a93a532b59571c961",
    "id": "btnBranch",
    "ide_onClick": "AS_Button_ja2875f63f7c4ebd93502e6fb2f68092",
    "info": null,
    "isvisible": true,
    "kuid": "cdca3a66a53943b29e16a8be8052648f",
    "name": "kony.ui.Button",
    "parent": "flxRadioDeliveryMode",
    "pf": "frmRequestStatementAccounts",
    "wType": "Button",
    "zindex": 2
}