{
    "@class": "com.kony.gen.viz.model.component.KVizButton",
    "DNDConfig": null,
    "__parentReadjusting__": false,
    "_height_": {
        "type": "string",
        "value": "42dp"
    },
    "_margin_": [
        6,
        6,
        6,
        6
    ],
    "_padding_": [
        0,
        0,
        0,
        0
    ],
    "_skin_": "s51d68053cae4eba826625de179be4ae",
    "_text_": "ADD PAYEE",
    "_top_": {
        "type": "string",
        "value": "40dp"
    },
    "_width_": {
        "type": "string",
        "value": "80%"
    },
    "canUpdateUI": true,
    "centerx": {
        "type": "string",
        "value": "50.00%"
    },
    "containerweight": 100,
    "contentalignment": 5,
    "disabledSkins": {},
    "displaytext": true,
    "focusskin": "sbe13586f59d4a768bfe23c1b619f8c6",
    "id": "saveNewPayeeButton",
    "ide_onClick": "AS_Button_3d65bbd843c24bd2b9c8aec41e7d7b66",
    "info": null,
    "iphone": {
        "psp": {
            "showProgressIndicator": false
        }
    },
    "isvisible": true,
    "kuid": "24f8649b645a46af9ade654fe898c59c",
    "name": "kony.ui.Button",
    "onclick": "AS_Button_3d65bbd843c24bd2b9c8aec41e7d7b66",
    "parent": "buttonWrapper",
    "pf": "frmAddNewPayeeKA",
    "showprogressindicator": false,
    "texti18n": "i18n.common.btnAddPayee",
    "wType": "Button",
    "zindex": 1
}