{
    "@class": "com.kony.gen.viz.model.component.KVizButton",
    "DNDConfig": null,
    "__parentReadjusting__": false,
    "_height_": {
        "type": "string",
        "value": "42dp"
    },
    "_left_": {
        "type": "string",
        "value": "10%"
    },
    "_margin_": [
        6,
        6,
        6,
        6
    ],
    "_padding_": [
        0,
        0,
        0,
        0
    ],
    "_skin_": "s51d68053cae4eba826625de179be4ae",
    "_text_": "CONFIRM TRANSFER",
    "_top_": {
        "type": "string",
        "value": "20dp"
    },
    "_width_": {
        "type": "string",
        "value": "80%"
    },
    "canUpdateUI": true,
    "containerweight": 100,
    "contentalignment": 5,
    "displaytext": true,
    "focusskin": "sbe13586f59d4a768bfe23c1b619f8c6",
    "id": "confirmTransaction",
    "ide_onClick": "AS_Button_c9e9ab8f98bd4c3c837e50495f4b120c",
    "info": null,
    "iphone": {
        "psp": {
            "showProgressIndicator": false
        }
    },
    "isvisible": true,
    "kuid": "5f4a2efcb3af417cabe5109b15757d02",
    "name": "kony.ui.Button",
    "onclick": "AS_Button_c9e9ab8f98bd4c3c837e50495f4b120c",
    "parent": "confirmContainer",
    "pf": "frmNewTransferKA",
    "showprogressindicator": false,
    "texti18n": "i18n.transfer.confirmTransferC",
    "wType": "Button"
}