{
    "@class": "com.kony.gen.viz.model.container.KVizSegment2",
    "DNDConfig": null,
    "__parentReadjusting__": false,
    "_data_": [
        {
            "Label0bed5640cdb4b46": {
                "@class": "com.viz.ide.model.segment.SimpleTextSegmentData",
                "text": "Label"
            },
            "amountAccount1": {
                "@class": "com.viz.ide.model.segment.SimpleTextSegmentData",
                "text": "$00.00"
            },
            "amountcurrBal": {
                "@class": "com.viz.ide.model.segment.SimpleTextSegmentData",
                "text": "$00.00"
            },
            "amtOutsatndingBal": {
                "@class": "com.viz.ide.model.segment.SimpleTextSegmentData",
                "text": "$00.00"
            },
            "btnNav": {
                "@class": "com.viz.ide.model.segment.SimpleTextSegmentData",
                "text": "L"
            },
            "lblAccountID": {
                "@class": "com.viz.ide.model.segment.SimpleTextSegmentData",
                "text": "Label"
            },
            "lblColorKA": {
                "@class": "com.viz.ide.model.segment.SimpleTextSegmentData",
                "text": ""
            },
            "lblCurrency": {
                "@class": "com.viz.ide.model.segment.SimpleTextSegmentData",
                "text": "JOD"
            },
            "lblIncommingRing": {
                "@class": "com.viz.ide.model.segment.SimpleTextSegmentData",
                "text": "s"
            },
            "lblMobile": {
                "@class": "com.viz.ide.model.segment.SimpleTextSegmentData",
                "text": "S"
            },
            "lblRowSeparator": {
                "@class": "com.viz.ide.model.segment.SimpleTextSegmentData",
                "text": "Label"
            },
            "nameAccount1": {
                "@class": "com.viz.ide.model.segment.SimpleTextSegmentData",
                "text": "RichText"
            },
            "nameAccount12": {
                "@class": "com.viz.ide.model.segment.SimpleTextSegmentData",
                "text": "Account Name"
            },
            "typeAccount": {
                "@class": "com.viz.ide.model.segment.SimpleTextSegmentData",
                "text": "Available Balance"
            },
            "typeKA": {
                "@class": "com.viz.ide.model.segment.SimpleTextSegmentData",
                "text": ""
            }
        },
        {
            "Label0bed5640cdb4b46": {
                "@class": "com.viz.ide.model.segment.SimpleTextSegmentData",
                "text": "Label"
            },
            "amountAccount1": {
                "@class": "com.viz.ide.model.segment.SimpleTextSegmentData",
                "text": "$00.00"
            },
            "amountcurrBal": {
                "@class": "com.viz.ide.model.segment.SimpleTextSegmentData",
                "text": "$00.00"
            },
            "amtOutsatndingBal": {
                "@class": "com.viz.ide.model.segment.SimpleTextSegmentData",
                "text": "$00.00"
            },
            "btnNav": {
                "@class": "com.viz.ide.model.segment.SimpleTextSegmentData",
                "text": "L"
            },
            "lblAccountID": {
                "@class": "com.viz.ide.model.segment.SimpleTextSegmentData",
                "text": "Label"
            },
            "lblColorKA": {
                "@class": "com.viz.ide.model.segment.SimpleTextSegmentData",
                "text": ""
            },
            "lblCurrency": {
                "@class": "com.viz.ide.model.segment.SimpleTextSegmentData",
                "text": "JOD"
            },
            "lblIncommingRing": {
                "@class": "com.viz.ide.model.segment.SimpleTextSegmentData",
                "text": "s"
            },
            "lblMobile": {
                "@class": "com.viz.ide.model.segment.SimpleTextSegmentData",
                "text": "S"
            },
            "lblRowSeparator": {
                "@class": "com.viz.ide.model.segment.SimpleTextSegmentData",
                "text": "Label"
            },
            "nameAccount1": {
                "@class": "com.viz.ide.model.segment.SimpleTextSegmentData",
                "text": "RichText"
            },
            "nameAccount12": {
                "@class": "com.viz.ide.model.segment.SimpleTextSegmentData",
                "text": "Account Name"
            },
            "typeAccount": {
                "@class": "com.viz.ide.model.segment.SimpleTextSegmentData",
                "text": "Available Balance"
            },
            "typeKA": {
                "@class": "com.viz.ide.model.segment.SimpleTextSegmentData",
                "text": ""
            }
        },
        {
            "Label0bed5640cdb4b46": {
                "@class": "com.viz.ide.model.segment.SimpleTextSegmentData",
                "text": "Label"
            },
            "amountAccount1": {
                "@class": "com.viz.ide.model.segment.SimpleTextSegmentData",
                "text": "$00.00"
            },
            "amountcurrBal": {
                "@class": "com.viz.ide.model.segment.SimpleTextSegmentData",
                "text": "$00.00"
            },
            "amtOutsatndingBal": {
                "@class": "com.viz.ide.model.segment.SimpleTextSegmentData",
                "text": "$00.00"
            },
            "btnNav": {
                "@class": "com.viz.ide.model.segment.SimpleTextSegmentData",
                "text": "L"
            },
            "lblAccountID": {
                "@class": "com.viz.ide.model.segment.SimpleTextSegmentData",
                "text": "Label"
            },
            "lblColorKA": {
                "@class": "com.viz.ide.model.segment.SimpleTextSegmentData",
                "text": ""
            },
            "lblCurrency": {
                "@class": "com.viz.ide.model.segment.SimpleTextSegmentData",
                "text": "JOD"
            },
            "lblIncommingRing": {
                "@class": "com.viz.ide.model.segment.SimpleTextSegmentData",
                "text": "s"
            },
            "lblMobile": {
                "@class": "com.viz.ide.model.segment.SimpleTextSegmentData",
                "text": "S"
            },
            "lblRowSeparator": {
                "@class": "com.viz.ide.model.segment.SimpleTextSegmentData",
                "text": "Label"
            },
            "nameAccount1": {
                "@class": "com.viz.ide.model.segment.SimpleTextSegmentData",
                "text": "RichText"
            },
            "nameAccount12": {
                "@class": "com.viz.ide.model.segment.SimpleTextSegmentData",
                "text": "Account Name"
            },
            "typeAccount": {
                "@class": "com.viz.ide.model.segment.SimpleTextSegmentData",
                "text": "Available Balance"
            },
            "typeKA": {
                "@class": "com.viz.ide.model.segment.SimpleTextSegmentData",
                "text": ""
            }
        }
    ],
    "_height_": {
        "type": "ref",
        "value": "preferred"
    },
    "_indicator_": "none",
    "_left_": {
        "type": "string",
        "value": "0dp"
    },
    "_margin_": [
        0,
        0,
        0,
        0
    ],
    "_orientation_": 2,
    "_padding_": [
        0,
        0,
        0,
        0
    ],
    "_top_": {
        "type": "string",
        "value": "0dp"
    },
    "_width_": {
        "type": "string",
        "value": "100%"
    },
    "autogrowmode": 1,
    "canUpdateUI": true,
    "containerweight": 100,
    "counter": "02",
    "disabledSkins": {},
    "focusedindex": null,
    "focuseditem": null,
    "groupcells": false,
    "hasSections": false,
    "id": "segInternalFromAccountsKA",
    "ide_onRowClick": "AS_Segment_bf4eb17ceaef47bca6ac96616d9b1188",
    "info": null,
    "ipad": {
        "psp": {
            "indicator": "rowselect"
        }
    },
    "iphone": {
        "psp": {
            "bounces": false,
            "indicator": "none",
            "showProgressIndicator": false
        }
    },
    "isvisible": true,
    "kuid": "081c43da7cdd4da2aa6c7659a4a51ca3",
    "masterdata": {},
    "name": "kony.ui.SegmentedUI2",
    "needpageindicator": true,
    "pageoffdotimage": "pageoffdot.png",
    "pageondotimage": "pageondot.png",
    "paginationconfig": {
        "position": "bottom"
    },
    "parent": "fromCardInner",
    "pf": "frmNewTransferKA",
    "retainselection": false,
    "rowTemplateId": "d6ec8423e4fc4a0ea9253aafc6a0dd46",
    "rowcounter": 2,
    "rowfocusskin": "s5fa38be22fb4f22b7c642b08276ab82",
    "rowskin": "sd2ca277651a46c0ba82f3226859f5a6",
    "rowtemplate": "yourAccount1",
    "screenlevelwidget": false,
    "seccounter": 0,
    "sectionHeaderTemplateId": null,
    "sectionheaderskin": "s67621b8a82d49f285da06b4f5a0c993",
    "selectedRows": null,
    "selectedState": false,
    "selectedindex": null,
    "selectedindices": null,
    "selecteditems": null,
    "selectedsectionindex": 0,
    "selectionbehavior": "default",
    "separatorrequired": false,
    "showscrollbars": false,
    "viewtype": "tableview",
    "wType": "Segment",
    "widgetalignment": 5,
    "widgetdatamap": {
        "CopylblIncommingRing0ac2c9e9c52d147": "CopylblIncommingRing0ac2c9e9c52d147",
        "Label0bed5640cdb4b46": "Label0bed5640cdb4b46",
        "amountAccount1": "amountAccount1",
        "amountcurrBal": "amountcurrBal",
        "amtOutsatndingBal": "amtOutsatndingBal",
        "btnNav": "btnNav",
        "btnNav1": "btnNav1",
        "dummyAccountName": "dummyAccountName",
        "dummyAccountNumber": "dummyAccountNumber",
        "flxLine": "flxLine",
        "flxSet": "flxSet",
        "flxamount": "flxamount",
        "isPFMLabel": "isPFMLabel",
        "lblAccNumber": "lblAccNumber",
        "lblAccountID": "lblAccountID",
        "lblBankName": "lblBankName",
        "lblColorKA": "lblColorKA",
        "lblCurrency": "lblCurrency",
        "lblIncommingRing": "lblIncommingRing",
        "lblMobile": "lblMobile",
        "lblRowSeparator": "lblRowSeparator",
        "nameAccount1": "nameAccount1",
        "nameAccount12": "nameAccount12",
        "nameContainer": "nameContainer",
        "typeAccount": "typeAccount",
        "typeKA": "typeKA",
        "yourAccount1": "yourAccount1"
    }
}