{
    "@class": "com.kony.gen.viz.model.component.KVizLabel",
    "DNDConfig": null,
    "__markedForDelete__": true,
    "__parentReadjusting__": false,
    "_height_": {
        "type": "ref",
        "value": "preferred"
    },
    "_left_": {
        "type": "string",
        "value": "5%"
    },
    "_margin_": [
        1,
        1,
        1,
        1
    ],
    "_padding_": [
        0,
        0,
        0,
        0
    ],
    "_skin_": "s13a04143cc144389349718cc102bee5",
    "_text_": "",
    "_top_": {
        "type": "string",
        "value": "-4%"
    },
    "_width_": {
        "type": "ref",
        "value": "preferred"
    },
    "_wrapping_": 2,
    "android": {
        "textStyle": {
            "letterSpacing": 0,
            "strikeThrough": false
        }
    },
    "canUpdateUI": true,
    "containerweight": 100,
    "contentalignment": 1,
    "id": "lblMobileNumberHint",
    "info": null,
    "ipad": {
        "psp": {
            "wrapping": 2
        }
    },
    "iphone": {
        "psp": {
            "wrapping": 2
        }
    },
    "isvisible": false,
    "kuid": "fae66d65174f480d957be1359036d17c",
    "name": "kony.ui.Label",
    "parent": "flxApplyNewCardsSecond",
    "pf": "frmApplyNewCardsKA",
    "texti18n": "i18n.applycards.limitexceesmsg",
    "tooltip": "",
    "wType": "Label",
    "zindex": 1
}