{
  "android": {
    "background_image": "bg.png",
    "bg_type": "image"
  },
  "background_image": "bg.png",
  "bg_type": "image",
  "border_color": "000000ff",
  "border_style": "plain",
  "border_type": 0,
  "border_width": 0,
  "iphone": {
    "background_image": "bg.png",
    "bg_type": "image"
  },
  "isDefaultSkin": false,
  "kuid": "s8b4c69528ac44edb9c4ff9e8a0cab32",
  "wType": "FlexScrollContainer"
}