{
  "background_color": "385a8500",
  "bg_type": "one",
  "border_color": "000000ff",
  "border_style": "plain",
  "border_type": 0,
  "border_width": 0,
  "isDefaultSkin": false,
  "kuid": "s89c8bbb94fd49889f5d936daaa7d327",
  "wType": "FlexScrollContainer"
}