{
  "background_color": "ffffffff",
  "bg_type": "one",
  "border_color": "27f55700",
  "border_style": "plain",
  "border_type": 0,
  "border_width": 0,
  "isDefaultSkin": false,
  "kuid": "sc40c755e9fa42138968dd90399f4799",
  "wType": "Segment"
}