{
  "background_color": "052c49ff",
  "bg_type": "one",
  "border_color": "000000a0",
  "border_style": "plain",
  "border_type": 0,
  "border_width": 0,
  "isDefaultSkin": false,
  "kuid": "sf1ded73cb854184bfb7526b719a1a2a",
  "wType": "FlexContainer"
}