{
  "background_color": "072c48ff",
  "bg_type": "one",
  "border_color": "ffffffff",
  "border_style": "plain",
  "border_type": 0,
  "border_width": 0,
  "isDefaultSkin": false,
  "kuid": "s5f2f4b453c847d48630d7e791cd9a26",
  "wType": "FlexContainer"
}