{
  "android": {
    "border_color": {
      "angle": 180,
      "colors": [
        "0000ff00",
        "0000ff00",
        "0000ff00",
        "ffffffff"
      ],
      "cs": [
        0,
        43,
        85,
        92
      ],
      "gradientType": "toBottom",
      "gt": "linear"
    },
    "border_style": "plain",
    "border_type": 1,
    "border_width": 0,
    "font_color": "ffffffff",
    "font_name": "BoJFont",
    "font_size": 175,
    "isForked": true
  },
  "background_color": "00000000",
  "bg_type": "one",
  "border_color": "424242ff",
  "border_style": "plain",
  "border_type": 0,
  "border_width": 1,
  "desktopweb": {
    "font_color": "ffffffff",
    "font_name": "Cairo-Regular",
    "font_size": 175,
    "isForked": true
  },
  "fontSizeInPx": false,
  "font_color": "424242ff",
  "font_name": "Cairo-Regular",
  "font_size": 175,
  "font_style": "normal",
  "font_weight": "normal",
  "ipad": {
    "border_color": {
      "angle": 180,
      "colors": [
        "0000ff00",
        "0000ff00",
        "0000ff00",
        "ffffffff"
      ],
      "cs": [
        0,
        43,
        85,
        92
      ],
      "gradientType": "toBottom",
      "gt": "linear"
    },
    "border_style": "plain",
    "border_type": 1,
    "border_width": 0,
    "font_color": "ffffffff",
    "font_name": "Cairo-Regular",
    "font_size": 175,
    "isForked": true
  },
  "iphone": {
    "border_color": {
      "angle": 180,
      "colors": [
        "0000ff00",
        "0000ff00",
        "0000ff00",
        "ffffffff"
      ],
      "cs": [
        0,
        43,
        85,
        92
      ],
      "gradientType": "toBottom",
      "gt": "linear"
    },
    "border_style": "plain",
    "border_type": 1,
    "border_width": 0,
    "font_color": "ffffffff",
    "font_name": "BoJFont",
    "font_size": 175,
    "isForked": true
  },
  "isDefaultSkin": false,
  "kiosk": {
    "border_color": {
      "angle": 180,
      "colors": [
        "0000ff00",
        "0000ff00",
        "0000ff00",
        "ffffffff"
      ],
      "cs": [
        0,
        43,
        85,
        92
      ],
      "gradientType": "toBottom",
      "gt": "linear"
    },
    "border_style": "plain",
    "border_type": 1,
    "border_width": 0,
    "font_color": "ffffffff",
    "font_name": "GenericMonospace",
    "font_size": 175,
    "isForked": true
  },
  "kuid": "s377adf9aa8d4d3cb268884a5fcdf22e",
  "spaan": {
    "font_color": "ffffffff",
    "font_name": "Cairo-Regular",
    "font_size": 175,
    "isForked": true
  },
  "spaandroidtablet": {
    "font_color": "ffffffff",
    "font_name": "Cairo-Regular",
    "font_size": 175,
    "isForked": true
  },
  "spabb": {
    "font_color": "ffffffff",
    "font_name": "Cairo-Regular",
    "font_size": 175,
    "isForked": true
  },
  "spaip": {
    "font_color": "ffffffff",
    "font_name": "Cairo-Regular",
    "font_size": 175,
    "isForked": true
  },
  "spaipad": {
    "font_color": "ffffffff",
    "font_name": "Cairo-Regular",
    "font_size": 175,
    "isForked": true
  },
  "spawindowstablet": {
    "font_color": "ffffffff",
    "font_name": "Cairo-Regular",
    "font_size": 175,
    "isForked": true
  },
  "spawinphone8": {
    "font_color": "ffffffff",
    "font_name": "Cairo-Regular",
    "font_size": 175,
    "isForked": true
  },
  "tabrcandroid": {
    "border_color": {
      "angle": 180,
      "colors": [
        "0000ff00",
        "0000ff00",
        "0000ff00",
        "ffffffff"
      ],
      "cs": [
        0,
        43,
        85,
        92
      ],
      "gradientType": "toBottom",
      "gt": "linear"
    },
    "border_style": "plain",
    "border_type": 1,
    "border_width": 0,
    "font_color": "ffffffff",
    "font_name": "Cairo-Regular",
    "font_size": 175,
    "isForked": true
  },
  "wType": "Label",
  "watchos": {
    "font_color": "ffffffff",
    "font_name": "Cairo-Regular",
    "font_size": 175,
    "isForked": true
  },
  "windows8": {
    "border_color": {
      "angle": 180,
      "colors": [
        "0000ff00",
        "0000ff00",
        "0000ff00",
        "ffffffff"
      ],
      "cs": [
        0,
        43,
        85,
        92
      ],
      "gradientType": "toBottom",
      "gt": "linear"
    },
    "border_style": "plain",
    "border_type": 1,
    "border_width": 0,
    "font_color": "ffffffff",
    "font_name": "GenericMonospace",
    "font_size": 175,
    "isForked": true
  },
  "winphone8": {
    "border_color": {
      "angle": 180,
      "colors": [
        "0000ff00",
        "0000ff00",
        "0000ff00",
        "ffffffff"
      ],
      "cs": [
        0,
        43,
        85,
        92
      ],
      "gradientType": "toBottom",
      "gt": "linear"
    },
    "border_style": "plain",
    "border_type": 1,
    "border_width": 0,
    "font_color": "ffffffff",
    "font_name": "GenericMonospace",
    "font_size": 175,
    "isForked": true
  }
}