{
  "background_color": "ffffff00",
  "bg_type": "one",
  "border_color": "282828ff",
  "border_style": "plain",
  "border_type": 0,
  "border_width": 0,
  "font_color": "ffffffff",
  "font_name": "Cairo-Regular",
  "font_size": 125,
  "font_style": "normal",
  "font_weight": "normal",
  "isDefaultSkin": false,
  "kuid": "sec55cbbe41949f89bfa1bc2b2e10505",
  "wType": "TextField"
}