{
  "background_color": "85858507",
  "bg_type": "one",
  "border_color": "000000ff",
  "border_style": "plain",
  "border_type": 0,
  "border_width": 0,
  "isDefaultSkin": false,
  "kuid": "s3ff8788f490404c8c8be2f47404495b",
  "wType": "FlexScrollContainer"
}