{
  "android": {
    "font_name": "BoJFont"
  },
  "background_color": "00000007",
  "bg_type": "one",
  "border_color": "424242ff",
  "border_style": "plain",
  "border_type": 0,
  "border_width": 0,
  "font_color": "424242ff",
  "font_name": "Cairo-Regular",
  "font_size": 214,
  "font_style": "normal",
  "font_weight": "normal",
  "isDefaultSkin": false,
  "kuid": "sef6c4853b254d53a5f075769a39f003",
  "wType": "Label"
}