{
  "background_image": "dealsbg1.png",
  "bg_type": "image",
  "border_color": "000000ff",
  "border_style": "plain",
  "border_type": 0,
  "border_width": 0,
  "isDefaultSkin": false,
  "kuid": "s9e8651cab5442f8990497075929c64f",
  "wType": "FlexContainer"
}