{
  "background_color": "4f7b8c99",
  "bg_type": "one",
  "border_color": "424242ff",
  "border_style": "plain",
  "border_type": 0,
  "border_width": 0,
  "font_color": "424242ff",
  "font_name": "Cairo-Regular",
  "font_size": 215,
  "font_style": "normal",
  "font_weight": "normal",
  "isDefaultSkin": false,
  "kuid": "s4e2fb92c965411db6a598fb6c9d8fd2",
  "wType": "Label"
}