{
  "background_color": "072c48ff",
  "bg_type": "one",
  "border_color": "ffffffff",
  "border_style": "plain",
  "border_type": 0,
  "border_width": 1,
  "isDefaultSkin": false,
  "kuid": "s72b13af1f654cbe9de1b6abf2f222d1",
  "wType": "FlexContainer"
}