{
  "background_image": "mapbg.png",
  "bg_type": "image",
  "border_color": "efefefff",
  "border_radius": 20,
  "border_style": "custom",
  "border_type": 0,
  "border_width": 1,
  "isDefaultSkin": false,
  "kuid": "s8b6c938df95410096b33480d742d5cd",
  "wType": "FlexContainer"
}