{
  "background_color": "254d6bff",
  "bg_type": "one",
  "border_color": "00000000",
  "border_radius": 10,
  "border_style": "custom",
  "border_type": 0,
  "border_width": 1,
  "isDefaultSkin": false,
  "kuid": "saf8e655ff844eed87b520548d37896a",
  "wType": "FlexContainer"
}