{
  "background_color": "052c4900",
  "bg_type": "one",
  "border_color": "000000ff",
  "border_style": "plain",
  "border_type": 0,
  "border_width": 0,
  "isDefaultSkin": false,
  "kuid": "sa28e1e0f86e498ab77a2204a0c7e4e8",
  "wType": "FlexScrollContainer"
}