{
  "background_color": "ffffffff",
  "bg_type": "one",
  "border_color": "e2e2e2ff",
  "border_radius": 2,
  "border_style": "custom",
  "border_type": 0,
  "border_width": 1,
  "isDefaultSkin": false,
  "kuid": "s25b414cdf67414f9865ad6e66778824",
  "wType": "FlexContainer"
}