{
  "android": {
    "background_color": {
      "angle": 90,
      "colors": [
        "10728eff",
        "10728eff",
        "04334a00"
      ],
      "cs": [
        0,
        1,
        97
      ],
      "gradientType": "toRight",
      "gt": "linear"
    },
    "background_style": "linear",
    "bg_type": "ms_gradient",
    "border_color": "56a9dd00",
    "border_type": 0,
    "isForked": true
  },
  "background_color": "56a9ddff",
  "bg_type": "one",
  "border_color": "56a9ddff",
  "border_style": "rc",
  "border_type": 0,
  "border_width": 1,
  "desktopweb": {
    "background_color": {
      "angle": 90,
      "colors": [
        "10728eff",
        "10728eff",
        "04334a00"
      ],
      "cs": [
        0,
        1,
        97
      ],
      "gradientType": "toRight",
      "gt": "linear"
    },
    "background_style": "linear",
    "bg_type": "ms_gradient",
    "bottom_left_border_color": "56a9ddff",
    "bottom_left_border_style": "plain",
    "bottom_left_border_width": 1,
    "bottom_right_border_color": "56a9ddff",
    "bottom_right_border_style": "plain",
    "bottom_right_border_width": 1,
    "isForked": true,
    "top_left_border_color": "56a9ddff",
    "top_left_border_style": "plain",
    "top_left_border_width": 1,
    "top_right_border_color": "56a9ddff",
    "top_right_border_style": "plain",
    "top_right_border_width": 1
  },
  "ipad": {
    "background_color": {
      "angle": 90,
      "colors": [
        "10728eff",
        "10728eff",
        "04334a00"
      ],
      "cs": [
        0,
        1,
        97
      ],
      "gradientType": "toRight",
      "gt": "linear"
    },
    "background_style": "linear",
    "bg_type": "ms_gradient",
    "border_color": "56a9dd00",
    "border_type": 0,
    "isForked": true
  },
  "iphone": {
    "background_color": {
      "angle": 90,
      "colors": [
        "10728eff",
        "10728eff",
        "04334a00"
      ],
      "cs": [
        0,
        1,
        97
      ],
      "gradientType": "toRight",
      "gt": "linear"
    },
    "background_style": "linear",
    "bg_type": "ms_gradient",
    "border_color": "56a9dd00",
    "border_type": 0,
    "isForked": true
  },
  "isDefaultSkin": false,
  "kiosk": {
    "background_color": {
      "angle": 90,
      "colors": [
        "10728eff",
        "10728eff",
        "04334a00"
      ],
      "cs": [
        0,
        1,
        97
      ],
      "gradientType": "toRight",
      "gt": "linear"
    },
    "background_style": "linear",
    "bg_type": "ms_gradient",
    "border_color": "56a9dd00",
    "border_type": 0,
    "isForked": true
  },
  "kuid": "s48e4bcbd9b2416a8cffe2b8a5ee82ab",
  "spaan": {
    "background_color": {
      "angle": 90,
      "colors": [
        "10728eff",
        "10728eff",
        "04334a00"
      ],
      "cs": [
        0,
        1,
        97
      ],
      "gradientType": "toRight",
      "gt": "linear"
    },
    "background_style": "linear",
    "bg_type": "ms_gradient",
    "bottom_left_border_color": "56a9ddff",
    "bottom_left_border_style": "plain",
    "bottom_left_border_width": 1,
    "bottom_right_border_color": "56a9ddff",
    "bottom_right_border_style": "plain",
    "bottom_right_border_width": 1,
    "isForked": true,
    "top_left_border_color": "56a9ddff",
    "top_left_border_style": "plain",
    "top_left_border_width": 1,
    "top_right_border_color": "56a9ddff",
    "top_right_border_style": "plain",
    "top_right_border_width": 1
  },
  "spaandroidtablet": {
    "background_color": {
      "angle": 90,
      "colors": [
        "10728eff",
        "10728eff",
        "04334a00"
      ],
      "cs": [
        0,
        1,
        97
      ],
      "gradientType": "toRight",
      "gt": "linear"
    },
    "background_style": "linear",
    "bg_type": "ms_gradient",
    "bottom_left_border_color": "56a9ddff",
    "bottom_left_border_style": "plain",
    "bottom_left_border_width": 1,
    "bottom_right_border_color": "56a9ddff",
    "bottom_right_border_style": "plain",
    "bottom_right_border_width": 1,
    "isForked": true,
    "top_left_border_color": "56a9ddff",
    "top_left_border_style": "plain",
    "top_left_border_width": 1,
    "top_right_border_color": "56a9ddff",
    "top_right_border_style": "plain",
    "top_right_border_width": 1
  },
  "spabb": {
    "background_color": {
      "angle": 90,
      "colors": [
        "10728eff",
        "10728eff",
        "04334a00"
      ],
      "cs": [
        0,
        1,
        97
      ],
      "gradientType": "toRight",
      "gt": "linear"
    },
    "background_style": "linear",
    "bg_type": "ms_gradient",
    "bottom_left_border_color": "56a9ddff",
    "bottom_left_border_style": "plain",
    "bottom_left_border_width": 1,
    "bottom_right_border_color": "56a9ddff",
    "bottom_right_border_style": "plain",
    "bottom_right_border_width": 1,
    "isForked": true,
    "top_left_border_color": "56a9ddff",
    "top_left_border_style": "plain",
    "top_left_border_width": 1,
    "top_right_border_color": "56a9ddff",
    "top_right_border_style": "plain",
    "top_right_border_width": 1
  },
  "spaip": {
    "background_color": {
      "angle": 90,
      "colors": [
        "10728eff",
        "10728eff",
        "04334a00"
      ],
      "cs": [
        0,
        1,
        97
      ],
      "gradientType": "toRight",
      "gt": "linear"
    },
    "background_style": "linear",
    "bg_type": "ms_gradient",
    "bottom_left_border_color": "56a9ddff",
    "bottom_left_border_style": "plain",
    "bottom_left_border_width": 1,
    "bottom_right_border_color": "56a9ddff",
    "bottom_right_border_style": "plain",
    "bottom_right_border_width": 1,
    "isForked": true,
    "top_left_border_color": "56a9ddff",
    "top_left_border_style": "plain",
    "top_left_border_width": 1,
    "top_right_border_color": "56a9ddff",
    "top_right_border_style": "plain",
    "top_right_border_width": 1
  },
  "spaipad": {
    "background_color": {
      "angle": 90,
      "colors": [
        "10728eff",
        "10728eff",
        "04334a00"
      ],
      "cs": [
        0,
        1,
        97
      ],
      "gradientType": "toRight",
      "gt": "linear"
    },
    "background_style": "linear",
    "bg_type": "ms_gradient",
    "bottom_left_border_color": "56a9ddff",
    "bottom_left_border_style": "plain",
    "bottom_left_border_width": 1,
    "bottom_right_border_color": "56a9ddff",
    "bottom_right_border_style": "plain",
    "bottom_right_border_width": 1,
    "isForked": true,
    "top_left_border_color": "56a9ddff",
    "top_left_border_style": "plain",
    "top_left_border_width": 1,
    "top_right_border_color": "56a9ddff",
    "top_right_border_style": "plain",
    "top_right_border_width": 1
  },
  "spawindowstablet": {
    "background_color": {
      "angle": 90,
      "colors": [
        "10728eff",
        "10728eff",
        "04334a00"
      ],
      "cs": [
        0,
        1,
        97
      ],
      "gradientType": "toRight",
      "gt": "linear"
    },
    "background_style": "linear",
    "bg_type": "ms_gradient",
    "bottom_left_border_color": "56a9ddff",
    "bottom_left_border_style": "plain",
    "bottom_left_border_width": 1,
    "bottom_right_border_color": "56a9ddff",
    "bottom_right_border_style": "plain",
    "bottom_right_border_width": 1,
    "isForked": true,
    "top_left_border_color": "56a9ddff",
    "top_left_border_style": "plain",
    "top_left_border_width": 1,
    "top_right_border_color": "56a9ddff",
    "top_right_border_style": "plain",
    "top_right_border_width": 1
  },
  "spawinphone8": {
    "background_color": {
      "angle": 90,
      "colors": [
        "10728eff",
        "10728eff",
        "04334a00"
      ],
      "cs": [
        0,
        1,
        97
      ],
      "gradientType": "toRight",
      "gt": "linear"
    },
    "background_style": "linear",
    "bg_type": "ms_gradient",
    "bottom_left_border_color": "56a9ddff",
    "bottom_left_border_style": "plain",
    "bottom_left_border_width": 1,
    "bottom_right_border_color": "56a9ddff",
    "bottom_right_border_style": "plain",
    "bottom_right_border_width": 1,
    "isForked": true,
    "top_left_border_color": "56a9ddff",
    "top_left_border_style": "plain",
    "top_left_border_width": 1,
    "top_right_border_color": "56a9ddff",
    "top_right_border_style": "plain",
    "top_right_border_width": 1
  },
  "tabrcandroid": {
    "background_color": {
      "angle": 90,
      "colors": [
        "10728eff",
        "10728eff",
        "04334a00"
      ],
      "cs": [
        0,
        1,
        97
      ],
      "gradientType": "toRight",
      "gt": "linear"
    },
    "background_style": "linear",
    "bg_type": "ms_gradient",
    "border_color": "56a9dd00",
    "border_type": 0,
    "isForked": true
  },
  "wType": "FlexContainer",
  "windows8": {
    "background_color": {
      "angle": 90,
      "colors": [
        "10728eff",
        "10728eff",
        "04334a00"
      ],
      "cs": [
        0,
        1,
        97
      ],
      "gradientType": "toRight",
      "gt": "linear"
    },
    "background_style": "linear",
    "bg_type": "ms_gradient",
    "border_color": "56a9dd00",
    "border_type": 0,
    "isForked": true
  },
  "winphone8": {
    "background_color": {
      "angle": 90,
      "colors": [
        "10728eff",
        "10728eff",
        "04334a00"
      ],
      "cs": [
        0,
        1,
        97
      ],
      "gradientType": "toRight",
      "gt": "linear"
    },
    "background_style": "linear",
    "bg_type": "ms_gradient",
    "border_color": "56a9dd00",
    "border_type": 0,
    "isForked": true
  }
}