{
  "background_color": "072c48ff",
  "bg_type": "one",
  "border_color": "c1d52fff",
  "border_radius": 100,
  "border_style": "custom",
  "border_type": 0,
  "border_width": 2,
  "isDefaultSkin": false,
  "kuid": "s29e0c7cd8714665ad05ce2b5f3c14e5",
  "wType": "FlexContainer"
}