{
  "background_image": "inactive.png",
  "bg_type": "image",
  "border_color": "000000ff",
  "border_style": "plain",
  "border_type": 0,
  "border_width": 0,
  "isDefaultSkin": false,
  "kuid": "sa89043b68ba43628c2b675f5b71bcf8",
  "wType": "FlexContainer"
}