{
  "background_color": "ffffffff",
  "bg_type": "one",
  "border_color": "000000ff",
  "border_style": "plain",
  "border_type": 0,
  "border_width": 0,
  "isDefaultSkin": false,
  "kuid": "sbf49f46aa324283bd3a0c8cb9310524",
  "wType": "FlexScrollContainer"
}