{
  "background_color": "ffffffff",
  "bg_type": "one",
  "border_color": "000000ff",
  "border_style": "plain",
  "border_type": 0,
  "border_width": 0,
  "font_color": "072c48ff",
  "font_name": "Cairo-Regular",
  "font_size": 100,
  "iphone": {
    "font_name": "Cairo-Regular"
  },
  "isDefaultSkin": false,
  "kuid": "s265d788c731431c86e3ba539eb1994e",
  "wType": "RadioButtonGroup"
}