{
  "background_color": "ffffffff",
  "bg_type": "one",
  "border_color": "000000ff",
  "border_style": "plain",
  "border_type": 0,
  "border_width": 0,
  "isDefaultSkin": false,
  "kuid": "sd1e798b96a149d3a2eea07ff85f9777",
  "wType": "FlexContainer"
}