{
    "DNDConfig": null,
    "_height_": {
        "type": "string",
        "value": "50dp"
    },
    "_margin_": [
        0,
        0,
        0,
        0
    ],
    "_orientation_": 6,
    "_padding_": [
        0,
        0,
        0,
        0
    ],
    "_percent_": true,
    "_skin_": "scbac437d63645e999fd93a95dac609b",
    "allboxes": [],
    "autogrowmode": 0,
    "canUpdateUI": true,
    "children": [
        "lblDeviceTitle",
        "flxThisDeviceSwitchOff",
        "flxThisDeviceSwitchOn"
    ],
    "clipbounds": false,
    "containerId": true,
    "containerweight": 100,
    "enablescrolling": true,
    "id": "flxDeviceDetailsEnabled",
    "info": null,
    "isTemplate": true,
    "isvisible": true,
    "kuid": "d5878b0700004a9485def503451ed2dc",
    "layouttype": 2,
    "name": "kony.ui.FlexContainer",
    "parent": "tmpDeviceRegstrationEnabled",
    "pf": "tmpDeviceRegstrationEnabled",
    "snapgridsize": 10,
    "snaptogrid": true,
    "wType": "FlexContainer",
    "widgetalignment": 1
}