{
    "DNDConfig": null,
    "__markedForDelete__": true,
    "__parentReadjusting__": false,
    "_bottom_": {
        "type": "string",
        "value": "78dp"
    },
    "_left_": {
        "type": "string",
        "value": "0dp"
    },
    "_margin_": [
        0,
        0,
        0,
        0
    ],
    "_orientation_": 6,
    "_padding_": [
        0,
        0,
        0,
        0
    ],
    "_percent_": true,
    "_skin_": "sbf49f46aa324283bd3a0c8cb9310524",
    "_top_": {
        "type": "string",
        "value": "0dp"
    },
    "_width_": {
        "type": "string",
        "value": "100%"
    },
    "allboxes": [],
    "allowhorizontalbounce": false,
    "allowverticalbounce": true,
    "bounces": false,
    "canUpdateUI": true,
    "children": [
        "flxAd1KA",
        "flxAd2KA",
        "flxAd3KA",
        "flxAd4KA",
        "flxAd5KA",
        "flxAdDownloadFailureKA"
    ],
    "clipbounds": true,
    "containerweight": 100,
    "decelerat": false,
    "dragg": false,
    "enablescrolling": true,
    "horizontalscrollindicator": true,
    "id": "flxScrollContainerAdKA",
    "info": null,
    "isvisible": true,
    "kuid": "bd6021f90fcb4b7b9ca04f7ebd4a170c",
    "layouttype": 2,
    "name": "kony.ui.FlexScrollContainer",
    "pagingenabled": true,
    "parent": "flxPostLoginAdvertisementKA",
    "pf": "frmPostLoginAdvertisementKA",
    "scrolldirection": 2,
    "snapgridsize": 10,
    "snaptogrid": true,
    "track": false,
    "verticalscrollindicator": true,
    "wType": "FlexScrollContainer",
    "widgetalignment": 1,
    "zindex": 1
}