{
    "@class": "com.kony.gen.viz.model.component.KVizButton",
    "DNDConfig": null,
    "__parentReadjusting__": false,
    "_height_": {
        "type": "string",
        "value": "80dp"
    },
    "_margin_": [
        6,
        6,
        6,
        6
    ],
    "_padding_": [
        0,
        0,
        0,
        0
    ],
    "_skin_": "s807c6e73d6f416bba9b0be7c288cc0f",
    "_text_": "E",
    "_top_": {
        "type": "string",
        "value": "0"
    },
    "_width_": {
        "type": "string",
        "value": "80dp"
    },
    "canUpdateUI": true,
    "centerx": {
        "type": "string",
        "value": "50%"
    },
    "containerweight": 100,
    "contentalignment": 5,
    "displaytext": true,
    "focusskin": "sc679a6b9dd04f21af610b291690ffcd",
    "id": "btnInfo",
    "ide_onClick": "AS_Button_i333e36c4fe34c39a51291d8102e10e3",
    "info": null,
    "iphone": {
        "psp": {
            "showProgressIndicator": false
        }
    },
    "isvisible": true,
    "kuid": "g4f16862d6cb42ca936849630bcf1546",
    "name": "kony.ui.Button",
    "parent": "flxRight2",
    "pf": "frmMore",
    "showprogressindicator": false,
    "wType": "Button",
    "zindex": 1
}