{
    "@class": "com.kony.gen.viz.model.component.KVizButton",
    "DNDConfig": null,
    "__markedForDelete__": true,
    "__parentReadjusting__": false,
    "_height_": {
        "type": "string",
        "value": "50dp"
    },
    "_margin_": [
        6,
        6,
        6,
        6
    ],
    "_padding_": [
        0,
        0,
        0,
        14
    ],
    "_skin_": "s7a8068a835c44dab75d379494b13a94",
    "_text_": "K",
    "_width_": {
        "type": "string",
        "value": "100%"
    },
    "canUpdateUI": true,
    "centerx": {
        "type": "string",
        "value": "50%"
    },
    "centery": {
        "type": "string",
        "value": "50%"
    },
    "containerweight": 100,
    "contentalignment": 5,
    "disabledSkins": {},
    "displaytext": true,
    "focusskin": "s7a8068a835c44dab75d379494b13a94",
    "id": "btnMore",
    "info": null,
    "iphone": {
        "psp": {
            "showProgressIndicator": false
        }
    },
    "isvisible": true,
    "kuid": "a128e7f108ab4a82bb8e7db06c7c474a",
    "name": "kony.ui.Button",
    "paddinginpixel": false,
    "parent": "FlxMore",
    "pf": "frmMore",
    "showprogressindicator": false,
    "wType": "Button",
    "zindex": 1
}