{
    "@class": "com.kony.gen.viz.model.component.KVizButton",
    "DNDConfig": null,
    "__parentReadjusting__": false,
    "_height_": {
        "type": "string",
        "value": "50dp"
    },
    "_margin_": [
        6,
        6,
        6,
        6
    ],
    "_padding_": [
        0,
        0,
        0,
        0
    ],
    "_right_": {
        "type": "string",
        "value": "0dp"
    },
    "_skin_": "s59645e38bb045058f260129ccbde952",
    "_text_": "o",
    "_width_": {
        "type": "string",
        "value": "55dp"
    },
    "accessibilityconfig": {
        "a11yValue": "go to account details"
    },
    "canUpdateUI": true,
    "centery": {
        "type": "string",
        "value": "50%"
    },
    "containerId": true,
    "containerweight": 100,
    "contentalignment": 5,
    "disabledSkins": {
        "focusSkin": "s20d632b337943efba315bdb346f463e"
    },
    "displaytext": true,
    "id": "Button0hf394843f2a54f",
    "info": null,
    "isvisible": false,
    "kuid": "h32da071bd91419d91b85ba05d40d314",
    "name": "kony.ui.Button",
    "parent": "flxTrans",
    "pf": "tmpSegAccountsTran",
    "wType": "Button",
    "zindex": 1
}