{
    "@class": "com.kony.gen.viz.model.component.KVizLabel",
    "DNDConfig": null,
    "__markedForDelete__": true,
    "__parentReadjusting__": false,
    "_height_": {
        "type": "string",
        "value": "32%"
    },
    "_left_": {
        "type": "string",
        "value": "1%"
    },
    "_margin_": [
        1,
        1,
        1,
        1
    ],
    "_padding_": [
        0,
        0,
        0,
        0
    ],
    "_skin_": "s7a1c51274e840389eac2b892e5ee279",
    "_text_": "Date",
    "_width_": {
        "type": "string",
        "value": "45%"
    },
    "_wrapping_": 2,
    "canUpdateUI": true,
    "centery": {
        "type": "string",
        "value": "20%"
    },
    "containerId": true,
    "containerweight": 100,
    "contentalignment": 4,
    "enabled": false,
    "id": "transactionDateLbl",
    "info": null,
    "ipad": {
        "psp": {
            "wrapping": 2
        }
    },
    "iphone": {
        "psp": {
            "wrapping": 2
        }
    },
    "isvisible": true,
    "kuid": "fe8398b0db2447d5bfe4b049902f7ebd",
    "name": "kony.ui.Label",
    "parent": "flxDetails",
    "pf": "segmanagecardlesstmplt",
    "texti18n": "i18n.accounts.date",
    "tooltip": "",
    "wType": "Label",
    "zindex": 1
}