{
    "@class": "com.kony.gen.viz.model.container.KVizSegment2",
    "DNDConfig": null,
    "__parentReadjusting__": false,
    "_data_": [
        {
            "lblServiceTypePrepaid": {
                "@class": "com.viz.ide.model.segment.SimpleTextSegmentData",
                "text": "Denomination"
            }
        },
        {
            "lblServiceTypePrepaid": {
                "@class": "com.viz.ide.model.segment.SimpleTextSegmentData",
                "text": "Others"
            }
        }
    ],
    "_height_": {
        "type": "ref",
        "value": "preferred"
    },
    "_indicator_": "none",
    "_margin_": [
        0,
        0,
        0,
        0
    ],
    "_orientation_": 2,
    "_padding_": [
        0,
        0,
        0,
        0
    ],
    "_render_": true,
    "_width_": {
        "type": "string",
        "value": "85%"
    },
    "android": {
        "render": true
    },
    "autogrowmode": 1,
    "canUpdateUI": true,
    "centerx": {
        "type": "string",
        "value": "50%"
    },
    "centery": {
        "type": "string",
        "value": "50%"
    },
    "containerweight": 100,
    "counter": "01",
    "focusedindex": null,
    "focuseditem": null,
    "groupcells": false,
    "hasSections": false,
    "id": "segNewPopup",
    "ide_onRowClick": "AS_Segment_j53c5668c7d3470faeb19f0e4e903b74",
    "info": null,
    "ipad": {
        "psp": {
            "indicator": "rowselect"
        }
    },
    "iphone": {
        "psp": {
            "indicator": "rowselect"
        },
        "render": true
    },
    "isvisible": true,
    "kuid": "jacca5661ac94b09894210c4c86d654d",
    "masterdata": {},
    "name": "kony.ui.SegmentedUI2",
    "needpageindicator": true,
    "pageoffdotimage": "pageoffdot.png",
    "pageondotimage": "pageondot.png",
    "paginationconfig": {
        "position": "bottom"
    },
    "parent": "flxPopupOuter",
    "pf": "frmNewBillKA",
    "retainselection": false,
    "rowTemplateId": "hb409190c43e411b8ee19060a3486b9e",
    "rowcounter": 1,
    "rowfocusskin": "s5fa38be22fb4f22b7c642b08276ab82",
    "rowskin": "sd2ca277651a46c0ba82f3226859f5a6",
    "rowtemplate": "tmpflxServiceType",
    "screenlevelwidget": false,
    "seccounter": 0,
    "sectionheaderskin": "s67621b8a82d49f285da06b4f5a0c993",
    "selectedRows": null,
    "selectedState": false,
    "selectedindex": null,
    "selectedindices": null,
    "selecteditems": null,
    "selectedsectionindex": 0,
    "selectionbehavior": "default",
    "separatorcolor": "64646400",
    "separatorrequired": true,
    "separatorthickness": 1,
    "showscrollbars": false,
    "spaan": {
        "render": true
    },
    "spabb": {
        "render": true
    },
    "spaip": {
        "render": true
    },
    "spawinphone8": {
        "render": true
    },
    "viewtype": "tableview",
    "wType": "Segment",
    "widgetalignment": 5,
    "widgetdatamap": {
        "lblServiceTypePrepaid": "lblServiceTypePrepaid",
        "tmpflxServiceType": "tmpflxServiceType"
    },
    "winphone8": {
        "render": true
    },
    "zindex": 1
}