{
    "@class": "com.kony.gen.viz.model.component.KVizTextBox2",
    "DNDConfig": null,
    "__markedForDelete__": true,
    "__parentReadjusting__": false,
    "_bottom_": {
        "type": "string",
        "value": "4%"
    },
    "_height_": {
        "type": "string",
        "value": "60%"
    },
    "_margin_": [
        0,
        0,
        0,
        0
    ],
    "_padding_": [
        3,
        0,
        0,
        0
    ],
    "_placeholder_": "",
    "_skin_": "s029998596d3421892d0917ea7492e1d",
    "_text_": "",
    "_width_": {
        "type": "string",
        "value": "100%"
    },
    "accessibilityconfig": {
        "a11yLabel": "Enter your Username"
    },
    "android": {
        "ide_onEndEditing": "AS_TextField_f5b215e33bbb485db95fcc99281ed55f",
        "onEndEditing": "AS_TextField_ja28486c7a3043998424fea66ecabfa6"
    },
    "autocapitalize": "none",
    "autocomplete": false,
    "autocorrect": false,
    "autofilter": false,
    "canUpdateUI": true,
    "centerx": {
        "type": "string",
        "value": "50%"
    },
    "containerheight": "",
    "containerheightmode": 1,
    "containerweight": 100,
    "contentalignment": 4,
    "disabledSkins": {},
    "focusskin": "s029998596d3421892d0917ea7492e1d",
    "id": "tbxAmount",
    "ide_onDone": "AS_TextField_cd07318128654403a104f8346064d68d",
    "ide_onTextChange": "AS_TextField_aedadc3617a44f70b3b6192768f3bea8",
    "ide_onTouchStart": "AS_TextField_f2e5318357034800a2dbab64f3d0fb6e",
    "info": null,
    "iphone": {
        "ide_onEndEditing": "AS_TextField_dfa61869440347beb667108845967cd5",
        "onBeginEditing": "AS_TextField_c0713df9ccfc44dba27a3f28bca350b8",
        "onEndEditing": "AS_TextField_c0713df9ccfc44dba27a3f28bca350b8"
    },
    "isvisible": true,
    "keyboardstyle": "number",
    "keyboardtype": "A",
    "kuid": "fa3808efeaf049219d7b631b892d11c6",
    "maxtextlength": "",
    "mode": "N",
    "name": "kony.ui.TextBox2",
    "parent": "flxAmount",
    "pf": "frmNewBillKA",
    "securetextentry": false,
    "textinputmode": "N",
    "viewtype": "default",
    "wType": "TextField",
    "zindex": 2
}