{
    "@class": "com.kony.gen.viz.model.component.KVizLabel",
    "DNDConfig": null,
    "__parentReadjusting__": false,
    "_height_": {
        "type": "ref",
        "value": "preferred"
    },
    "_left_": {
        "type": "string",
        "value": "0dp"
    },
    "_margin_": [
        1,
        1,
        1,
        1
    ],
    "_padding_": [
        0,
        0,
        0,
        0
    ],
    "_skin_": "s83084e02eaf41eb8e7d43c156ffe55e",
    "_text_": "Current Balance:",
    "_top_": {
        "type": "string",
        "value": "0dp"
    },
    "_width_": {
        "type": "string",
        "value": "50%"
    },
    "_wrapping_": 2,
    "canUpdateUI": true,
    "containerweight": 100,
    "contentalignment": 4,
    "enabled": false,
    "id": "CopyLabel07fa0c9be280242",
    "info": null,
    "ipad": {
        "psp": {
            "wrapping": 2
        }
    },
    "iphone": {
        "psp": {
            "wrapping": 2
        }
    },
    "isvisible": true,
    "kuid": "acae9aaf407c481c8356a48703735cd5",
    "name": "kony.ui.Label",
    "parent": "CopyFlexContainer0d10cd6555dbe4f",
    "pf": "frmAccountInfoKA",
    "texti18n": "i18n.cards.CurrentBalancec",
    "tooltip": "",
    "wType": "Label"
}