{
    "@class": "com.kony.gen.viz.model.component.KVizButton",
    "DNDConfig": null,
    "__parentReadjusting__": false,
    "_height_": {
        "type": "string",
        "value": "100%"
    },
    "_left_": {
        "type": "string",
        "value": "0dp"
    },
    "_margin_": [
        6,
        6,
        6,
        6
    ],
    "_padding_": [
        0,
        0,
        0,
        0
    ],
    "_skin_": "s74539cd4c33492e8d1de8fbab249ebe",
    "_text_": "",
    "_top_": {
        "type": "string",
        "value": "0dp"
    },
    "_width_": {
        "type": "string",
        "value": "100%"
    },
    "canUpdateUI": true,
    "containerweight": 100,
    "contentalignment": 5,
    "displaytext": true,
    "focusskin": "s3b3286ba246411bb3271bcb1eb8a89f",
    "id": "currentLocationButton",
    "info": null,
    "iphone": {
        "psp": {
            "showProgressIndicator": false
        }
    },
    "isvisible": true,
    "kuid": "e3ba3bba3e7345bcbc6313417502a534",
    "name": "kony.ui.Button",
    "parent": "mapCurrentLocationWrapper",
    "pf": "frmDirectionsKA",
    "showprogressindicator": false,
    "wType": "Button",
    "zindex": 1
}