{
    "@class": "com.kony.gen.viz.model.container.KVizSegment2",
    "DNDConfig": null,
    "__parentReadjusting__": false,
    "_data_": [
        {
            "ImgCategoryKA": {
                "@class": "com.viz.ide.model.segment.ImageSegmentData",
                "src": "budget_furnish.png"
            },
            "fullColorKA": {
                "@class": "com.viz.ide.model.segment.SimpleTextSegmentData",
                "text": "Home Furnishing"
            },
            "lblBelowLabelKA": {
                "@class": "com.viz.ide.model.segment.SimpleTextSegmentData",
                "text": "$400 of $500 used"
            },
            "lblPercentageValKA": {
                "@class": "com.viz.ide.model.segment.SimpleTextSegmentData",
                "text": "80%"
            },
            "restofColorKA": {
                "@class": "com.viz.ide.model.segment.SimpleTextSegmentData",
                "text": " "
            }
        },
        {
            "ImgCategoryKA": {
                "@class": "com.viz.ide.model.segment.ImageSegmentData",
                "src": "budget_office.png"
            },
            "fullColorKA": {
                "@class": "com.viz.ide.model.segment.SimpleTextSegmentData",
                "text": "Painting"
            },
            "lblBelowLabelKA": {
                "@class": "com.viz.ide.model.segment.SimpleTextSegmentData",
                "text": "$380 of $410 used"
            },
            "lblPercentageValKA": {
                "@class": "com.viz.ide.model.segment.SimpleTextSegmentData",
                "text": "85%"
            },
            "restofColorKA": {
                "@class": "com.viz.ide.model.segment.SimpleTextSegmentData",
                "text": " "
            }
        },
        {
            "ImgCategoryKA": {
                "@class": "com.viz.ide.model.segment.ImageSegmentData",
                "src": "budget_painting.png"
            },
            "fullColorKA": {
                "@class": "com.viz.ide.model.segment.SimpleTextSegmentData",
                "text": "Office Setup"
            },
            "lblBelowLabelKA": {
                "@class": "com.viz.ide.model.segment.SimpleTextSegmentData",
                "text": "$280 of $550 used"
            },
            "lblPercentageValKA": {
                "@class": "com.viz.ide.model.segment.SimpleTextSegmentData",
                "text": "60%"
            },
            "restofColorKA": {
                "@class": "com.viz.ide.model.segment.SimpleTextSegmentData",
                "text": " "
            }
        },
        {
            "ImgCategoryKA": {
                "@class": "com.viz.ide.model.segment.ImageSegmentData",
                "src": "budget_printer.png"
            },
            "fullColorKA": {
                "@class": "com.viz.ide.model.segment.SimpleTextSegmentData",
                "text": "Printing Job"
            },
            "lblBelowLabelKA": {
                "@class": "com.viz.ide.model.segment.SimpleTextSegmentData",
                "text": "$370 of $380 used"
            },
            "lblPercentageValKA": {
                "@class": "com.viz.ide.model.segment.SimpleTextSegmentData",
                "text": "95%"
            },
            "restofColorKA": {
                "@class": "com.viz.ide.model.segment.SimpleTextSegmentData",
                "text": " "
            }
        }
    ],
    "_height_": {
        "type": "ref",
        "value": "preferred"
    },
    "_indicator_": "none",
    "_left_": {
        "type": "string",
        "value": "0dp"
    },
    "_margin_": [
        0,
        0,
        0,
        0
    ],
    "_orientation_": 2,
    "_padding_": [
        0,
        0,
        0,
        0
    ],
    "_top_": {
        "type": "string",
        "value": "10dp"
    },
    "_width_": {
        "type": "string",
        "value": "90%"
    },
    "autogrowmode": 1,
    "canUpdateUI": true,
    "centerx": {
        "type": "string",
        "value": "50%"
    },
    "containerweight": 100,
    "counter": "03",
    "disabledSkins": {
        "rowFocusSkin": "s5fa38be22fb4f22b7c642b08276ab82",
        "rowSkin": "sd2ca277651a46c0ba82f3226859f5a6"
    },
    "focusedindex": null,
    "focuseditem": null,
    "groupcells": false,
    "hasSections": false,
    "id": "segBudgetKA",
    "info": null,
    "ipad": {
        "psp": {
            "indicator": "rowselect"
        }
    },
    "iphone": {
        "psp": {
            "indicator": "none"
        }
    },
    "isvisible": true,
    "kuid": "e427935aba6944c98a691a2ecf965aa7",
    "masterdata": {},
    "name": "kony.ui.SegmentedUI2",
    "needpageindicator": true,
    "pageoffdotimage": "pageoffdot.png",
    "pageondotimage": "pageondot.png",
    "paginationconfig": {
        "position": "bottom"
    },
    "parent": "flxImgBudgetKA",
    "pf": "frmMyMoneyListKA",
    "retainselection": false,
    "rowTemplateId": "eccd6b4e8df14d608546b1a577fd4f25",
    "rowcounter": 3,
    "rowtemplate": "flxBudgetListKA",
    "screenlevelwidget": false,
    "seccounter": 0,
    "sectionheaderskin": "s67621b8a82d49f285da06b4f5a0c993",
    "selectedRows": null,
    "selectedState": false,
    "selectedindex": null,
    "selectedindices": null,
    "selecteditems": null,
    "selectedsectionindex": 0,
    "selectionbehavior": "default",
    "separatorrequired": false,
    "showscrollbars": false,
    "viewtype": "tableview",
    "wType": "Segment",
    "widgetalignment": 5,
    "widgetdatamap": {
        "ImgCategoryKA": "ImgCategoryKA",
        "flxBottomLevelKA": "flxBottomLevelKA",
        "flxBudgetListKA": "flxBudgetListKA",
        "flxTopLevelKA": "flxTopLevelKA",
        "fullColorKA": "fullColorKA",
        "lblBelowLabelKA": "lblBelowLabelKA",
        "lblPercentageValKA": "lblPercentageValKA",
        "restofColorKA": "restofColorKA"
    },
    "zindex": 1
}