{
    "@class": "com.kony.gen.viz.model.component.KVizButton",
    "DNDConfig": null,
    "__parentReadjusting__": false,
    "_height_": {
        "type": "string",
        "value": "60dp"
    },
    "_margin_": [
        6,
        6,
        6,
        6
    ],
    "_padding_": [
        0,
        0,
        0,
        0
    ],
    "_right_": {
        "type": "string",
        "value": "3%"
    },
    "_skin_": "s7f6d951444147558d2537fa0f3963db",
    "_text_": "a",
    "_width_": {
        "type": "string",
        "value": "60dp"
    },
    "canUpdateUI": true,
    "centery": {
        "type": "string",
        "value": "50%"
    },
    "containerweight": 100,
    "contentalignment": 5,
    "displaytext": true,
    "focusskin": "sb0009c9170b4314b8a4620a06393546",
    "id": "btnFaceID",
    "ide_onClick": "AS_Button_f26f9f1edd6640328296c8c9b772ff84",
    "info": null,
    "iphone": {
        "psp": {
            "showProgressIndicator": false
        }
    },
    "isvisible": true,
    "kuid": "cb78319d6ff340c9ae0847f6a3784311",
    "name": "kony.ui.Button",
    "onclick": "AS_Button_328c114136424552afae15f35f5f3837",
    "parent": "utilityLinks",
    "pf": "frmLanguageChange",
    "showprogressindicator": false,
    "wType": "Button",
    "zindex": 1
}