{
    "@class": "com.kony.gen.viz.model.component.KVizButton",
    "DNDConfig": null,
    "__markedForDelete__": true,
    "__parentReadjusting__": false,
    "_height_": {
        "type": "ref",
        "value": "preferred"
    },
    "_margin_": [
        6,
        6,
        6,
        6
    ],
    "_padding_": [
        0,
        0,
        0,
        0
    ],
    "_skin_": "s57b429732a44cda9291b8ac6c1ff5d2",
    "_text_": "",
    "_width_": {
        "type": "ref",
        "value": "preferred"
    },
    "canUpdateUI": true,
    "centerx": {
        "type": "string",
        "value": "50%"
    },
    "centery": {
        "type": "string",
        "value": "50%"
    },
    "containerweight": 100,
    "contentalignment": 5,
    "displaytext": true,
    "focusskin": "s856b27ab6cf46699cae7d22df13f953",
    "id": "btnSwitchLanguage",
    "ide_onClick": "AS_Button_a7000baf54c74e8d9742c2568dd37703",
    "info": null,
    "iphone": {
        "psp": {
            "showProgressIndicator": false
        }
    },
    "isvisible": true,
    "kuid": "bd49398a121040b58e013310b2ded2e6",
    "name": "kony.ui.Button",
    "onclick": "AS_Button_1678b00677844bbe8b7de53086dba31d",
    "parent": "flxSwitchLanguage",
    "pf": "frmLanguageChange",
    "showprogressindicator": false,
    "texti18n": "i18n.common.switchlanguage",
    "wType": "Button",
    "zindex": 202
}