{
    "@class": "com.kony.gen.viz.model.component.KVizButton",
    "DNDConfig": null,
    "_margin_": [
        5,
        2,
        5,
        2
    ],
    "_padding_": [
        1,
        1,
        1,
        1
    ],
    "_skin_": "se86fce056444376a91224301d20e8d4",
    "_text_": "",
    "canUpdateUI": true,
    "containerWeightLocked": false,
    "containerweight": 50,
    "contentalignment": 5,
    "displaytext": true,
    "donotUpdateContainerWeight": false,
    "focusskin": "s17e292d54bd48bd8bd8a070c6c1819a",
    "hexpand": true,
    "id": "btnSingleOkay",
    "info": null,
    "isvisible": true,
    "kuid": "e05f57e848a24f22b30fe02919f1e2f5",
    "margininpixel": false,
    "name": "kony.ui.Button",
    "paddInPixel": [
        5.88,
        5.88,
        5.88,
        5.88
    ],
    "paddinginpixel": false,
    "parent": "hbxSingleOk",
    "pf": "popupNotificationInfo",
    "texti18n": "i18n.NUO.OKay",
    "vexpand": false,
    "wType": "Button"
}