{
    "@class": "com.kony.gen.viz.model.container.KVizHBox",
    "DNDConfig": null,
    "_margin_": [
        0,
        0,
        0,
        0
    ],
    "_orientation_": 1,
    "_padding_": [
        2,
        2,
        1,
        2
    ],
    "_percent_": true,
    "_position_": 3,
    "_skin_": "s066e1f55806426ca40936afa9e01f49",
    "allboxes": [],
    "canUpdateUI": true,
    "children": [
        "vbxNotificationIcon",
        "lblAlertHeader",
        "vbxCommonAlertClose"
    ],
    "containerweight": 100,
    "contextmenu": null,
    "id": "hbxAlertHeader",
    "info": null,
    "isvisible": true,
    "kuid": "db28d54a90314730b66604f16f280990",
    "layouttype": 0,
    "margininpixel": false,
    "name": "kony.ui.Box",
    "paddinginpixel": false,
    "parent": "popupNotificationInfo",
    "pf": "popupNotificationInfo",
    "wType": "HBox",
    "widgetalignment": 5
}