{
    "@class": "com.kony.gen.viz.model.component.KVizLabel",
    "DNDConfig": null,
    "_margin_": [
        3,
        1,
        1,
        1
    ],
    "_padding_": [
        0,
        0,
        0,
        0
    ],
    "_skin_": "s74c66cc041f4980b1bf5f7ad82fe572",
    "_text_": "Test Message",
    "_wrapping_": 2,
    "android": {
        "textStyle": {
            "letterSpacing": 0,
            "strikeThrough": false
        }
    },
    "canUpdateUI": true,
    "containerweight": 74,
    "contentalignment": 5,
    "donotUpdateContainerWeight": false,
    "id": "lblAlertHeader",
    "info": null,
    "ipad": {
        "psp": {
            "wrapping": 2
        }
    },
    "iphone": {
        "psp": {
            "wrapping": 2
        }
    },
    "isvisible": true,
    "kuid": "j8b36ff70fd8401d971660ba738e0272",
    "margininpixel": false,
    "name": "kony.ui.Label",
    "paddInPixel": [
        66,
        0,
        0,
        0
    ],
    "paddinginpixel": false,
    "parent": "hbxAlertHeader",
    "pf": "popupNotificationInfo",
    "tooltip": "",
    "wType": "Label"
}