{
    "@class": "com.kony.gen.viz.model.container.KVizSegment2",
    "DNDConfig": null,
    "__parentReadjusting__": false,
    "_bottom_": {
        "type": "number",
        "value": "0"
    },
    "_bounces_": false,
    "_data_": [
        {
            "HiddenLbl": {
                "@class": "com.viz.ide.model.segment.SimpleTextSegmentData",
                "text": ""
            },
            "imgicontick": {
                "@class": "com.viz.ide.model.segment.ImageSegmentData",
                "src": ""
            },
            "lblPageNameKA": {
                "@class": "com.viz.ide.model.segment.SimpleTextSegmentData",
                "text": ""
            }
        }
    ],
    "_height_": {
        "type": "ref",
        "value": "preferred"
    },
    "_indicator_": "none",
    "_left_": {
        "type": "string",
        "value": "0dp"
    },
    "_margin_": [
        0,
        0,
        0,
        0
    ],
    "_orientation_": 2,
    "_padding_": [
        0,
        0,
        0,
        0
    ],
    "_render_": true,
    "_width_": {
        "type": "string",
        "value": "100%"
    },
    "android": {
        "render": true
    },
    "autogrowmode": 1,
    "canUpdateUI": true,
    "containerweight": 100,
    "counter": "00",
    "editstyle": "none",
    "focusedindex": null,
    "focuseditem": null,
    "generatedtemplate": "5bbbb4fd34a54aee981a4de53ba66cf4",
    "groupcells": false,
    "hasSections": false,
    "id": "moreResourcesSegment",
    "ide_onRowClick": "AS_Segment_9032cf7905794b79a7870c2ca9f51c2d",
    "info": null,
    "ipad": {
        "psp": {
            "indicator": "rowselect"
        }
    },
    "iphone": {
        "psp": {
            "bounces": false,
            "editStyle": "none",
            "indicator": "none",
            "searchBy": null,
            "showProgressIndicator": false
        },
        "render": true
    },
    "isvisible": true,
    "kuid": "ae5cb586f7a44c92849e45a5bc10330b",
    "masterdata": {},
    "name": "kony.ui.SegmentedUI2",
    "needpageindicator": true,
    "onrowclick": "AS_Segment_b5105147884d4a4886f8461a3d80cd20",
    "pageoffdotimage": "pageoffdot.png",
    "pageondotimage": "pageondot.png",
    "paginationconfig": {
        "position": "bottom"
    },
    "parent": "bottomContainer",
    "pf": "frmMoreLandingKA",
    "retainselection": false,
    "rowTemplateId": "d5a33392e4ff4f0bbe32e346bb9228e9",
    "rowcounter": 0,
    "rowfocusskin": "sd637e0f4cfa4026ba5ae8c9a2292000",
    "rowskin": "s188360adf7c445da91ce74d44371e05",
    "rowtemplate": "container",
    "screenlevelwidget": false,
    "searchBy": null,
    "seccounter": 0,
    "sectionHeaderTemplateId": null,
    "sectionheaderskin": "s166bbed35d04ad1b28badead9d39877",
    "selectedRows": null,
    "selectedState": false,
    "selectedindex": null,
    "selectedindices": null,
    "selecteditems": null,
    "selectedsectionindex": 0,
    "selectionbehavior": "default",
    "separatorcolor": "f7f7f700",
    "separatorrequired": true,
    "separatorthickness": 1,
    "showprogressindicator": false,
    "showscrollbars": false,
    "spaan": {
        "render": true
    },
    "spabb": {
        "render": true
    },
    "spaip": {
        "render": true
    },
    "spawinphone8": {
        "render": true
    },
    "viewtype": "tableview",
    "wType": "Segment",
    "widgetalignment": 5,
    "widgetdatamap": {
        "container": "container",
        "imgicontick": "imgicontick",
        "lblPageNameKA": "lblPageNameKA"
    },
    "winphone8": {
        "render": true
    }
}