{
    "@class": "com.kony.gen.viz.model.component.KVizTextBox2",
    "DNDConfig": null,
    "__markedForDelete__": true,
    "__parentReadjusting__": false,
    "_height_": {
        "type": "string",
        "value": "100%"
    },
    "_left_": {
        "type": "string",
        "value": "0%"
    },
    "_margin_": [
        0,
        0,
        0,
        0
    ],
    "_padding_": [
        0,
        0,
        0,
        0
    ],
    "_placeholder_": "",
    "_skin_": "s029998596d3421892d0917ea7492e1d",
    "_text_": "",
    "_top_": {
        "type": "string",
        "value": "0%"
    },
    "_width_": {
        "type": "string",
        "value": "100%"
    },
    "android": {
        "ide_onBeginEditing": "AS_TextField_f776956ac6bc4746999272ecd9ad92e6",
        "ide_onEndEditing": "AS_TextField_c68b2a0fbb734998a9dd5531c706e3d1",
        "psp": {
            "keyboardActionLabel": 1
        }
    },
    "autocapitalize": "none",
    "autocomplete": false,
    "autocorrect": false,
    "autofilter": false,
    "canUpdateUI": true,
    "containerheight": "",
    "containerheightmode": 1,
    "containerweight": 100,
    "contentalignment": 4,
    "focusskin": "sa25e426dcb94c13ab46f59a2b31a09a",
    "id": "txtEmail",
    "ide_onDone": "AS_TextField_ddc38f9c7bb34478bf01e951649a4705",
    "ide_onTextChange": "AS_TextField_c759c0998e314bdabae4453aa2d4ec7d",
    "ide_onTouchEnd": "AS_TextField_g1de9efdbeca4491af93da23ccc230d7",
    "info": null,
    "iphone": {
        "ide_onBeginEditing": "AS_TextField_c8a1cfd6d45a4e65b4fd434b8d36bcc8",
        "ide_onEndEditing": "AS_TextField_h0e808c2fc4e46a1912da97efc484743",
        "psp": {
            "keyboardActionLabel": 1,
            "showClearButton": false,
            "showCloseButton": false,
            "showProgressIndicator": false
        }
    },
    "isvisible": true,
    "keyboardactionlabel": 4,
    "keyboardtype": "A",
    "kuid": "e045a98888a747eb86966f9b8a0087a0",
    "maxtextlength": 50,
    "mode": "A",
    "name": "kony.ui.TextBox2",
    "paddinginpixel": false,
    "parent": "flxEmailID",
    "pf": "frmJoMoPayRegistration",
    "securetextentry": false,
    "showclearbutton": false,
    "showoprogressindicator": false,
    "textinputmode": "A",
    "viewtype": "default",
    "wType": "TextField",
    "zindex": 1
}