{
    "@class": "com.kony.gen.viz.model.component.KVizLabel", 
    "DNDConfig": null, 
    "__parentReadjusting__": false, 
    "_height_": {
        "type": "ref", 
        "value": "preferred"
    }, 
    "_margin_": [
        1, 
        1, 
        1, 
        1
    ], 
    "_padding_": [
        0, 
        0, 
        0, 
        0
    ], 
    "_skin_": "s3757215997c496496f9e7a203d3c1bc", 
    "_text_": "xxxx xxxx xxxx 3455", 
    "_top_": {
        "type": "string", 
        "value": "10dp"
    }, 
    "_width_": {
        "type": "ref", 
        "value": "preferred"
    }, 
    "_wrapping_": 2, 
    "android": {
        "textStyle": {
            "letterSpacing": 0, 
            "strikeThrough": false
        }
    }, 
    "canUpdateUI": true, 
    "centerx": {
        "type": "string", 
        "value": "50.00%"
    }, 
    "containerweight": 100, 
    "contentalignment": 4, 
    "id": "lblCardNumberKA", 
    "info": null, 
    "ipad": {
        "psp": {
            "wrapping": 2
        }
    }, 
    "iphone": {
        "psp": {
            "wrapping": 2
        }
    }, 
    "isvisible": true, 
    "kuid": "b53ad8bd6d2d46e6a714c2842d680363", 
    "name": "kony.ui.Label", 
    "parent": "flxDetailsWrapperKA", 
    "pf": "frmPayeeTransactionsKA", 
    "texti18n": "i18n.manage_payee.frmPayeeTransactionsKA.lblCardNumberKA", 
    "tooltip": "", 
    "wType": "Label", 
    "zindex": 1
}