{
    "AS_Button_a069ada25d74486dac5ba17e51e874a9": {
        "id": "AS_Button_a069ada25d74486dac5ba17e51e874a9",
        "type": "ACTION_SEQUENCE",
        "params": [{
            "datatype": "collection",
            "name": "eventobject"
        }],
        "actions": [{
            "id": "NAVIGATE_TO_FORM__onClick_dd3d9a2298ee4c71bc62ac5e35ab4df6",
            "type": "NAVIGATE_TO_FORM",
            "formId": "frmUserSettingsKA",
            "formKUID": "8c525af2d26c4599b2327f0b14f14239",
            "mappings": {},
            "mappingsOrder": [],
            "parentId": "",
            "callbackType": null,
            "enableMappingEditor": true
        }]
    }
}