{
    "AS_Button_333c7a4479e84be48586eecbadf564c8": {
        "id": "AS_Button_333c7a4479e84be48586eecbadf564c8",
        "type": "ACTION_SEQUENCE",
        "actions": [{
            "id": "SHOW_ALERT_onClick_cbfa7dcd1e7546a1ab01ce131896b17a",
            "type": "SHOW_ALERT",
            "alertType": "constants.ALERT_TYPE_CONFIRMATION",
            "alertTitle": "Confirm Payment",
            "yesLabel": "Pay",
            "noLabel": "Cancel",
            "alertMessage": "Pay $5 to John Smith?",
            "messageType": "constant",
            "callbackType": null,
            "alertTitlei18n": null,
            "yesLabeli18n": null,
            "noLabeli18n": null
        }, {
            "id": "NAVIGATE_TO_FORM__onClick_1bbfbcbf8783456091d7eadf0d1cf85c",
            "type": "NAVIGATE_TO_FORM",
            "formId": "frmLoginKA",
            "formKUID": "7b1aa8fceb6b4070833e9eab879b0e5e",
            "mappings": {},
            "mappingsOrder": [],
            "parentId": "SHOW_ALERT_onClick_cbfa7dcd1e7546a1ab01ce131896b17a",
            "callbackType": "True",
            "enableMappingEditor": true
        }]
    }
}