{
    "AS_Button_90665821e0a4461a935dcdcf4160f81e": {
        "id": "AS_Button_90665821e0a4461a935dcdcf4160f81e",
        "type": "ACTION_SEQUENCE",
        "actions": [{
            "id": "NAVIGATE_TO_FORM___1f5739bc0f6d4929a1ca65322cb2189b",
            "type": "NAVIGATE_TO_FORM",
            "formId": "frmUserSettingsKA",
            "formKUID": "8c525af2d26c4599b2327f0b14f14239",
            "mappings": {},
            "mappingsOrder": [],
            "parentId": "",
            "callbackType": null,
            "enableMappingEditor": true
        }]
    }
}