{
    "AS_Button_fc47b1250a6f4635a63e1559e8e9afbd": {
        "id": "AS_Button_fc47b1250a6f4635a63e1559e8e9afbd",
        "type": "ACTION_SEQUENCE",
        "actions": [{
            "id": "NAVIGATE_TO_FORM__onClick_1afff4b0b7f246c2be1b31dae941f44e",
            "type": "NAVIGATE_TO_FORM",
            "formId": "frmLocatorKA",
            "formKUID": "c471585baa904bb49278190a4437d425",
            "mappings": {},
            "mappingsOrder": [],
            "parentId": "",
            "callbackType": null,
            "enableMappingEditor": true
        }]
    }
}