{
    "AS_Button_e4ff10d20ba94fdc9620ff97f6a98d15": {
        "id": "AS_Button_e4ff10d20ba94fdc9620ff97f6a98d15",
        "type": "ACTION_SEQUENCE",
        "actions": [{
            "id": "NAVIGATE_TO_FORM__onClick_ac029ffe2bc8476d818769e7a6d906e2",
            "type": "NAVIGATE_TO_FORM",
            "formKUID": "db521e97422f4973ab4a6a7569d1cc93",
            "mappings": {},
            "mappingsOrder": [],
            "parentId": "",
            "callbackType": null,
            "enableMappingEditor": true
        }]
    }
}