{
    "AS_Button_c0066da160ee462e9c0b675c68d4b169": {
        "id": "AS_Button_c0066da160ee462e9c0b675c68d4b169",
        "type": "ACTION_SEQUENCE",
        "actions": [{
            "id": "NAVIGATE_TO_FORM__onClick_6a375a81c3084839b3c37661d072aa5f",
            "type": "NAVIGATE_TO_FORM",
            "formId": "frmAccountsLandingKA",
            "formKUID": "d62a2a0906c64d2281addc95893a6544",
            "mappings": {},
            "mappingsOrder": [],
            "parentId": "",
            "callbackType": null,
            "enableMappingEditor": true
        }]
    }
}