{
    "AS_Button_e1cc8824bb3c4400878a97763ea0832a": {
        "id": "AS_Button_e1cc8824bb3c4400878a97763ea0832a",
        "type": "ACTION_SEQUENCE",
        "params": [{
            "datatype": "collection",
            "name": "eventobject"
        }],
        "actions": [{
            "id": "NAVIGATE_TO_FORM__onClick_52bdfc09cdaf4554a5f62eb07f3815dc",
            "type": "NAVIGATE_TO_FORM",
            "formId": "frmUnauthInformationKA",
            "formKUID": "8ca0339cab9a45bf93258e727c1f8406",
            "mappings": {},
            "mappingsOrder": [],
            "parentId": "",
            "callbackType": null,
            "enableMappingEditor": true
        }]
    }
}