{
    "AS_Button_0c8aa10c27734cdc8589b6d6a52b82ec": {
        "id": "AS_Button_0c8aa10c27734cdc8589b6d6a52b82ec",
        "type": "ACTION_SEQUENCE",
        "actions": [{
            "id": "NAVIGATE_TO_FORM__onClick_204a16efede1427ba4cea6aeb28f0740",
            "type": "NAVIGATE_TO_FORM",
            "formId": "frmUnauthForgotUsernamePasswordKA",
            "formKUID": "c38d4ade0023473db64baa102ba6dd38",
            "mappings": {},
            "mappingsOrder": [],
            "parentId": "",
            "callbackType": null,
            "enableMappingEditor": true
        }]
    }
}