{
    "AS_FlexScrollContainer_2d55c18171f74c6494b8558736cde9f6": {
        "id": "AS_FlexScrollContainer_2d55c18171f74c6494b8558736cde9f6",
        "type": "ACTION_SEQUENCE",
        "actions": [{
            "id": "ADD_SNIPPET__4a6a9d2d72c34ee2933089405647f1d1",
            "type": "ADD_SNIPPET",
            "codeSnippet": "otherScrollAction();",
            "parentId": null,
            "callbackType": null
        }]
    }
}