{
    "AS_Form_f50ceb9b173143589c53c794fdf2a174": {
        "id": "AS_Form_f50ceb9b173143589c53c794fdf2a174",
        "type": "ACTION_SEQUENCE",
        "actions": [{
            "id": "ADD_SNIPPET__8d31fda02cad4f00a07172974f26fe7d",
            "type": "ADD_SNIPPET",
            "codeSnippet": " successFormPostShow();",
            "parentId": null,
            "callbackType": null
        }]
    }
}