{
    "AS_Form_e4e2c7a85a2c4874bf4daeb6b8639da5": {
        "id": "AS_Form_e4e2c7a85a2c4874bf4daeb6b8639da5",
        "type": "ACTION_SEQUENCE",
        "actions": [{
            "id": "ADD_SNIPPET__85d73882c67b4432965e95b6e1f47fc7",
            "type": "ADD_SNIPPET",
            "codeSnippet": "accountsLandingHide();",
            "parentId": null,
            "callbackType": null
        }]
    }
}