{
    "AS_TextField_ddebbadfde0d4ca9b4bdec27efc8708e": {
        "id": "AS_TextField_ddebbadfde0d4ca9b4bdec27efc8708e",
        "type": "ACTION_SEQUENCE",
        "params": [{
            "datatype": "collection",
            "name": "eventobject"
        }, {
            "datatype": "string",
            "name": "changedtext"
        }],
        "actions": [{
            "id": "ADD_SNIPPET_onDone_ac004f30eebd4a1e8829b3edccd3075d",
            "type": "ADD_SNIPPET",
            "codeSnippet": "loginKeyboardInactive();",
            "callbackType": null
        }]
    }
}