{
    "AS_TextField_2f94088fafb246e68e3909ad5a049291": {
        "id": "AS_TextField_2f94088fafb246e68e3909ad5a049291",
        "type": "ACTION_SEQUENCE",
        "params": [{
            "datatype": "collection",
            "name": "eventobject"
        }, {
            "datatype": "string",
            "name": "changedtext"
        }],
        "actions": [{
            "id": "ADD_SNIPPET_onEndEditing_d379f68657dc405491b04b2deb807deb",
            "type": "ADD_SNIPPET",
            "codeSnippet": "selectAmountCard(frmNewBillKA);",
            "callbackType": null
        }]
    }
}