{
    "@class": "com.kony.gen.viz.model.component.KVizButton",
    "DNDConfig": null,
    "__markedForDelete__": true,
    "__parentReadjusting__": false,
    "_height_": {
        "type": "string",
        "value": "50dp"
    },
    "_margin_": [
        6,
        6,
        6,
        6
    ],
    "_padding_": [
        0,
        0,
        0,
        14
    ],
    "_skin_": "s369ab04a83040bc808b21001c014f1a",
    "_text_": "H",
    "_width_": {
        "type": "string",
        "value": "100%"
    },
    "canUpdateUI": true,
    "centerx": {
        "type": "string",
        "value": "50%"
    },
    "centery": {
        "type": "string",
        "value": "50%"
    },
    "containerweight": 100,
    "contentalignment": 5,
    "disabledSkins": {},
    "displaytext": true,
    "focusskin": "sd291eaf83084ea781b9988b6f1fc66d",
    "id": "btnAccounts",
    "ide_onClick": "AS_Button_f7ae49a6453c4a1cb1a64adfbb07648e",
    "info": null,
    "iphone": {
        "psp": {
            "showProgressIndicator": false
        }
    },
    "isvisible": true,
    "kuid": "ba8d77194bfa471287371f157187299b",
    "name": "kony.ui.Button",
    "paddinginpixel": false,
    "parent": "FlxAccounts",
    "pf": "frmPaymentDashboard",
    "wType": "Button",
    "zindex": 1
}