{
    "@class": "com.kony.gen.viz.model.component.KVizLabel", 
    "DNDConfig": null, 
    "__parentReadjusting__": false, 
    "_height_": {
        "type": "ref", 
        "value": "preferred"
    }, 
    "_margin_": [
        1, 
        1, 
        1, 
        1
    ], 
    "_padding_": [
        0, 
        0, 
        0, 
        0
    ], 
    "_skin_": "se033b4241724171afff711026194d8f", 
    "_text_": "", 
    "_top_": {
        "type": "string", 
        "value": "5dp"
    }, 
    "_width_": {
        "type": "string", 
        "value": "100%"
    }, 
    "_wrapping_": 2, 
    "canUpdateUI": true, 
    "centerx": {
        "type": "string", 
        "value": "50%"
    }, 
    "containerweight": 100, 
    "contentalignment": 5, 
    "enabled": false, 
    "id": "depositsType", 
    "info": null, 
    "ipad": {
        "psp": {
            "wrapping": 2
        }
    }, 
    "iphone": {
        "psp": {
            "wrapping": 2
        }
    }, 
    "isvisible": false, 
    "kuid": "357da0f1fed049a7a30e16be801868c2", 
    "name": "kony.ui.Label", 
    "parent": "flxDescriptionKA", 
    "pf": "frmConfirmDepositKA", 
    "tooltip": "", 
    "wType": "Label", 
    "zindex": 1
}