{
    "@class": "com.kony.gen.viz.model.container.KVizSegment2",
    "DNDConfig": null,
    "__parentReadjusting__": false,
    "_data_": [
        {
            "lblDelDate": {
                "@class": "com.viz.ide.model.segment.SimpleTextSegmentData",
                "text": "Delivery Date"
            },
            "lblDelDateValue": {
                "@class": "com.viz.ide.model.segment.SimpleTextSegmentData",
                "text": "New"
            },
            "lblJoMoPay": {
                "@class": "com.viz.ide.model.segment.SimpleTextSegmentData",
                "text": "Pin Request"
            },
            "lblRequestDate": {
                "@class": "com.viz.ide.model.segment.SimpleTextSegmentData",
                "text": "Request Date"
            },
            "lblRequestDateVale": {
                "@class": "com.viz.ide.model.segment.SimpleTextSegmentData",
                "text": "New"
            },
            "lblStatus": {
                "@class": "com.viz.ide.model.segment.SimpleTextSegmentData",
                "text": "Status"
            },
            "lblStatusDesc": {
                "@class": "com.viz.ide.model.segment.SimpleTextSegmentData",
                "text": "New"
            }
        },
        {
            "lblDelDate": {
                "@class": "com.viz.ide.model.segment.SimpleTextSegmentData",
                "text": "Delivery Date"
            },
            "lblDelDateValue": {
                "@class": "com.viz.ide.model.segment.SimpleTextSegmentData",
                "text": "New"
            },
            "lblJoMoPay": {
                "@class": "com.viz.ide.model.segment.SimpleTextSegmentData",
                "text": "Pin Request"
            },
            "lblRequestDate": {
                "@class": "com.viz.ide.model.segment.SimpleTextSegmentData",
                "text": "Request Date"
            },
            "lblRequestDateVale": {
                "@class": "com.viz.ide.model.segment.SimpleTextSegmentData",
                "text": "New"
            },
            "lblStatus": {
                "@class": "com.viz.ide.model.segment.SimpleTextSegmentData",
                "text": "Status"
            },
            "lblStatusDesc": {
                "@class": "com.viz.ide.model.segment.SimpleTextSegmentData",
                "text": "New"
            }
        },
        {
            "lblDelDate": {
                "@class": "com.viz.ide.model.segment.SimpleTextSegmentData",
                "text": "Delivery Date"
            },
            "lblDelDateValue": {
                "@class": "com.viz.ide.model.segment.SimpleTextSegmentData",
                "text": "New"
            },
            "lblJoMoPay": {
                "@class": "com.viz.ide.model.segment.SimpleTextSegmentData",
                "text": "Pin Request"
            },
            "lblRequestDate": {
                "@class": "com.viz.ide.model.segment.SimpleTextSegmentData",
                "text": "Request Date"
            },
            "lblRequestDateVale": {
                "@class": "com.viz.ide.model.segment.SimpleTextSegmentData",
                "text": "New"
            },
            "lblStatus": {
                "@class": "com.viz.ide.model.segment.SimpleTextSegmentData",
                "text": "Status"
            },
            "lblStatusDesc": {
                "@class": "com.viz.ide.model.segment.SimpleTextSegmentData",
                "text": "New"
            }
        }
    ],
    "_height_": {
        "type": "string",
        "value": "80%"
    },
    "_indicator_": "none",
    "_left_": {
        "type": "string",
        "value": "5%"
    },
    "_margin_": [
        0,
        0,
        0,
        0
    ],
    "_orientation_": 2,
    "_padding_": [
        0,
        0,
        0,
        0
    ],
    "_top_": {
        "type": "string",
        "value": "20%"
    },
    "_width_": {
        "type": "string",
        "value": "90%"
    },
    "autogrowmode": 0,
    "canUpdateUI": true,
    "containerweight": 100,
    "counter": "02",
    "focusedindex": null,
    "focuseditem": null,
    "groupcells": false,
    "hasSections": false,
    "id": "segRequestStatus",
    "info": null,
    "ipad": {
        "psp": {
            "indicator": "rowselect"
        }
    },
    "iphone": {
        "psp": {
            "indicator": "none",
            "showProgressIndicator": false
        }
    },
    "isvisible": true,
    "kuid": "b8a8a557c5be4b1f929298d3b75de802",
    "masterdata": {},
    "name": "kony.ui.SegmentedUI2",
    "needpageindicator": true,
    "pageoffdotimage": "pageoffdot.png",
    "pageondotimage": "pageondot.png",
    "paginationconfig": {
        "position": "bottom"
    },
    "parent": "frmrequestStatus",
    "pf": "frmrequestStatus",
    "retainselection": false,
    "rowTemplateId": "d98a16cc4a75483596b1c4e3640e5abd",
    "rowcounter": 2,
    "rowfocusskin": "s433a28aaf904285bc4f2131fae32fc5",
    "rowskin": "s433a28aaf904285bc4f2131fae32fc5",
    "rowtemplate": "flxtmpSegRequestStatus",
    "screenlevelwidget": false,
    "seccounter": 0,
    "sectionheaderskin": "s67621b8a82d49f285da06b4f5a0c993",
    "selectedRows": null,
    "selectedState": false,
    "selectedindex": null,
    "selectedindices": null,
    "selecteditems": null,
    "selectedsectionindex": 0,
    "selectionbehavior": "default",
    "separatorrequired": false,
    "showprogressindicator": false,
    "showscrollbars": false,
    "viewtype": "tableview",
    "wType": "Segment",
    "widgetalignment": 5,
    "widgetdatamap": {
        "flxLine": "flxLine",
        "flxtmpSegRequestStatus": "flxtmpSegRequestStatus",
        "lblDelDate": "lblDelDate",
        "lblDelDateValue": "lblDelDateValue",
        "lblJoMoPay": "lblJoMoPay",
        "lblRequestDate": "lblRequestDate",
        "lblRequestDateVale": "lblRequestDateVale",
        "lblStatus": "lblStatus",
        "lblStatusDesc": "lblStatusDesc"
    },
    "zindex": 1
}