{
    "AS_TextField_b4f0588bb6e84bdf8d5d71d36e906221": {
        "id": "AS_TextField_b4f0588bb6e84bdf8d5d71d36e906221",
        "type": "ACTION_SEQUENCE",
        "name": "actionOnAddressLineOneTextChange",
        "params": [{
            "datatype": "collection",
            "name": "eventobject"
        }, {
            "datatype": "string",
            "name": "changedtext"
        }],
        "contextObj": {
            "name": "frmNUOAddressDetailsKA",
            "type": "forms",
            "platform": "",
            "KUID": "j5b785df0035464583579f3b55f4dfbd"
        },
        "language": "js",
        "actions": [{
            "id": "ADD_SNIPPET__ac114201589044b5953577cf1006cbd5",
            "type": "ADD_SNIPPET",
            "codeSnippet": "kony.print(\"Deleted\");",
            "parentId": null,
            "callbackType": null
        }]
    }
}