{
    "AS_Form_a6297b2894ce466eb5df9e75f34c62d6": {
        "id": "AS_Form_a6297b2894ce466eb5df9e75f34c62d6",
        "type": "ACTION_SEQUENCE",
        "name": "actionNUOVerificationPreShow",
        "params": [{
            "datatype": "collection",
            "name": "eventobject"
        }],
        "contextObj": {
            "name": "frmNewUserOnboardVerificationKA",
            "type": "forms",
            "platform": "",
            "KUID": "fc18fd91a5d94e439cafe361f3aa1224"
        },
        "language": "js",
        "actions": [{
            "id": "ADD_SNIPPET__be2f43767e1b47058cdc226c3b17226c",
            "type": "ADD_SNIPPET",
            "codeSnippet": "var VC = applicationManager.getFrmNUOVerificationKAViewController();\nVC.clearSkins();",
            "parentId": null,
            "callbackType": null
        }]
    }
}