{
    "AS_Button_b952976a2c18490ab0d851348f481cb2": {
        "id": "AS_Button_b952976a2c18490ab0d851348f481cb2",
        "type": "ACTION_SEQUENCE",
        "name": "actionOnSpouseNameLogout",
        "params": [{
            "datatype": "collection",
            "name": "eventobject"
        }],
        "contextObj": {
            "name": "frmNewUserSpouseNameKA",
            "type": "forms",
            "platform": "",
            "KUID": "f4e7e3da0c4e438a9a933922ca89141c"
        },
        "language": "js",
        "actions": [{
            "id": "SHOW_ALERT__c543188741b340f08b976b954dde5415",
            "type": "SHOW_ALERT",
            "alertType": "constants.ALERT_TYPE_CONFIRMATION",
            "alertTitle": "Confirm Sign Out",
            "yesLabel": "Sign Out",
            "noLabel": "Cancel",
            "alertMessage": "Are you sure you want to sign out?",
            "messageType": "constant",
            "parentId": null,
            "alertTitlei18n": "i18n.common.confirmSignOut",
            "yesLabeli18n": "i18n.common.signOut",
            "noLabeli18n": "i18n.common.cancel",
            "alertMessagei18n": "i18n.common.signOutAlert",
            "iconPosition": "constants.ALERT_ICON_POSITION_LEFT"
        }, {
            "id": "ADD_SNIPPET__f8a21ae666f54d1bae97127e38b7019d",
            "type": "ADD_SNIPPET",
            "codeSnippet": "kony.print(\"Deleted\");",
            "parentId": "SHOW_ALERT__c543188741b340f08b976b954dde5415",
            "callbackType": "True"
        }]
    }
}