{
    "AS_TextField_c56a41ffc2f3403d940e031de6716f71": {
        "id": "AS_TextField_c56a41ffc2f3403d940e031de6716f71",
        "type": "ACTION_SEQUENCE",
        "name": "actionForOnTextChangeOfUserID",
        "params": [{
            "datatype": "collection",
            "name": "eventobject"
        }, {
            "datatype": "string",
            "name": "changedtext"
        }],
        "contextObj": {
            "name": "frmCreateCredentials",
            "type": "forms",
            "platform": "",
            "KUID": "ec144124e44d4336b9c86f2ab49591df"
        },
        "language": "js",
        "actions": [{
            "id": "ADD_SNIPPET__hd76e9f571114916a226f95aeb0cea21",
            "type": "ADD_SNIPPET",
            "codeSnippet": " var VC = new kony.rb.frmCreateCredentialsViewController();\n VC.onTextChangeUserID();",
            "parentId": null,
            "callbackType": null
        }]
    }
}