{
    "AS_Form_f05284d8994441b6b40485c591625548": {
        "id": "AS_Form_f05284d8994441b6b40485c591625548",
        "type": "ACTION_SEQUENCE",
        "name": "actionSignUpEmailPostShow",
        "params": [{
            "datatype": "collection",
            "name": "eventobject"
        }],
        "contextObj": {
            "name": "frmNUOSignUpEmailKA",
            "type": "forms",
            "platform": "",
            "KUID": "i2216dbab50146c68fa5b602e7af210e"
        },
        "language": "js",
        "actions": [{
            "id": "ADD_SNIPPET__f7a3b277760a4cd0aa88819fade82c12",
            "type": "ADD_SNIPPET",
            "codeSnippet": "kony.print(\"Deleted\");\n",
            "parentId": null,
            "callbackType": null
        }]
    }
}