{
    "AS_Button_hc1f1946a935448f9fe8c4dba2279a91": {
        "id": "AS_Button_hc1f1946a935448f9fe8c4dba2279a91",
        "type": "ACTION_SEQUENCE",
        "name": "actionOnAddLogout",
        "params": [{
            "datatype": "collection",
            "name": "eventobject"
        }],
        "contextObj": {
            "name": "frmNUOAddressDetailsKA",
            "type": "forms",
            "platform": "",
            "KUID": "j5b785df0035464583579f3b55f4dfbd"
        },
        "language": "js",
        "actions": [{
            "id": "SHOW_ALERT__i70cfa3659b1474c95c0b83401a943a6",
            "type": "SHOW_ALERT",
            "alertType": "constants.ALERT_TYPE_CONFIRMATION",
            "alertTitle": "Confirm Sign Out",
            "yesLabel": "Sign Out",
            "noLabel": "Cancel",
            "alertMessage": "Are you sure you want to sign out?",
            "messageType": "constant",
            "parentId": null,
            "alertTitlei18n": "i18n.common.confirmSignOut",
            "yesLabeli18n": "i18n.common.signOut",
            "noLabeli18n": "i18n.common.cancel",
            "alertMessagei18n": "i18n.common.signOutAlert",
            "iconPosition": "constants.ALERT_ICON_POSITION_LEFT"
        }, {
            "id": "ADD_SNIPPET__abdb83158f7d4428916df0554e53407f",
            "type": "ADD_SNIPPET",
            "codeSnippet": "//closeAndroidNav();\n//deviceRegFrom = \"logout\";\nkony.sdk.mvvm.LogoutAction();\n",
            "parentId": "SHOW_ALERT__i70cfa3659b1474c95c0b83401a943a6",
            "callbackType": "True"
        }]
    }
}