{
    "AS_Image_c61ae7332a9f4f75aab03cc2d85f5cfa": {
        "id": "AS_Image_c61ae7332a9f4f75aab03cc2d85f5cfa",
        "type": "ACTION_SEQUENCE",
        "name": "actionOnTncCancel",
        "params": [{
            "datatype": "collection",
            "name": "eventobject"
        }, {
            "datatype": "string",
            "name": "x"
        }, {
            "datatype": "string",
            "name": "y"
        }],
        "contextObj": {
            "name": "frmNUOnboardingTermsAndConditionsKA",
            "type": "forms",
            "platform": "",
            "KUID": "bf784665cb864bbb9326ee7471603cda"
        },
        "language": "js",
        "actions": [{
            "id": "ADD_SNIPPET__f2061aaceee040048bd61a534f0ac940",
            "type": "ADD_SNIPPET",
            "codeSnippet": "kony.print(\"Deleted\");",
            "parentId": null,
            "callbackType": null
        }]
    }
}