{
    "AS_Button_fb363f9235294d4581ea25f21b120aa3": {
        "id": "AS_Button_fb363f9235294d4581ea25f21b120aa3",
        "type": "ACTION_SEQUENCE",
        "name": "actionLogoutPersonalInfoName",
        "params": [{
            "datatype": "collection",
            "name": "eventobject"
        }],
        "contextObj": {
            "name": "frmNewUserPersonalInfoNameKA",
            "type": "forms",
            "platform": "",
            "KUID": "a731b583d1a64636b14ee729d1c40cfb"
        },
        "language": "js",
        "actions": [{
            "id": "SHOW_ALERT__a003f1397b2442b38aebb92cb4e1773b",
            "type": "SHOW_ALERT",
            "alertType": "constants.ALERT_TYPE_CONFIRMATION",
            "alertTitle": "Confirm Sign Out",
            "yesLabel": "Sign Out",
            "noLabel": "Cancel",
            "alertMessage": "Are you sure you want to sign out?",
            "messageType": "constant",
            "parentId": null,
            "alertTitlei18n": "i18n.common.confirmSignOut",
            "yesLabeli18n": "i18n.common.signOut",
            "noLabeli18n": "i18n.common.cancel",
            "alertMessagei18n": "i18n.common.signOutAlert",
            "iconPosition": "constants.ALERT_ICON_POSITION_LEFT"
        }, {
            "id": "ADD_SNIPPET__b123cb9e39a049429256fbb36131b7dd",
            "type": "ADD_SNIPPET",
            "codeSnippet": "kony.print(\"deleted\");",
            "parentId": "SHOW_ALERT__a003f1397b2442b38aebb92cb4e1773b",
            "callbackType": "True"
        }]
    }
}