{
    "AS_Form_d012f14f6f884f36aac6089679c590aa": {
        "id": "AS_Form_d012f14f6f884f36aac6089679c590aa",
        "type": "ACTION_SEQUENCE",
        "name": "actionOnempInfoPostshow",
        "params": [{
            "datatype": "collection",
            "name": "eventobject"
        }],
        "contextObj": {
            "name": "frmNUOEmploymentInfoOptionsKA",
            "type": "forms",
            "platform": "",
            "KUID": "fee2368353aa423cb6f0e87993c74dd4"
        },
        "language": "js",
        "actions": [{
            "id": "ADD_SNIPPET__h45b013dfc8d4e1ab2d19ab6d650f79b",
            "type": "ADD_SNIPPET",
            "codeSnippet": "kony.print(\"Deleted\");",
            "parentId": null,
            "callbackType": null
        }]
    }
}