{
    "AS_Button_ba72e46497b440d6bd991dcd8cf0e52f": {
        "id": "AS_Button_ba72e46497b440d6bd991dcd8cf0e52f",
        "type": "ACTION_SEQUENCE",
        "name": "actionoNLogoutClickDOB",
        "params": [{
            "datatype": "collection",
            "name": "eventobject"
        }],
        "contextObj": {
            "name": "frmNUODOBKA",
            "type": "forms",
            "platform": "",
            "KUID": "g01e44fc626946168f2084ad3d64d5ff"
        },
        "language": "js",
        "actions": [{
            "id": "SHOW_ALERT__j81d06c9c7094b4b8b8d9402fec5926b",
            "type": "SHOW_ALERT",
            "alertType": "constants.ALERT_TYPE_CONFIRMATION",
            "alertTitle": "Confirm Sign Out",
            "yesLabel": "Sign Out",
            "noLabel": "Cancel",
            "alertMessage": "Are you sure you want to sign out?",
            "messageType": "constant",
            "parentId": null,
            "alertTitlei18n": "i18n.common.confirmSignOut",
            "yesLabeli18n": "i18n.common.signOut",
            "noLabeli18n": "i18n.common.cancel",
            "alertMessagei18n": "i18n.common.signOutAlert",
            "iconPosition": "constants.ALERT_ICON_POSITION_LEFT"
        }, {
            "id": "ADD_SNIPPET__c2fe21400e064a75b72bb35d4f242e8a",
            "type": "ADD_SNIPPET",
            "codeSnippet": "kony.print(\"Deleted\");",
            "parentId": "SHOW_ALERT__j81d06c9c7094b4b8b8d9402fec5926b",
            "callbackType": "True"
        }]
    }
}