{
    "AS_Button_b9ca2ebfb7f74239bd2d063a810038c1": {
        "id": "AS_Button_b9ca2ebfb7f74239bd2d063a810038c1",
        "type": "ACTION_SEQUENCE",
        "name": "actionNewUserVerificationSubmit",
        "params": [{
            "datatype": "collection",
            "name": "eventobject"
        }],
        "contextObj": {
            "name": "frmNewUserOnboardVerificationKA",
            "type": "forms",
            "platform": "",
            "KUID": "ie7b921fac134bd8a8afb16afc085409"
        },
        "language": "js",
        "actions": [{
            "id": "ADD_SNIPPET__f7926ed0790c4042b07de084d4b769ac",
            "type": "ADD_SNIPPET",
            "codeSnippet": "var userVC = applicationManager.getFrmNUOVerificationKAViewController();\nuserVC.onClickSubmit();",
            "parentId": null,
            "callbackType": null
        }]
    }
}