{
    "AS_TextField_g4f09e7955bb49c2b1432a113d0f295c": {
        "id": "AS_TextField_g4f09e7955bb49c2b1432a113d0f295c",
        "type": "ACTION_SEQUENCE",
        "name": "actionOnAddressCityTextChange",
        "params": [{
            "datatype": "collection",
            "name": "eventobject"
        }, {
            "datatype": "string",
            "name": "changedtext"
        }],
        "contextObj": {
            "name": "frmNUOAddressDetailsKA",
            "type": "forms",
            "platform": "",
            "KUID": "j5b785df0035464583579f3b55f4dfbd"
        },
        "language": "js",
        "actions": [{
            "id": "ADD_SNIPPET__h3b7c1f34b2f44a59fcff48b47951452",
            "type": "ADD_SNIPPET",
            "codeSnippet": "kony.print(\"Deleted\");",
            "parentId": null,
            "callbackType": null
        }]
    }
}