{
    "AS_TextField_e3cf830bf70446f8b214146b2431d03f": {
        "id": "AS_TextField_e3cf830bf70446f8b214146b2431d03f",
        "type": "ACTION_SEQUENCE",
        "name": "actOnTxtChangeOfDate",
        "params": [{
            "datatype": "collection",
            "name": "eventobject"
        }, {
            "datatype": "string",
            "name": "changedtext"
        }],
        "contextObj": {
            "name": "frmNUODOBKA",
            "type": "forms",
            "platform": "",
            "KUID": "g01e44fc626946168f2084ad3d64d5ff"
        },
        "language": "js",
        "actions": [{
            "id": "ADD_SNIPPET__h0ab9d7c33f0440ca9a72dcd532e884a",
            "type": "ADD_SNIPPET",
            "codeSnippet": "kony.print(\"Deleted\");",
            "parentId": null,
            "callbackType": null
        }]
    }
}