{
    "AS_TextField_e8e7876ef2c846eaa754f3f7a30ff9ba": {
        "id": "AS_TextField_e8e7876ef2c846eaa754f3f7a30ff9ba",
        "type": "ACTION_SEQUENCE",
        "name": "afwansearchfunction",
        "params": [{
            "datatype": "collection",
            "name": "eventobject"
        }, {
            "datatype": "string",
            "name": "changedtext"
        }],
        "contextObj": {
            "name": "frmJoMoPayLanding",
            "type": "forms",
            "platform": "",
            "KUID": "d298f6fe5af04a4dbf76c2b5625a9f8c"
        },
        "language": "js",
        "actions": [{
            "id": "ADD_SNIPPET__hd4502933bbe4278888f191025d1583e",
            "type": "ADD_SNIPPET",
            "codeSnippet": "if (frmJoMoPayLanding.btnBene.skin === \"slButtonWhiteTab\")\n    searchJomopayBene(frmJoMoPayLanding.txtSearch.text,kony.retailBanking.globalData.jmpBeneDetails);\nelse if (frmJoMoPayLanding.btnTrans.skin === \"slButtonWhiteTab\")\n    searchString(frmJoMoPayLanding.txtSearch.text,jpdata);\n\n",
            "parentId": null
        }]
    }
}