{
    "AS_Button_f625ddde6613474e8ffebc2ea0b2575c": {
        "id": "AS_Button_f625ddde6613474e8ffebc2ea0b2575c",
        "type": "ACTION_SEQUENCE",
        "name": "AlertsIOSBackOnClick",
        "params": [{
            "datatype": "collection",
            "name": "eventobject"
        }],
        "language": "js",
        "actions": [{
            "id": "ADD_SNIPPET__d7d7bc25a0bf4ddc8e4b39d17ec3aab7",
            "type": "ADD_SNIPPET",
            "codeSnippet": "kony.print(\"Deleted\");",
            "parentId": null,
            "callbackType": null
        }]
    }
}