{
    "AS_Button_5a72ae3d92d14f19823dcab85c8c5579": {
        "id": "AS_Button_5a72ae3d92d14f19823dcab85c8c5579",
        "type": "ACTION_SEQUENCE",
        "name": "androidBackPreferredAccounts",
        "params": [{
            "datatype": "collection",
            "name": "eventobject"
        }],
        "contextObj": {
            "name": "frmPreferredAccountsKA",
            "type": "forms",
            "platform": "",
            "KUID": "7a9e568cea85447086c10e8f96c76840"
        },
        "language": "js",
        "actions": [{
            "id": "ADD_SNIPPET__bf73984a7f904436a4181cdd4ca655f3",
            "type": "ADD_SNIPPET",
            "codeSnippet": "preferredAccountsSave();",
            "parentId": null,
            "callbackType": null
        }]
    }
}