{
    "AS_Button_923ccdbc8ff640caa5b4421df9a18bbf": {
        "id": "AS_Button_923ccdbc8ff640caa5b4421df9a18bbf",
        "type": "ACTION_SEQUENCE",
        "params": [{
            "datatype": "collection",
            "name": "eventobject"
        }],
        "language": "js",
        "actions": [{
            "id": "ADD_SNIPPET_ide_onClick_30d973fe3bec406f99e26991b364b1e2",
            "type": "ADD_SNIPPET",
            "codeSnippet": "//newTransferFrequencyEdit();\nonFrequencyCardSelectionEdit();",
            "callbackType": null
        }]
    }
}