{
    "AS_Button_i977a60e37a44a389baa53ed69138b9a": {
        "id": "AS_Button_i977a60e37a44a389baa53ed69138b9a",
        "type": "ACTION_SEQUENCE",
        "params": [{
            "datatype": "collection",
            "name": "eventobject"
        }],
        "language": "js",
        "actions": [{
            "id": "ADD_SNIPPET_ide_onClick_b3e6358b4e9743e59389a1056f7b4fee",
            "type": "ADD_SNIPPET",
            "codeSnippet": "gblToOTPFrom = \"AddBiller\";\n//ShowLoadingScreen();\n/*INSTANCE = kony.sdk.mvvm.KonyApplicationContext.getAppInstance();\nlistController = INSTANCE.getFormController(\"frmAddNewPayeeKA\");\nlistController.performAction(\"saveData\");*/\ngetBOJBillDetailsPrepaid();\n//callRequestOTP();\n// frmNewUserOnboardVerificationKA.show();",
            "callbackType": null
        }]
    }
}