{
    "AS_Button_1bf59c04e4224b73ada4e944dd2b0ac9": {
        "id": "AS_Button_1bf59c04e4224b73ada4e944dd2b0ac9",
        "type": "ACTION_SEQUENCE",
        "params": [{
            "datatype": "collection",
            "name": "eventobject"
        }],
        "contextObj": {
            "name": "frmCheckReOrderSuccessKA",
            "type": "forms",
            "platform": null,
            "KUID": "22b28d7635d7466aa4ef41724e78c767"
        },
        "language": "js",
        "actions": [{
            "id": "ADD_SNIPPET__e736dee63daf47d4aa7a7f90847c8d80",
            "type": "ADD_SNIPPET",
            "codeSnippet": "navigateToCheckReOrder();",
            "parentId": null,
            "callbackType": null
        }]
    }
}