{
    "AS_Button_he49debcdc034051bd561dbde3136d13": {
        "id": "AS_Button_he49debcdc034051bd561dbde3136d13",
        "type": "ACTION_SEQUENCE",
        "name": "AS_Button_QuickPreview",
        "params": [{
            "datatype": "collection",
            "name": "eventobject"
        }],
        "language": "js",
        "actions": [{
            "id": "ADD_SNIPPET__bcd6936dfd4d4929b5d20dedc5f43299",
            "type": "ADD_SNIPPET",
            "codeSnippet": "kony.print(\"jkihjkhkj\");\napAnimate();",
            "parentId": null,
            "callbackType": null
        }]
    }
}