{
    "AS_Button_gcca83219ac8434ebbc16de281c4ffc4": {
        "id": "AS_Button_gcca83219ac8434ebbc16de281c4ffc4",
        "type": "ACTION_SEQUENCE",
        "params": [{
            "datatype": "collection",
            "name": "eventobject"
        }],
        "contextObj": {
            "KUID": "a7af44ce35e44a7ea6c9516ec3bff4eb",
            "platform": "",
            "type": "forms"
        },
        "language": "js",
        "actions": [{
            "id": "ADD_SNIPPET__bc32964d476644b884e05657c12373a4",
            "type": "ADD_SNIPPET",
            "codeSnippet": "frmEPS.btnEmail.skin = sknOrangeBGRNDBOJ;\nfrmEPS.btnMobile.skin = slButtonBlueFocus;\nfrmEPS.btntext.skin = slButtonBlueFocus;\n",
            "parentId": null,
            "callbackType": null
        }]
    }
}