{
    "AS_Button_c1b0592cc36843d8a00759de4d6e2cbb": {
        "id": "AS_Button_c1b0592cc36843d8a00759de4d6e2cbb",
        "type": "ACTION_SEQUENCE",
        "params": [{
            "datatype": "collection",
            "name": "eventobject"
        }],
        "language": "js",
        "actions": [{
            "id": "ADD_SNIPPET__8af5c90b2413477db6c451255717c92c",
            "type": "ADD_SNIPPET",
            "codeSnippet": "frmLocatorKA.show();",
            "parentId": null,
            "callbackType": null
        }]
    }
}