{
    "AS_Button_ae5785b43556435bb20edeed3beede6b": {
        "id": "AS_Button_ae5785b43556435bb20edeed3beede6b",
        "type": "ACTION_SEQUENCE",
        "params": [{
            "datatype": "collection",
            "name": "eventobject"
        }],
        "language": "js",
        "actions": [{
            "id": "ADD_SNIPPET_ide_onClick_c116f0c2774549f3abe3ec8344c29d7d",
            "type": "ADD_SNIPPET",
            "codeSnippet": "navigateToSearchOptions();",
            "callbackType": null
        }]
    }
}