{
    "AS_Button_609c697c73884085b7bd5236f879ae05": {
        "id": "AS_Button_609c697c73884085b7bd5236f879ae05",
        "type": "ACTION_SEQUENCE",
        "params": [{
            "datatype": "collection",
            "name": "eventobject"
        }],
        "contextObj": {
            "name": "frmEditPayeeSuccessKA",
            "type": "forms",
            "platform": "",
            "KUID": "617d22a1ee7b4f38b5ef1c6d377a693a"
        },
        "language": "js",
        "actions": [{
            "id": "ADD_SNIPPET__14c479121d004fc8a27beeb290677d88",
            "type": "ADD_SNIPPET",
            "codeSnippet": "editedPayeeBillPay();",
            "parentId": null,
            "callbackType": null
        }]
    }
}