{
    "AS_Button_e963a473d3e842649d8d943f94b08bf1": {
        "id": "AS_Button_e963a473d3e842649d8d943f94b08bf1",
        "type": "ACTION_SEQUENCE",
        "name": "AS_Button_OnClickEfawatercoomFooterCards",
        "params": [{
            "datatype": "collection",
            "name": "eventobject"
        }],
        "contextObj": {
            "name": "frmManageCardsKA",
            "type": "forms",
            "platform": "",
            "KUID": "75db60b6b4944b7faf9c556f4dbcaf8d"
        },
        "language": "js",
        "actions": [{
            "id": "ADD_SNIPPET__d1f9518280b14b658760a5c823f28db3",
            "type": "ADD_SNIPPET",
            "codeSnippet": "if(kony.store.getItem(\"langPrefObj\") === \"en\")\n    kony.boj.lang = \"eng\";\n  else\n    kony.boj.lang = \"ara\";\n\ngblTModule = \"billspay\";\ngetAllAccounts();",
            "parentId": null,
            "callbackType": null
        }]
    }
}