{
    "AS_Button_59e2c93657084669b7b49741be694dcb": {
        "id": "AS_Button_59e2c93657084669b7b49741be694dcb",
        "type": "ACTION_SEQUENCE",
        "params": [{
            "datatype": "collection",
            "name": "eventobject"
        }],
        "contextObj": {
            "name": "frmAcntTermsAndConditionsKA",
            "type": "forms",
            "platform": null,
            "KUID": "baf8bcd68a2c41d9a1f80da15169c48f"
        },
        "language": "js",
        "actions": [{
            "id": "ADD_SNIPPET__ae78e9219b03460fbf91cabc4dae198b",
            "type": "ADD_SNIPPET",
            "codeSnippet": "navigateToPickAProduct();",
            "parentId": null,
            "callbackType": null
        }]
    }
}