{
    "AS_Button_f073702079794eeab55c4b5ef105be9a": {
        "id": "AS_Button_f073702079794eeab55c4b5ef105be9a",
        "type": "ACTION_SEQUENCE",
        "name": "AS_Button_backToCardsDismissCancel",
        "params": [{
            "datatype": "collection",
            "name": "eventobject"
        }],
        "contextObj": {
            "name": "PopupCancelAndReplaceCard",
            "type": "popups",
            "platform": "",
            "KUID": "a0af01d7473c46eba7ba3fb94bfdcfce"
        },
        "language": "js",
        "actions": [{
            "id": "ADD_SNIPPET__e74dfa0c565a4abb8db542cb65f9d4dc",
            "type": "ADD_SNIPPET",
            "codeSnippet": "PopupCancelAndReplaceCard.dismiss();",
            "parentId": null,
            "callbackType": null
        }]
    }
}