{
    "AS_Button_ddcf25de85c94f66ac3471519069b0ba": {
        "id": "AS_Button_ddcf25de85c94f66ac3471519069b0ba",
        "type": "ACTION_SEQUENCE",
        "params": [{
            "datatype": "collection",
            "name": "eventobject"
        }],
        "language": "js",
        "actions": [{
            "id": "ADD_SNIPPET_ide_onClick_d04d144422c047feb55e19f774571b65",
            "type": "ADD_SNIPPET",
            "codeSnippet": "var userVC = applicationManager.getFrmNUOVerificationKAViewController();\nuserVC.onClickSubmit();",
            "callbackType": null
        }]
    }
}