{
    "AS_Button_e8dcd5464a2e44c599d9f2f74eb95519": {
        "id": "AS_Button_e8dcd5464a2e44c599d9f2f74eb95519",
        "type": "ACTION_SEQUENCE",
        "params": [{
            "datatype": "collection",
            "name": "eventobject"
        }],
        "language": "js",
        "actions": [{
            "id": "ADD_SNIPPET_ide_onClick_d528fbacf5a84c959dbd81971ba6cfee",
            "type": "ADD_SNIPPET",
            "codeSnippet": null,
            "callbackType": null
        }, {
            "id": "ADD_SNIPPET_ide_onClick_da874da194a34f6db8f48bbb6e0b3cf7",
            "type": "ADD_SNIPPET",
            "codeSnippet": "cardManagementOperations(\"lost\");",
            "callbackType": null
        }]
    }
}