{
    "AS_Button_d816f97dc43c4d5b9af9e0b9bdb71c9e": {
        "id": "AS_Button_d816f97dc43c4d5b9af9e0b9bdb71c9e",
        "type": "ACTION_SEQUENCE",
        "params": [{
            "datatype": "collection",
            "name": "eventobject"
        }],
        "contextObj": {
            "name": "frmNewPayPersonKA",
            "type": "forms",
            "platform": "",
            "KUID": "1df7248b622b405fb1a73c4deef77bd8"
        },
        "language": "js",
        "actions": [{
            "id": "ADD_SNIPPET_ide_onClick_82e1f57178804ae09fb807d6573c1219",
            "type": "ADD_SNIPPET",
            "codeSnippet": "setDateToLabel();\nconfirmEditP2P();",
            "callbackType": null
        }]
    }
}