{
    "AS_Button_cff86d55242146368e7d611ec24f8fd1": {
        "id": "AS_Button_cff86d55242146368e7d611ec24f8fd1",
        "type": "ACTION_SEQUENCE",
        "params": [{
            "datatype": "collection",
            "name": "eventobject"
        }],
        "contextObj": {
            "name": "frmAccountDetailKA",
            "type": "forms",
            "platform": "",
            "KUID": "5ed703cad63c441882fc4a36f5ea0c28"
        },
        "language": "js",
        "actions": [{
            "id": "ADD_SNIPPET__f469f454718142d1b205b0016d4d055f",
            "type": "ADD_SNIPPET",
            "codeSnippet": "kony.print(\"asdsa\");",
            "parentId": null,
            "callbackType": null
        }]
    }
}