{
    "AS_Button_h93aa74feb2146829486185a3cdce107": {
        "id": "AS_Button_h93aa74feb2146829486185a3cdce107",
        "type": "ACTION_SEQUENCE",
        "params": [{
            "datatype": "collection",
            "name": "eventobject"
        }],
        "contextObj": {
            "name": "frmEnrolluserLandingKA",
            "type": "forms",
            "platform": "",
            "KUID": "de724966138b4e7c9bfdd35033a0bdb3"
        },
        "language": "js",
        "actions": [{
            "id": "ADD_SNIPPET__a306396f8f7840179cff3f14865d7dcd",
            "type": "ADD_SNIPPET",
            "codeSnippet": "gblFromModule = \"RetriveUsername\";\nfrmRegisterUser.show();",
            "parentId": null,
            "callbackType": null
        }]
    }
}