{
    "AS_Button_c0f2bf75999043ed8bf757a3f6eafc56": {
        "id": "AS_Button_c0f2bf75999043ed8bf757a3f6eafc56",
        "type": "ACTION_SEQUENCE",
        "params": [{
            "datatype": "collection",
            "name": "eventobject"
        }],
        "contextObj": {
            "name": "frmNewCashWithdrawKA",
            "type": "forms",
            "platform": "",
            "KUID": "c61ad12e0ab14a518f43b91ce1670e1d"
        },
        "language": "js",
        "actions": [{
            "id": "ADD_SNIPPET__d90409e37ad84b5b9c040189300da66d",
            "type": "ADD_SNIPPET",
            "codeSnippet": "kony.print(\"deleted\");",
            "parentId": null,
            "callbackType": null
        }]
    }
}