{
    "AS_Button_c7707ef7ea9a439f8440eadf7ba41716": {
        "id": "AS_Button_c7707ef7ea9a439f8440eadf7ba41716",
        "type": "ACTION_SEQUENCE",
        "params": [{
            "datatype": "collection",
            "name": "eventobject"
        }],
        "contextObj": {
            "name": "frmConfirmCashWithDraw",
            "type": "forms",
            "platform": "",
            "KUID": "b2e7c11eabab44839d19ed317b9260fc"
        },
        "language": "js",
        "actions": [{
            "id": "ADD_SNIPPET__f63b21cadbfa45a38f4af8662b8ed78c",
            "type": "ADD_SNIPPET",
            "codeSnippet": "var vc = new kony.rb.frmConfirmCashWithdrawViewController();\nvc.goBackToNewCashWithdraw();",
            "parentId": null,
            "callbackType": null
        }]
    }
}