{
    "AS_Button_j94d44de90284f1c912c7119c0400c14": {
        "id": "AS_Button_j94d44de90284f1c912c7119c0400c14",
        "type": "ACTION_SEQUENCE",
        "params": [{
            "datatype": "collection",
            "name": "eventobject"
        }],
        "language": "js",
        "actions": [{
            "id": "SHOW_ALERT_ide_onClick_ha4c08d9f6474aafb0462999ca6a1bad",
            "type": "SHOW_ALERT",
            "alertType": "constants.ALERT_TYPE_CONFIRMATION",
            "alertTitle": "Confirm Sign Out",
            "yesLabel": "Sign Out",
            "noLabel": "Cancel",
            "alertMessage": "Are you sure you want to sign out?",
            "messageType": "constant",
            "callbackType": null,
            "alertTitlei18n": "i18n.common.confirmSignOut",
            "yesLabeli18n": "i18n.common.signOut",
            "noLabeli18n": "i18n.common.cancel",
            "alertMessagei18n": "i18n.common.signOutAlert",
            "iconPosition": "constants.ALERT_ICON_POSITION_LEFT"
        }, {
            "id": "ADD_SNIPPET_ide_onClick_dc18f9fb2c574867987e1fac8d9cf94f",
            "type": "ADD_SNIPPET",
            "codeSnippet": "kony.sdk.mvvm.LogoutAction();",
            "parentId": "SHOW_ALERT_ide_onClick_ha4c08d9f6474aafb0462999ca6a1bad",
            "callbackType": "True"
        }]
    }
}