{
    "AS_Button_c70e604fc30441dbacfe62c4aa6b4309": {
        "id": "AS_Button_c70e604fc30441dbacfe62c4aa6b4309",
        "type": "ACTION_SEQUENCE",
        "params": [{
            "datatype": "collection",
            "name": "eventobject"
        }],
        "contextObj": {
            "name": "frmAddPayeeSuccessBillPayKA",
            "type": "forms",
            "platform": "",
            "KUID": "6e316e59d2e44fbdaf370e02174f1690"
        },
        "language": "js",
        "actions": [{
            "id": "ADD_SNIPPET__3caa1a3a031849f08530aca60c023bf3",
            "type": "ADD_SNIPPET",
            "codeSnippet": "newPayeeAddedBillPay(\"NewBillPay\");",
            "parentId": null,
            "callbackType": null
        }]
    }
}