{
    "AS_Button_h923d08603a948deb64f563f3e35cc77": {
        "id": "AS_Button_h923d08603a948deb64f563f3e35cc77",
        "type": "ACTION_SEQUENCE",
        "params": [{
            "datatype": "collection",
            "name": "eventobject"
        }],
        "language": "js",
        "actions": [{
            "id": "ADD_SNIPPET_ide_onClick_fcc1bd472d0642e79ca18b4a45ec9d70",
            "type": "ADD_SNIPPET",
            "codeSnippet": "hideAccountInsights();",
            "callbackType": null
        }]
    }
}