{
    "AS_Button_5eed31b70fbb4295b8cb40a2ea7caac0": {
        "id": "AS_Button_5eed31b70fbb4295b8cb40a2ea7caac0",
        "type": "ACTION_SEQUENCE",
        "params": [{
            "datatype": "collection",
            "name": "eventobject"
        }],
        "language": "js",
        "actions": [{
            "id": "ADD_SNIPPET_ide_onClick_bee49dd09e8e4b2f8e50b463aae3d334",
            "type": "ADD_SNIPPET",
            "codeSnippet": "if (userAgent !== \"iPhone\"){\n  frmContactUsKA.btnback.setVisibility(true);\n  frmContactUsKA.hamburgerButton.setVisibility(false);\n }\nfrmContactUsKA.show();",
            "callbackType": null
        }]
    }
}