{
    "AS_Button_dfbc534a3da744f0b3cf36df0321a067": {
        "id": "AS_Button_dfbc534a3da744f0b3cf36df0321a067",
        "type": "ACTION_SEQUENCE",
        "params": [{
            "datatype": "collection",
            "name": "eventobject"
        }],
        "language": "js",
        "actions": [{
            "id": "ADD_SNIPPET_ide_onClick_f63ac5e9775d43e7a807c7df8ab09e18",
            "type": "ADD_SNIPPET",
            "codeSnippet": "if(frmCreditCardPayment.btnNext.skin===\"jomopaynextEnabled\")\n  {\n    amount=parseFloat(frmCreditCardPayment.txtFieldAmount.text);\n    minamount=parseFloat(frmCreditCardPayment.lblPaymentValue.text);\n    if(amount<minamount)\n      {\n          customAlertPopup(geti18Value(\"i18n.maps.Info\"),geti18Value(\"i18n.common.lessamountvalue\"),popupCommonAlertDimiss,\"\");\n      }\n    else{\n    frmCreditCardPayment.lblAccountNumber.text=frmCreditCardPayment.lblAccountType.text;\n    if(frmCreditCardPayment.btnCard.text===\"t\")\n      {\n        frmCreditCardPayment.lblCard.text=frmCreditCardPayment.lblBOJCard.text;\n        frmCreditCardPayment.lblCardValue.text=frmCreditCardPayment.lBoxCardList.selectedKeyValue[1];\n        frmCreditCardPayment.lblDueDateValue.text=frmCreditCardPayment.lblDate.text;\n        frmCreditCardPayment.flxDueDateConfirm.isVisible =true;\n      }\n    else\n      {\n         frmCreditCardPayment.lblCard.text=frmCreditCardPayment.lblOtherCard.text;\n        frmCreditCardPayment.lblCardValue.text=frmCreditCardPayment.txtBoxOtherCard.text;\n        frmCreditCardPayment.flxDueDateConfirm.isVisible =false;\n      }\n    \n    frmCreditCardPayment.lblTUAmountValue.text=frmCreditCardPayment.lblTUAmount.text;\n    frmCreditCardPayment.lblPVValue.text=frmCreditCardPayment.lblPaymentValue.text;\n    frmCreditCardPayment.lblAmountValue.text=frmCreditCardPayment.txtFieldAmount.text;\n    frmCreditCardPayment.flxBody.setVisibility(false);\n    frmCreditCardPayment.flxConfirmPopUp.setVisibility(true);\n  }\n  }",
            "callbackType": null
        }]
    }
}