{
    "AS_FlexContainer_hcb07cd9d7e24932b1ecfd17b9c76d11": {
        "id": "AS_FlexContainer_hcb07cd9d7e24932b1ecfd17b9c76d11",
        "type": "ACTION_SEQUENCE",
        "name": "AS_backtoAccountsfromPaymentDashboard",
        "params": [{
            "datatype": "collection",
            "name": "eventobject"
        }],
        "language": "js",
        "actions": [{
            "id": "ADD_SNIPPET_ide_onClick_i56aeb73ff2f4ce1876d10825da76d45",
            "type": "ADD_SNIPPET",
            "codeSnippet": "if(kony.sdk.isNetworkAvailable()){\n      frmAccountsLandingKA.flxDeals.setVisibility(false);\n            frmAccountsLandingKA.flxAccountsMain.setVisibility(true);\n      frmAccountsLandingKA.flxAccountsMain.left = \"0%\"\n            frmAccountsLandingKA.flxLoans.setVisibility(false);\n            frmAccountsLandingKA.flxAccountsMain.zIndex = 1;\n            frmAccountsLandingKA.flxDeals.zIndex = 1;\n            frmAccountsLandingKA.flxLoans.zIndex = 1;\n            frmAccountsLandingKA.forceLayout();\n      \naccountDashboardDataCall();\nkony.print(\"Nav accounts Dadhboard:::\");\n    }else{\n  kony.sdk.mvvm.KonyApplicationContext.dismissLoadingScreen();\n        customAlertPopup(\"\", kony.i18n.getLocalizedString(\"i18n.errorMsg.deviceConnectionError\"), popupCommonAlertDimiss, \"\");\n  }\n",
            "callbackType": null
        }]
    }
}