{
    "AS_Button_7704ef2413594df0a30a1120cc5b04ce": {
        "id": "AS_Button_7704ef2413594df0a30a1120cc5b04ce",
        "type": "ACTION_SEQUENCE",
        "params": [{
            "datatype": "collection",
            "name": "eventobject"
        }],
        "language": "js",
        "actions": [{
            "id": "SHOW_ALERT__62a805a8eee544b09665e4687b51ae25",
            "type": "SHOW_ALERT",
            "alertType": "constants.ALERT_TYPE_CONFIRMATION",
            "alertTitle": "Confirm Sign Out",
            "yesLabel": "Sign Out",
            "noLabel": "Cancel",
            "alertMessage": "Are you sure you want to sign out?",
            "messageType": "constant",
            "parentId": null,
            "callbackType": null,
            "alertTitlei18n": "i18n.common.confirmSignOut",
            "yesLabeli18n": "i18n.common.signOut",
            "noLabeli18n": "i18n.common.cancel",
            "alertMessagei18n": "i18n.common.signOutAlert",
            "iconPosition": "constants.ALERT_ICON_POSITION_LEFT"
        }, {
            "id": "ADD_SNIPPET__25114ad7e832416b8a2bed097590bc40",
            "type": "ADD_SNIPPET",
            "codeSnippet": "deviceRegFrom = \"logout\";\nremoveSwipe();\nkony.sdk.mvvm.LogoutAction();",
            "parentId": "SHOW_ALERT__62a805a8eee544b09665e4687b51ae25",
            "callbackType": "True"
        }]
    }
}