{
    "AS_Button_ff8c57ffb68644be9dbeffa30e456030": {
        "id": "AS_Button_ff8c57ffb68644be9dbeffa30e456030",
        "type": "ACTION_SEQUENCE",
        "params": [{
            "datatype": "collection",
            "name": "eventobject"
        }],
        "contextObj": {
            "name": "frmConfirmPrePayBill",
            "type": "forms",
            "platform": null,
            "KUID": "a75e220839ea44a2b0654e6eee22b206"
        },
        "language": "js",
        "actions": [{
            "id": "ADD_SNIPPET_ide_onClick_ff6968cdcb634b8abec91ffdb0523d8b",
            "type": "ADD_SNIPPET",
            "codeSnippet": "//saveNewTransfer(\"frmConfirmTransferKA\");\n\nvar INSTANCE = kony.sdk.mvvm.KonyApplicationContext.getAppInstance();\nvar listController = INSTANCE.getFormController(\"frmConfirmPayBill\");\nlistController.performAction(\"saveData\");",
            "callbackType": null
        }]
    }
}