{
    "AS_Button_e83cd7b93f7449e0adedc66b0f53dadb": {
        "id": "AS_Button_e83cd7b93f7449e0adedc66b0f53dadb",
        "type": "ACTION_SEQUENCE",
        "params": [{
            "datatype": "collection",
            "name": "eventobject"
        }],
        "language": "js",
        "actions": [{
            "id": "ADD_SNIPPET_ide_onClick_b1b3306b398f44fea1af4d6660f4d35e",
            "type": "ADD_SNIPPET",
            "codeSnippet": "makeInlineErrorsTransfersInvisible();\nremoveDatafrmTransfersform();\nfrmPaymentDashboard.show();;",
            "callbackType": null
        }]
    }
}