{
    "AS_Button_f022bd62cc004cc08cb70042c44ddcec": {
        "id": "AS_Button_f022bd62cc004cc08cb70042c44ddcec",
        "type": "ACTION_SEQUENCE",
        "params": [{
            "datatype": "collection",
            "name": "eventobject"
        }],
        "contextObj": {
            "name": "frmConfirmDepositKA",
            "type": "forms",
            "platform": "",
            "KUID": "422237ff93274fe59fc6163e5e1f62cd"
        },
        "language": "js",
        "actions": [{
            "id": "ADD_SNIPPET__48117cc25f3946679cf1dd0ec65b74e5",
            "type": "ADD_SNIPPET",
            "codeSnippet": "var INSTANCE =  kony.sdk.mvvm.KonyApplicationContext.getAppInstance();\nvar controller = INSTANCE.getFormController(\"frmConfirmDepositKA\");\ncontroller.performAction(\"saveData\");",
            "parentId": null,
            "callbackType": null
        }]
    }
}