{
    "AS_Button_f3fcc7a96d7d45ce93969a5700a01caa": {
        "id": "AS_Button_f3fcc7a96d7d45ce93969a5700a01caa",
        "type": "ACTION_SEQUENCE",
        "params": [{
            "datatype": "collection",
            "name": "eventobject"
        }],
        "language": "js",
        "actions": [{
            "id": "ADD_SNIPPET_ide_onClick_50edaeba7f25498e8c504a3146194757",
            "type": "ADD_SNIPPET",
            "codeSnippet": "check(6);",
            "callbackType": null
        }]
    }
}