{
    "AS_Button_b560423952034069a89dd793b1d2878d": {
        "id": "AS_Button_b560423952034069a89dd793b1d2878d",
        "type": "ACTION_SEQUENCE",
        "params": [{
            "datatype": "collection",
            "name": "eventobject"
        }],
        "language": "js",
        "actions": [{
            "id": "ADD_SNIPPET_ide_onClick_jcb8be2572cd48de8c6166868211111e",
            "type": "ADD_SNIPPET",
            "codeSnippet": "PopupCancelAndReplaceCard.dismiss();",
            "callbackType": null
        }]
    }
}