{
    "AS_Button_ga4be05e953b4253a778772d36ca485c": {
        "id": "AS_Button_ga4be05e953b4253a778772d36ca485c",
        "type": "ACTION_SEQUENCE",
        "params": [{
            "datatype": "collection",
            "name": "eventobject"
        }],
        "language": "js",
        "actions": [{
            "id": "ADD_SNIPPET_ide_onClick_b8b128a7a79348da8c84483126ab8da8",
            "type": "ADD_SNIPPET",
            "codeSnippet": "getBranchLocations();",
            "callbackType": null
        }]
    }
}