{
    "AS_Button_dcd82513b2be409fa7dc542a82d9018e": {
        "id": "AS_Button_dcd82513b2be409fa7dc542a82d9018e",
        "type": "ACTION_SEQUENCE",
        "params": [{
            "datatype": "collection",
            "name": "eventobject"
        }],
        "language": "js",
        "actions": [{
            "id": "ADD_SNIPPET_ide_onClick_a89f585f0c134720ac083f6e577c6533",
            "type": "ADD_SNIPPET",
            "codeSnippet": "frmPaymentDashboard.show();;",
            "callbackType": null
        }]
    }
}