{
    "AS_Button_9af4eeee0b9c46ce810d3f9c546ea49c": {
        "id": "AS_Button_9af4eeee0b9c46ce810d3f9c546ea49c",
        "type": "ACTION_SEQUENCE",
        "params": [{
            "datatype": "collection",
            "name": "eventobject"
        }],
        "language": "js",
        "actions": [{
            "id": "ADD_SNIPPET_ide_onClick_794ab9bc788c468ea0298c090d3631cc",
            "type": "ADD_SNIPPET",
            "codeSnippet": "    var INSTANCE = kony.sdk.mvvm.KonyApplicationContext.getAppInstance();\n    var frmName = kony.application.getCurrentForm().id;\n    var listController = INSTANCE.getFormController(frmName);\n    listController.performAction(\"navigateToAccountsInfo\");",
            "callbackType": null
        }]
    }
}