{
    "AS_Button_jb3ba4c4a68b4363beb962d2c9299486": {
        "id": "AS_Button_jb3ba4c4a68b4363beb962d2c9299486",
        "type": "ACTION_SEQUENCE",
        "params": [{
            "datatype": "collection",
            "name": "eventobject"
        }],
        "language": "js",
        "actions": [{
            "id": "ADD_SNIPPET_ide_onClick_jf5a9db85c2e44428ad6317904ae16be",
            "type": "ADD_SNIPPET",
            "codeSnippet": "nextFromNewBillScreen();\nkony.boj.selectedBillerType = \"PrePaid\";\nrestoreBillerTabDetails();\nonClickPrePaidQuickPay();\nclearNewBillScreen();\nchangeUnderlineskin();\ngblTModule = \"BillPayNewBillKA\";\ncheck_numberOfAccounts();",
            "callbackType": null
        }]
    }
}