{
    "AS_Button_ed9b151b7fdb4adeb9e71f3090d294db": {
        "id": "AS_Button_ed9b151b7fdb4adeb9e71f3090d294db",
        "type": "ACTION_SEQUENCE",
        "params": [{
            "datatype": "collection",
            "name": "eventobject"
        }],
        "contextObj": {
            "name": "frmAccountDetailKA",
            "type": "forms",
            "platform": "",
            "KUID": "5ed703cad63c441882fc4a36f5ea0c28"
        },
        "language": "js",
        "actions": [{
            "id": "ADD_SNIPPET__aa9171e871764667b8ddba0ff531a019",
            "type": "ADD_SNIPPET",
            "codeSnippet": "firstTimeVisitAccountTermsForm();",
            "parentId": null,
            "callbackType": null
        }]
    }
}