{
    "AS_Button_37dbb753ebff42db97d1c2afea7ddaf8": {
        "id": "AS_Button_37dbb753ebff42db97d1c2afea7ddaf8",
        "type": "ACTION_SEQUENCE",
        "params": [{
            "datatype": "collection",
            "name": "eventobject"
        }],
        "language": "js",
        "actions": [{
            "id": "ADD_SNIPPET__4b5af62f7dae4eaab9e9766ea05210e6",
            "type": "ADD_SNIPPET",
            "codeSnippet": "getTransferPayLandingForm(\"frmDepositPayLandingKA\");",
            "parentId": null,
            "callbackType": null
        }]
    }
}