{
    "AS_Button_j3a396c4a6db4b0c8b31e56c2286117f": {
        "id": "AS_Button_j3a396c4a6db4b0c8b31e56c2286117f",
        "type": "ACTION_SEQUENCE",
        "params": [{
            "datatype": "collection",
            "name": "eventobject"
        }],
        "language": "js",
        "actions": [{
            "id": "ADD_SNIPPET_ide_onClick_adaf37f3104641c5a7be9630bdb6746b",
            "type": "ADD_SNIPPET",
            "codeSnippet": "if(gblFromModule === \"updateBeneficiary\")\n\tgblToOTPFrom = gblFromModule;\nelse\n\tgblToOTPFrom = \"AddBene\";\nShowLoadingScreen();\ncallRequestOTP();\n//frmNewUserOnboardVerificationKA.show();\n// var INSTANCE = kony.sdk.mvvm.KonyApplicationContext.getAppInstance();\n// var listController = INSTANCE.getFormController(\"frmAddExternalAccountKA\");\n// listController.performAction(\"saveData\");\n// kony.boj.detailsForBene.flag = false;",
            "callbackType": null
        }]
    }
}