{
    "AS_Button_c7ca4e3e7add4bce9b729f478b7cceb4": {
        "id": "AS_Button_c7ca4e3e7add4bce9b729f478b7cceb4",
        "type": "ACTION_SEQUENCE",
        "name": "AS_Button_CardReplace",
        "params": [{
            "datatype": "collection",
            "name": "eventobject"
        }],
        "language": "js",
        "actions": [{
            "id": "ADD_SNIPPET_ide_onClick_j2ae8f7ce8964ef7aaf93083bcaa5527",
            "type": "ADD_SNIPPET",
            "codeSnippet": "frmCancelCardKA.btnCardCancel.text=\"\";\nfrmCancelCardKA.btnCardReplace.text=\"t\";\nfrmCancelCardKA.flxDeliveryBranch.setVisibility(true);",
            "callbackType": null
        }]
    }
}