{
    "AS_Button_b6e13270cfa14c249cdba2f4a8b6ed6e": {
        "id": "AS_Button_b6e13270cfa14c249cdba2f4a8b6ed6e",
        "type": "ACTION_SEQUENCE",
        "params": [{
            "datatype": "collection",
            "name": "eventobject"
        }, {
            "datatype": "collection",
            "name": "context"
        }],
        "language": "js",
        "actions": [{
            "id": "ADD_SNIPPET_ide_onClick_ed10b7eeb62a42dca4d78e943868a1e3",
            "type": "ADD_SNIPPET",
            "codeSnippet": "kony.print(\"accountDetails::\")\nfrmAccountDetailKA.show();",
            "callbackType": null,
            "disabled": true
        }, {
            "id": "INVOKE_FUNCTION__ide_onClick_jd240649ad234bb286fd94e8d9660fc4",
            "type": "INVOKE_FUNCTION",
            "sequenceKUID": "onheaderDashboard",
            "display": "onheaderDashboard",
            "inputparams": [{
                "name": "data",
                "value": " eventobject"
            }, {
                "name": "context",
                "value": " context"
            }],
            "callbackType": null,
            "disabled": null
        }]
    }
}