{
    "AS_Button_d3376bfe66c940a8af596956bba6fa73": {
        "id": "AS_Button_d3376bfe66c940a8af596956bba6fa73",
        "type": "ACTION_SEQUENCE",
        "name": "AS_Button_onclickTenBtn",
        "params": [{
            "datatype": "collection",
            "name": "eventobject"
        }],
        "contextObj": {
            "name": "frmCardlessTransaction",
            "type": "forms",
            "platform": "",
            "KUID": "b7e7974060664c0093c575d8bba1e829"
        },
        "language": "js",
        "actions": [{
            "id": "ADD_SNIPPET__cb85ec9e6f274b258b9d7a04a8054a93",
            "type": "ADD_SNIPPET",
            "codeSnippet": "getAmountFunction(\"ten\");\n",
            "parentId": null,
            "callbackType": null
        }]
    }
}