{
    "AS_Button_a4a80d0a6b084815b33732d416502617": {
        "id": "AS_Button_a4a80d0a6b084815b33732d416502617",
        "type": "ACTION_SEQUENCE",
        "params": [{
            "datatype": "collection",
            "name": "eventobject"
        }],
        "language": "js",
        "actions": [{
            "id": "ADD_SNIPPET_ide_onClick_f40bf9a45ee4429c97232c46ddf38153",
            "type": "ADD_SNIPPET",
            "codeSnippet": "cardManagementOperations(\"cancel\");",
            "callbackType": null
        }]
    }
}