{
    "AS_Button_dee8b43d3c494e27827ba5f31ade93e8": {
        "id": "AS_Button_dee8b43d3c494e27827ba5f31ade93e8",
        "type": "ACTION_SEQUENCE",
        "name": "AS_Button_NavigateToCardsScreen",
        "params": [{
            "datatype": "collection",
            "name": "eventobject"
        }],
        "contextObj": {
            "name": "frmManageCardsKA",
            "type": "forms",
            "platform": "",
            "KUID": "75db60b6b4944b7faf9c556f4dbcaf8d"
        },
        "language": "js",
        "actions": [{
            "id": "ADD_SNIPPET__hb80475e458f48de8142013065c44319",
            "type": "ADD_SNIPPET",
            "codeSnippet": "frmCardsLandingKA.show();",
            "parentId": null,
            "callbackType": null
        }]
    }
}