{
    "AS_Button_jb8907903ed843b8b0c1256427d875ee": {
        "id": "AS_Button_jb8907903ed843b8b0c1256427d875ee",
        "type": "ACTION_SEQUENCE",
        "params": [{
            "datatype": "collection",
            "name": "eventobject"
        }],
        "contextObj": {
            "name": "frmLoginKA",
            "type": "forms",
            "platform": "",
            "KUID": "7b1aa8fceb6b4070833e9eab879b0e5e"
        },
        "language": "js",
        "actions": [{
            "id": "ADD_SNIPPET_ide_onClick_bad70eeacef844088f01e64182dd04f1",
            "type": "ADD_SNIPPET",
            "codeSnippet": "kony.sdk.mvvm.KonyApplicationContext.showLoadingScreen(\"\");\nShowLoadingScreen();\nisAlternateLoginEnabled(\"T\");",
            "callbackType": null
        }]
    }
}