{
    "AS_Button_gbf4af36170c4becb5b069d8846058d2": {
        "id": "AS_Button_gbf4af36170c4becb5b069d8846058d2",
        "type": "ACTION_SEQUENCE",
        "params": [{
            "datatype": "collection",
            "name": "eventobject"
        }],
        "contextObj": {
            "name": "frmNewUserSecurityquestionsKA",
            "type": "forms",
            "platform": "",
            "KUID": "cb977d23d25e44d0968c446c681f4dc7"
        },
        "language": "js",
        "actions": [{
            "id": "ADD_SNIPPET__a28294a3e761411ead1d8fa8cc790279",
            "type": "ADD_SNIPPET",
            "codeSnippet": "var seQ = applicationManager.getSecurityQuestionsViewController();\n seQ.clickOnBack();\n",
            "parentId": null,
            "callbackType": null
        }]
    }
}