{
    "AS_CheckBoxGroup_ce11a415cddd4c47b13ae153a37f98df": {
        "id": "AS_CheckBoxGroup_ce11a415cddd4c47b13ae153a37f98df",
        "type": "ACTION_SEQUENCE",
        "params": [{
            "datatype": "collection",
            "name": "eventobject"
        }, {
            "datatype": "string",
            "name": "x"
        }, {
            "datatype": "string",
            "name": "y"
        }],
        "contextObj": {
            "name": "frmUserSettingsPinLoginKA",
            "type": "forms",
            "platform": null,
            "KUID": "d6efcea46d734da8bf7a8f21578e100d"
        },
        "language": "js",
        "actions": [{
            "id": "ADD_SNIPPET_ide_onTouchEnd_c689d85f5cfc4ec0aa57d8226abd6213",
            "type": "ADD_SNIPPET",
            "codeSnippet": "touchIdCheckBoxSelectTouchEnd();",
            "callbackType": null
        }]
    }
}