{
    "AS_Calendar_14f3c8b3f8554f57a5cf25bd18b20e59": {
        "id": "AS_Calendar_14f3c8b3f8554f57a5cf25bd18b20e59",
        "type": "ACTION_SEQUENCE",
        "params": [{
            "datatype": "collection",
            "name": "eventobject"
        }, {
            "datatype": "string",
            "name": "x"
        }, {
            "datatype": "string",
            "name": "y"
        }],
        "contextObj": {
            "name": "frmSearchOptionsKA",
            "type": "forms",
            "platform": "",
            "KUID": "400a0ee97eb04e5897318084b1271b8a"
        },
        "language": "js",
        "actions": [{
            "id": "ADD_SNIPPET__2a4f117441324e8d885a8bf81063a269",
            "type": "ADD_SNIPPET",
            "codeSnippet": "offInvalidAmountorDate(\"lblInvalidDateRangeKA\");",
            "parentId": null,
            "callbackType": null
        }]
    }
}