{
    "AS_CheckBoxGroup_317156e4829840dbb7f89fd6b4e49181": {
        "id": "AS_CheckBoxGroup_317156e4829840dbb7f89fd6b4e49181",
        "type": "ACTION_SEQUENCE",
        "params": [{
            "datatype": "collection",
            "name": "eventobject"
        }],
        "contextObj": {
            "name": "frmSearchKA",
            "type": "forms",
            "platform": "",
            "KUID": "ac09c32a534449b3b0961f8e48e26015"
        },
        "language": "js",
        "actions": [{
            "id": "ADD_SNIPPET__54cf22ef54e0430796d3c5d21f4dec9f",
            "type": "ADD_SNIPPET",
            "codeSnippet": "selectAmountRange();",
            "parentId": null,
            "callbackType": null
        }]
    }
}