{
    "AS_TextField_gd1f306c71054d59963ff87b57c8ded0": {
        "id": "AS_TextField_gd1f306c71054d59963ff87b57c8ded0",
        "type": "ACTION_SEQUENCE",
        "name": "AS_convertionrateEnterActionLeft",
        "params": [{
            "datatype": "collection",
            "name": "eventobject"
        }, {
            "datatype": "string",
            "name": "changedtext"
        }],
        "language": "js",
        "actions": [{
            "id": "ADD_SNIPPET_ide_onTextChange_f92d90b38944485cb08dfefbdecfcabb",
            "type": "ADD_SNIPPET",
            "codeSnippet": "loadDatatoSegCalculateFX(frmFxRate.lblLeftValue.text);",
            "callbackType": null,
            "disabled": false
        }]
    }
}