{
    "AS_Calendar_h74d563d409144b382240b5fef7ffd4e": {
        "id": "AS_Calendar_h74d563d409144b382240b5fef7ffd4e",
        "type": "ACTION_SEQUENCE",
        "name": "AS_Calendar_onselectionfrommReqStmnt",
        "params": [{
            "datatype": "collection",
            "name": "eventobject"
        }, {
            "datatype": "boolean",
            "name": "isValidDateSelected"
        }],
        "contextObj": {
            "name": "frmRequestStatementAccounts",
            "type": "forms",
            "platform": "",
            "KUID": "gfecebeb3e284d22b50f99352c826586"
        },
        "language": "js",
        "actions": [{
            "id": "ADD_SNIPPET__b2c02d10b4434e60a651a18b4c881137",
            "type": "ADD_SNIPPET",
            "codeSnippet": "var field = frmRequestStatementAccounts.CalFrom;\nvar date = field.dateComponents[0]<10?\"0\"+field.dateComponents[0]:field.dateComponents[0];\nvar month = field.dateComponents[1]<10?\"0\"+field.dateComponents[1]:field.dateComponents[1];\nfrmRequestStatementAccounts.lblFromDate.text = month+\"/\"+field.dateComponents[2];\nfrmRequestStatementAccounts.lblLine2.skin = \"sknFlxGreenLine\";\nfrmRequestStatementAccounts.lblFromService.text = month+\"/\"+field.dateComponents[2];\nfrmRequestStatementAccounts.lblFrom.setVisibility(true);\n//frmRequestStatementAccounts.lblFromDate.text = \"\"; \n//Set valid startDate for ToDate\n//var field = frmRequestStatementAccounts.CalFrom;\n//var date = field.dateComponents[0]<10?\"0\"+field.dateComponents[0]:field.dateComponents[0];\n//var month = field.dateComponents[1]<10?\"0\"+field.dateComponents[1]:field.dateComponents[1];\n//frmRequestStatementAccounts.CalTo.date = ([date+1, month, field.dateComponents[2]]);\nfrmRequestStatementAccounts.lblFromDateHidee.text = month+\"/\"+ date +\"/\"+ field.dateComponents[2];\nfrmRequestStatementAccounts.CalTo.validStartDate = ([date, month, field.dateComponents[2]]);\n var currDate = new Date();\nfrmRequestStatementAccounts.CalTo.validEndDate = [currDate.getDate(),currDate.getMonth()+1,currDate.getFullYear()];\nnextSkinCheckForRequestStaement();\n",
            "parentId": null,
            "callbackType": null
        }]
    }
}