{
    "AS_Form_ea68a5e5b34247e19d67418dc144c777": {
        "id": "AS_Form_ea68a5e5b34247e19d67418dc144c777",
        "type": "ACTION_SEQUENCE",
        "name": "AS_DeviceBackofConfirmRequestStatement",
        "params": [{
            "datatype": "collection",
            "name": "eventobject"
        }],
        "contextObj": {
            "name": "frmRequestStatementAccountsConfirm",
            "type": "forms",
            "platform": null,
            "KUID": "b3cf66e08f4047d68c350fb5e77e9e49"
        },
        "language": "js",
        "actions": [{
            "id": "ADD_SNIPPET__c9b3ff107c8d43a690b80b71677bc3c4",
            "type": "ADD_SNIPPET",
            "codeSnippet": "frmRequestStatementAccounts.show();",
            "parentId": null,
            "callbackType": null
        }]
    }
}