{
    "AS_FlexContainer_ae39b8bed2ad4dd6a2580303cc28af22": {
        "id": "AS_FlexContainer_ae39b8bed2ad4dd6a2580303cc28af22",
        "type": "ACTION_SEQUENCE",
        "params": [{
            "datatype": "collection",
            "name": "eventobject"
        }],
        "contextObj": {
            "name": "frmCardsAddNickname",
            "type": "forms",
            "platform": null,
            "KUID": "d382c627ba0b45cfb446cc6dd8d8759e"
        },
        "language": "js",
        "actions": [{
            "id": "ADD_SNIPPET_ide_onClick_eb89f8866ee34de1a013c8dd33064f57",
            "type": "ADD_SNIPPET",
            "codeSnippet": "frmCardsAddNickname.flxShowHideSwitchOff.isVisible = true;\nfrmCardsAddNickname.flxShowHideSwitchOn.isVisible  = false;  \n\n  \n",
            "callbackType": null
        }]
    }
}