{
    "AS_FlexContainer_bc936614b03b4938bebc5d52f232e8fe": {
        "id": "AS_FlexContainer_bc936614b03b4938bebc5d52f232e8fe",
        "type": "ACTION_SEQUENCE",
        "name": "AS_FlexContainer_ON_OFF_ProfileMenu",
        "params": [{
            "datatype": "collection",
            "name": "eventobject"
        }],
        "contextObj": {
            "name": "frmSettingsKA",
            "type": "forms",
            "platform": "",
            "KUID": "hb0fb66c0c224ed284a1334d78669bfa"
        },
        "language": "js",
        "actions": [{
            "id": "ADD_SNIPPET__a46ee7a67c7040c186fd78f7747d5959",
            "type": "ADD_SNIPPET",
            "codeSnippet": "SETTINGS_GLOBALS.PROFILE = !SETTINGS_GLOBALS.PROFILE;\ntoggleMenuOptions(PROFILE_CONSTANTS.PROFILE, SETTINGS_GLOBALS.PROFILE, PROFILE_CONSTANTS.MENU[0]);\ntoggleMenuOptions(PROFILE_CONSTANTS.ACCOUNTPREFERENCES, (SETTINGS_GLOBALS.ACCOUNT = GENERIC_COSNTATNTS.FALSE)\n, PROFILE_CONSTANTS.MENU[1]);\ntoggleMenuOptions(PROFILE_CONSTANTS.CHANGELANGUAGE, (SETTINGS_GLOBALS.LANGUAGE = GENERIC_COSNTATNTS.FALSE), PROFILE_CONSTANTS.MENU[2]);\ntoggleMenuOptions(PROFILE_CONSTANTS.ALERTANDNOTIFICATIONS, (SETTINGS_GLOBALS.ALERT = GENERIC_COSNTATNTS.FALSE), PROFILE_CONSTANTS.MENU[4]);\ntoggleMenuOptions(PROFILE_CONSTANTS.ALTERNATELOGINS, (SETTINGS_GLOBALS.ALTERNATELOGINS = GENERIC_COSNTATNTS.FALSE), PROFILE_CONSTANTS.MENU[3]);\ntoggleMenuOptions(PROFILE_CONSTANTS.CARDPREFERENCES,(SETTINGS_GLOBALS.CARD = GENERIC_COSNTATNTS.FALSE),PROFILE_CONSTANTS.MENU[5]);\n",
            "parentId": null,
            "callbackType": null
        }]
    }
}