{
    "AS_FlexContainer_afa2e3ab36a04abb9c7de2263f41daad": {
        "id": "AS_FlexContainer_afa2e3ab36a04abb9c7de2263f41daad",
        "type": "ACTION_SEQUENCE",
        "params": [{
            "datatype": "collection",
            "name": "eventobject"
        }],
        "contextObj": {
            "name": "frmNewBillDetails",
            "type": "forms",
            "platform": null,
            "KUID": "c2132c3b91ec4677ab952b729de9fc0e"
        },
        "language": "js",
        "actions": [{
            "id": "ADD_SNIPPET_ide_onClick_a6c8e610efbc4622a9eaee6bb3cac111",
            "type": "ADD_SNIPPET",
            "codeSnippet": "if(gblQuickFlow != \"post\"){\n\tgblBiller = \"SerType\";\n\tfrmBillerListForm.show();\n}",
            "callbackType": null
        }]
    }
}