{
    "AS_FlexContainer_3038d2665f8a420295c531da1bbcf36e": {
        "id": "AS_FlexContainer_3038d2665f8a420295c531da1bbcf36e",
        "type": "ACTION_SEQUENCE",
        "params": [{
            "datatype": "collection",
            "name": "eventobject"
        }],
        "contextObj": {
            "name": "tabBarMore",
            "type": "templates",
            "platform": "",
            "KUID": "e0d5ae1d0532432d997d5a7ffbec8f48"
        },
        "language": "js",
        "actions": [{
            "id": "ADD_SNIPPET__ff2c467807684d95a6cd768567d94b63",
            "type": "ADD_SNIPPET",
            "codeSnippet": "kony.print(\"Removed\");",
            "parentId": null,
            "callbackType": null
        }]
    }
}