{
    "AS_Form_df62ef33d09644ffb89d27ae389f1ab4": {
        "id": "AS_Form_df62ef33d09644ffb89d27ae389f1ab4",
        "type": "ACTION_SEQUENCE",
        "name": "AS_Form_CardlessTransactionOnDeviceBack",
        "params": [{
            "datatype": "collection",
            "name": "eventobject"
        }],
        "contextObj": {
            "name": "frmCardlessTransaction",
            "type": "forms",
            "platform": "",
            "KUID": "b7e7974060664c0093c575d8bba1e829"
        },
        "language": "js",
        "actions": [{
            "id": "ADD_SNIPPET__ee4bbfcd7be5435c8f66d92eea078130",
            "type": "ADD_SNIPPET",
            "codeSnippet": "if(frmCardlessTransaction.flxBody.isVisible === false){\n  frmCardlessTransaction.flxConfirm.isVisible = false;\n  frmCardlessTransaction.flxBody.isVisible = true;\n  frmCardlessTransaction.btnNextCardless.isVisible = true;\n}\nelse if (frmCardlessTransaction.BrowserTCCardless.isVisible===true){\n  frmCardlessTransaction.BrowserTCCardless.isVisible=false;\n  frmCardlessTransaction.flxBody.isVisible = true;\n}\nelse{\n\tif(previous_FORM !== null && previous_FORM.id === \"frmAccountsLandingKA\"){\n      back_CARDLESS_TRANSACTION();\n    }else{\n\tcustomAlertPopup(geti18Value(\"i18n.common.AreYouSure\"), \n                 \t geti18Value(\"i18n.Bene.backFromBeneError\"),\n                 \t kony.boj.onClickYesBackAddCardless, popupCommonAlertDimiss, \n                 \t geti18Value(\"i18n.common.YES\"),\n                 \t geti18Value(\"i18n.common.NO\")); \n    \tshow_Cardless_List(\"all\");\n    \t//kony.sdk.mvvm.KonyApplicationContext.showLoadingScreen(\"\");\n    }\n    frmManageCardLess.btnAll.skin = \"slButtonWhiteTab\";\n    frmManageCardLess.btnPending.skin = \"slButtonWhiteTabDisabled\";\n    frmManageCardLess.btnAccepted.skin = \"slButtonWhiteTabDisabled\";\n    frmManageCardLess.btnCancel.skin = \"slButtonWhiteTabDisabled\";\n}\n",
            "parentId": null,
            "callbackType": null
        }]
    }
}