{
    "AS_Form_ca887ea942434a13af7d1213be358840": {
        "id": "AS_Form_ca887ea942434a13af7d1213be358840",
        "type": "ACTION_SEQUENCE",
        "params": [{
            "datatype": "collection",
            "name": "eventobject"
        }],
        "contextObj": {
            "name": "frmUnauthFeatureEnablingAccPreview",
            "type": "forms",
            "platform": null,
            "KUID": "30c78836d1d548048b462d0b9d8d6f07"
        },
        "language": "js",
        "actions": [{
            "id": "ADD_SNIPPET_ide_onHide_f1fef1e8749f4573a76ccc9165cc50b8",
            "type": "ADD_SNIPPET",
            "codeSnippet": "kony.print(\"Removed\");",
            "callbackType": null
        }]
    }
}