{
    "AS_FlexScrollContainer_f178edea46044552b0da507078849d9d": {
        "id": "AS_FlexScrollContainer_f178edea46044552b0da507078849d9d",
        "type": "ACTION_SEQUENCE",
        "params": [{
            "datatype": "collection",
            "name": "eventobject"
        }],
        "language": "js",
        "actions": [{
            "id": "ADD_SNIPPET_ide_onScrolling_j25667c67b3c4809b219e3d8cad399b7",
            "type": "ADD_SNIPPET",
            "codeSnippet": " insightsPaging();",
            "callbackType": null
        }]
    }
}