{
    "AS_FlexContainer_09ba56ce88f945f984008030a3d866b6": {
        "id": "AS_FlexContainer_09ba56ce88f945f984008030a3d866b6",
        "type": "ACTION_SEQUENCE",
        "params": [{
            "datatype": "collection",
            "name": "eventobject"
        }],
        "language": "js",
        "actions": [{
            "id": "ADD_SNIPPET_ide_onClick_e10c83f3d2ff43b4b8de6ce55f1b9128",
            "type": "ADD_SNIPPET",
            "codeSnippet": "if(frmAccountAlertsKA.successTransferInfoImgKA.src==\"checkbox_off.png\")\n    {\n       \tfrmAccountAlertsKA.successTransferInfoImgKA.src=\"checkbox_on.png\";\n      alert(\"You are subscribed for transfer alerts\");\n       //\tfrmAlertsKA.alertsTypes.isVisible=true;\n     // registerPush();\n      //\tupdateFlags(\"alerts\",true);\n    }else {\n       \t frmAccountAlertsKA.successTransferInfoImgKA.src=\"checkbox_off.png\";\n     alert(\"You are unsubscribed for transfer alerts\");\n      \t// frmAlertsKA.alertsTypes.isVisible=false;\n     // deregisterPush();\n       //  updateFlags(\"alerts\",false);\n    }\n",
            "callbackType": null
        }]
    }
}