{
    "AS_FlexContainer_j4d63147d18f4e14a7f728ef69b8d88b": {
        "id": "AS_FlexContainer_j4d63147d18f4e14a7f728ef69b8d88b",
        "type": "ACTION_SEQUENCE",
        "params": [{
            "datatype": "collection",
            "name": "eventobject"
        }],
        "language": "js",
        "actions": [{
            "id": "ADD_SNIPPET_ide_onClick_f0c5560bd9d947c68979f84110ec98f9",
            "type": "ADD_SNIPPET",
            "codeSnippet": "// var currentForm = kony.application.getCurrentForm();\n// kony.chatbots.bot.showBotSplash(currentForm);\nfrmPaymentDashboard.show();;",
            "callbackType": null
        }]
    }
}