{
    "AS_FlexContainer_c40836f55bba449cb6896b1244bf8e88": {
        "id": "AS_FlexContainer_c40836f55bba449cb6896b1244bf8e88",
        "type": "ACTION_SEQUENCE",
        "params": [{
            "datatype": "collection",
            "name": "eventobject"
        }],
        "contextObj": {
            "name": "frmMoreCheckReorderKA",
            "type": "forms",
            "platform": "",
            "KUID": "c31b293425914e17984b4a1465027620"
        },
        "language": "js",
        "actions": [{
            "id": "ADD_SNIPPET__660eaa187a844c5f809ec46d93d72fc8",
            "type": "ADD_SNIPPET",
            "codeSnippet": "var phNum = \"284-123-1234\";\nfunction onClickCheckReOrderCall(response){\n  if(response){\n    try{\n      kony.phone.dial(phNum);\n    } \n    catch(err)\n    {\n      alert(\"error in dial:: \"+err);\n    }\n  }\n}\nkony.ui.Alert({\n  \"alertType\": constants.ALERT_TYPE_CONFIRMATION,\n  \"alertTitle\": i18n_call,\n  \"yesLabel\": i18n_call,\n  \"noLabel\": i18n_cancelC,\n  \"alertIcon\": \"phone_icon_inactive.png\",\n  \"message\": phNum,\n  \"alertHandler\": onClickCheckReOrderCall \n}, {\n  \"iconPosition\": constants.ALERT_ICON_POSITION_LEFT\n})",
            "parentId": null,
            "callbackType": null
        }]
    }
}