{
    "AS_Form_hc6edfb735aa452885967b5931319343": {
        "id": "AS_Form_hc6edfb735aa452885967b5931319343",
        "type": "ACTION_SEQUENCE",
        "name": "AS_Form_CardlessTransactionPostShowAction",
        "params": [{
            "datatype": "collection",
            "name": "eventobject"
        }],
        "contextObj": {
            "name": "frmCardlessTransaction",
            "type": "forms",
            "platform": "",
            "KUID": "b7e7974060664c0093c575d8bba1e829"
        },
        "language": "js",
        "actions": [{
            "id": "ADD_SNIPPET__f691b4ae6b124b77aa0e3b0e4f5341f3",
            "type": "ADD_SNIPPET",
            "codeSnippet": "//frmCardlessTransaction.richtxtTermsandConditions.text = \"<U>\"+geti18Value(\"i18n.Cardless.TNC\")+\"</U>\";\nfrmCardlessTransaction.flxConfirm.isVisible = false;\nfrmCardlessTransaction.flxBody.isVisible = true;\nvar value=frmCardlessTransaction.txtFieldAmount.text;\nif (value===\"\" || isEmpty(value)||value===null)\n{\n  frmCardlessTransaction.flxMinusContainer.skin=\"CopyslButtonPaymentDashFocus0fc27e0876b3b4d\";\n  frmCardlessTransaction.flxMinusContainer.setEnabled(false);          \n}\n//frmCardlessTransaction.btnSubmit.setEnabled(false);\n\n\nvar langObj = kony.store.getItem(\"langPrefObj\");\nif(langObj.toUpperCase() === \"EN\"){\n  frmCardlessTransaction.BrowserTCCardless.requestURLConfig= {\n              \"URL\": \"http://bojm01jo2020.dev.dot.jo/rewards/tccdle\",\n              \"requestMethod\": constants.BROWSER_REQUEST_METHOD_GET\n          };\n}else{\n  frmCardlessTransaction.BrowserTCCardless.requestURLConfig= {\n              \"URL\": \"http://bojm01jo2020.dev.dot.jo/ar/rewards/tccdla\",\n              \"requestMethod\": constants.BROWSER_REQUEST_METHOD_GET\n          };\n}",
            "parentId": null,
            "callbackType": null
        }]
    }
}