{
    "AS_Form_0c53c1b3c878452c8bed88ea5e3a3724": {
        "id": "AS_Form_0c53c1b3c878452c8bed88ea5e3a3724",
        "type": "ACTION_SEQUENCE",
        "params": [{
            "datatype": "collection",
            "name": "eventobject"
        }],
        "contextObj": {
            "name": "frmDirectionsKA",
            "type": "forms",
            "platform": "",
            "KUID": "2a844aaae75b49948039c6e28c65dfcc"
        },
        "language": "js",
        "actions": [{
            "id": "ADD_SNIPPET__c709c9341f4b4c21b9a447c325ab3e5f",
            "type": "ADD_SNIPPET",
            "codeSnippet": "directionPostShow();",
            "parentId": null,
            "callbackType": null
        }]
    }
}