{
    "AS_FlexContainer_c105de35dcfa47e4953a274cca5cb3d3": {
        "id": "AS_FlexContainer_c105de35dcfa47e4953a274cca5cb3d3",
        "type": "ACTION_SEQUENCE",
        "name": "AS_FlexFromMonthReqStmnttt",
        "params": [{
            "datatype": "collection",
            "name": "eventobject"
        }],
        "contextObj": {
            "name": "frmRequestStatementAccounts",
            "type": "forms",
            "platform": "",
            "KUID": "gfecebeb3e284d22b50f99352c826586"
        },
        "language": "js",
        "actions": [{
            "id": "ADD_SNIPPET_ide_onClick_j3d752d7a3d04ba3ae0afc3b4950fb0c",
            "type": "ADD_SNIPPET",
            "codeSnippet": "if(frmRequestStatementAccounts.lblYearFromValue.text != geti18Value(\"i18n.filtertransaction.year\")){\ngblsubacclist=\"fromMonth\";\nfrmAccountType.show();\n}else{\n   frmRequestStatementAccounts.lblLineFY.skin = \"sknFlxOrangeLine\";\n}",
            "callbackType": null
        }]
    }
}