{
    "AS_Form_3d33ab72f6814ba89169a51e97677bc6": {
        "id": "AS_Form_3d33ab72f6814ba89169a51e97677bc6",
        "type": "ACTION_SEQUENCE",
        "params": [{
            "datatype": "collection",
            "name": "eventobject"
        }],
        "contextObj": {
            "name": "frmConfirmationPasswordKA",
            "type": "forms",
            "platform": null,
            "KUID": "07699e332975460cb89ee60a04655886"
        },
        "language": "js",
        "actions": [{
            "id": "ADD_SNIPPET_ide_preShow_649b62bcc5374ffc981d2ead8971e1dc",
            "type": "ADD_SNIPPET",
            "codeSnippet": "kony.print(\"Rempved\");",
            "callbackType": null
        }]
    }
}