{
    "AS_FlexContainer_f831e3fcb37a47e9af3357f4ee198554": {
        "id": "AS_FlexContainer_f831e3fcb37a47e9af3357f4ee198554",
        "type": "ACTION_SEQUENCE",
        "name": "AS_FlexContainer_f831e3fcb37a47e9af3357f4ee198554_delete",
        "params": [{
            "datatype": "collection",
            "name": "eventobject"
        }, {
            "datatype": "string",
            "name": "x"
        }, {
            "datatype": "string",
            "name": "y"
        }],
        "language": "js",
        "actions": []
    }
}