{
    "AS_Form_d3096729814a48dea3e4f736a9bc5577": {
        "id": "AS_Form_d3096729814a48dea3e4f736a9bc5577",
        "type": "ACTION_SEQUENCE",
        "params": [{
            "datatype": "collection",
            "name": "eventobject"
        }],
        "contextObj": {
            "name": "frmCheckReorderConfirmationKA",
            "type": "forms",
            "platform": "",
            "KUID": "7fb330f2649142f08c094c04d5127699"
        },
        "language": "js",
        "actions": [{
            "id": "ADD_SNIPPET__e64bf09e367d4d939e7b6b2e38415614",
            "type": "ADD_SNIPPET",
            "codeSnippet": "kony.print(\"device back\");",
            "parentId": null,
            "callbackType": null
        }]
    }
}