{
    "AS_Form_5e23794e466647709c2468b48d2f2726": {
        "id": "AS_Form_5e23794e466647709c2468b48d2f2726",
        "type": "ACTION_SEQUENCE",
        "params": [{
            "datatype": "collection",
            "name": "eventobject"
        }],
        "contextObj": {
            "name": "frmDepositPayLandingKA",
            "type": "forms",
            "platform": "",
            "KUID": "dd44156e890e4ee28360f50ee6c67184"
        },
        "language": "js",
        "actions": [{
            "id": "ADD_SNIPPET__14561d77d71747e7ac6545f8c3731fe1",
            "type": "ADD_SNIPPET",
            "codeSnippet": "userAgent = kony.os.userAgent();\nif (userAgent === \"iPhone\"){\n if(kony.retailBanking.globalData.globals.configPreferences.rdc === \"OFF\" ){\n    frmDepositPayLandingKA.footers[0].FlxDeposits.setVisibility(false);\n }\n}",
            "parentId": null,
            "callbackType": null
        }]
    }
}