{
    "AS_FlexContainer_ced4b7ec8e6946adb08d9568bb555dae": {
        "id": "AS_FlexContainer_ced4b7ec8e6946adb08d9568bb555dae",
        "type": "ACTION_SEQUENCE",
        "params": [{
            "datatype": "collection",
            "name": "eventobject"
        }, {
            "datatype": "string",
            "name": "x"
        }, {
            "datatype": "string",
            "name": "y"
        }],
        "contextObj": {
            "name": "frmChatBots",
            "type": "forms",
            "platform": "",
            "KUID": "a5c82996d9864c6482f65cfffe81fda4"
        },
        "language": "js",
        "actions": [{
            "id": "ADD_SNIPPET__j986161548ec4bd18364f9d6a6753a6b",
            "type": "ADD_SNIPPET",
            "codeSnippet": "onTouchMove1(eventobject,x,y);",
            "parentId": null,
            "callbackType": null
        }]
    }
}