{
    "AS_FlexContainer_e94dbed34a784f5999c266bed20524c9": {
        "id": "AS_FlexContainer_e94dbed34a784f5999c266bed20524c9",
        "type": "ACTION_SEQUENCE",
        "params": [{
            "datatype": "collection",
            "name": "eventobject"
        }],
        "contextObj": {
            "name": "frmEstatementLandingKA",
            "type": "forms",
            "platform": "",
            "KUID": "d1dcb94f4a054dda97d66cbdc216d96a"
        },
        "language": "js",
        "actions": [{
            "id": "ADD_SNIPPET__i56740cc8a5f4347b45f76e50ab9ee0d",
            "type": "ADD_SNIPPET",
            "codeSnippet": "onNextofEstmtRegister();",
            "parentId": null,
            "callbackType": null
        }]
    }
}