{
    "AS_FlexContainer_cdf43a7658684e158f5fd25dd4aa7cd0": {
        "id": "AS_FlexContainer_cdf43a7658684e158f5fd25dd4aa7cd0",
        "type": "ACTION_SEQUENCE",
        "name": "AS_FlexContainer_ReOrderAccountList",
        "params": [{
            "datatype": "collection",
            "name": "eventobject"
        }],
        "contextObj": {
            "name": "frmSettingsKA",
            "type": "forms",
            "platform": "",
            "KUID": "hb0fb66c0c224ed284a1334d78669bfa"
        },
        "language": "js",
        "actions": [{
            "id": "ADD_SNIPPET__d62b0c1516764e72839f8df5220770d4",
            "type": "ADD_SNIPPET",
            "codeSnippet": "getDataforAccountsReOrder();",
            "parentId": null,
            "callbackType": null,
            "disabled": false
        }]
    }
}