{
    "AS_FlexContainer_cb725390932b40afa3cc68d2dc940393": {
        "id": "AS_FlexContainer_cb725390932b40afa3cc68d2dc940393",
        "type": "ACTION_SEQUENCE",
        "params": [{
            "datatype": "collection",
            "name": "eventobject"
        }, {
            "datatype": "string",
            "name": "x"
        }, {
            "datatype": "string",
            "name": "y"
        }],
        "language": "js",
        "actions": [{
            "id": "ADD_SNIPPET_ide_onTouchStart_d84dc5b1f53a4f6bb34629d5f1b83aaf",
            "type": "ADD_SNIPPET",
            "codeSnippet": "if(gblCalculateFXLeft || gblCalculateFXRight || gblExchangeRatesFlag){\nfrmFxRate.show();\n}else if(gblTModule === \"countryCode\"){\n  frmRegisterUser.show();\n  frmCurrency.destroy();\n}else if(gblTModule === \"loanPostpone\"){\n  frmLoanPostpone.show();\n  frmCurrency.destroy();\n  gblTModule = \"\";\n}else{\n  frmNewTransferKA.show();\n}\nfrmCurrency.tbxSearch.text = \"\";",
            "callbackType": null
        }]
    }
}