{
    "AS_Form_5eedd91880c2459ba4fcdb82178fec87": {
        "id": "AS_Form_5eedd91880c2459ba4fcdb82178fec87",
        "type": "ACTION_SEQUENCE",
        "language": "js",
        "actions": [{
            "id": "ADD_SNIPPET__3faac6980cdd4ea8baa8f84c0f1381c1",
            "type": "ADD_SNIPPET",
            "codeSnippet": "kony.print(\"asdsadsa\");\nfrmAccountInfoKA.flxLoanInfo.showFadingEdges = false;\nfrmAccountInfoKA.flxDeposits.showFadingEdges = false;\nfrmAccountInfoKA.flxaccountdetailsfordeposits.showFadingEdges = false;\nfrmAccountInfoKA.mainContent.showFadingEdges = false;",
            "parentId": null,
            "callbackType": null
        }]
    }
}