{
    "AS_FlexContainer_d5f773d70b564d338bb5d0b1b63aaef7": {
        "id": "AS_FlexContainer_d5f773d70b564d338bb5d0b1b63aaef7",
        "type": "ACTION_SEQUENCE",
        "params": [{
            "datatype": "collection",
            "name": "eventobject"
        }, {
            "datatype": "string",
            "name": "x"
        }, {
            "datatype": "string",
            "name": "y"
        }],
        "language": "js",
        "actions": [{
            "id": "ADD_SNIPPET_ide_onTouchEnd_jd0a024ffdfe46f7b2b8ede3ba7ac1c0",
            "type": "ADD_SNIPPET",
            "codeSnippet": "navigateToUncategorisedList();",
            "callbackType": null
        }]
    }
}