{
    "AS_FlexContainer_e8f141384b4f4c5f9266a61d58c1edc5": {
        "id": "AS_FlexContainer_e8f141384b4f4c5f9266a61d58c1edc5",
        "type": "ACTION_SEQUENCE",
        "name": "AS_FlexContainer_ShowHideSwitchOff",
        "params": [{
            "datatype": "collection",
            "name": "eventobject"
        }],
        "contextObj": {
            "name": "frmEditAccountSettings",
            "type": "forms",
            "platform": "",
            "KUID": "ace74a42ca5e45cabde3f7b9d6361bd8"
        },
        "language": "js",
        "actions": [{
            "id": "ADD_SNIPPET__c3097ff8b08a45e188c58dc15c2c38b9",
            "type": "ADD_SNIPPET",
            "codeSnippet": "frmEditAccountSettings.flxShowHideSwitchOn.isVisible  = true;  \nfrmEditAccountSettings.flxShowHideSwitchOff.isVisible = false;\n  \n",
            "parentId": null,
            "callbackType": null
        }]
    }
}