{
    "AS_Form_34e8fdec10e845f1b5ee616c26048e68": {
        "id": "AS_Form_34e8fdec10e845f1b5ee616c26048e68",
        "type": "ACTION_SEQUENCE",
        "params": [{
            "datatype": "collection",
            "name": "eventobject"
        }],
        "contextObj": {
            "name": "frmacntstatementdetailsKA",
            "type": "forms",
            "platform": "",
            "KUID": "d066038f86554fd3807d8730ae9a9b23"
        },
        "language": "js",
        "actions": [{
            "id": "ADD_SNIPPET__c42595d310754ae0b1af5c25fe6e2b63",
            "type": "ADD_SNIPPET",
            "codeSnippet": "accountStatementDetailPreShow();",
            "parentId": null,
            "callbackType": null
        }]
    }
}