{
    "AS_Form_be06ffc5478f47eeb20a5e2a394a7ebd": {
        "id": "AS_Form_be06ffc5478f47eeb20a5e2a394a7ebd",
        "type": "ACTION_SEQUENCE",
        "params": [{
            "datatype": "collection",
            "name": "eventobject"
        }],
        "contextObj": {
            "name": "frmDirectionsKA",
            "type": "forms",
            "platform": "",
            "KUID": "2a844aaae75b49948039c6e28c65dfcc"
        },
        "language": "js",
        "actions": [{
            "id": "ADD_SNIPPET__c288e61f13f84358aed44323f3287605",
            "type": "ADD_SNIPPET",
            "codeSnippet": "directionPreShow();",
            "parentId": null,
            "callbackType": null
        }]
    }
}