{
    "AS_FlexContainer_a1a4a7092f3b47d0a2e6d626fe546443": {
        "id": "AS_FlexContainer_a1a4a7092f3b47d0a2e6d626fe546443",
        "type": "ACTION_SEQUENCE",
        "params": [{
            "datatype": "collection",
            "name": "eventobject"
        }],
        "contextObj": {
            "name": "frmNUOSelectAProductKA",
            "type": "forms",
            "platform": "",
            "KUID": "a7e7b33553484e9c83559a91d27212e3"
        },
        "language": "js",
        "actions": [{
            "id": "ADD_SNIPPET__c6bce1a8b9da4f1e9b193d5e15052e72",
            "type": "ADD_SNIPPET",
            "codeSnippet": "kony.print(\"deleted\");",
            "parentId": null,
            "callbackType": null
        }]
    }
}