{
    "AS_Form_19fb460b35df4d7b807f4ddb165d6bd2": {
        "id": "AS_Form_19fb460b35df4d7b807f4ddb165d6bd2",
        "type": "ACTION_SEQUENCE",
        "params": [{
            "datatype": "collection",
            "name": "eventobject"
        }],
        "contextObj": {
            "name": "frmAcmeCreditCardKA",
            "type": "forms",
            "platform": "",
            "KUID": "555544fb8d9a4bcf9b081cc78b58bfd1"
        },
        "language": "js",
        "actions": [{
            "id": "INVOKE_FUNCTION___c34bf25a1350440f8788c26f6fcaf705",
            "type": "INVOKE_FUNCTION",
            "sequenceKUID": "OnClickFeatures",
            "display": "OnClickFeatures",
            "inputparams": [],
            "parentId": null,
            "callbackType": null
        }]
    }
}