{
    "AS_FlexScrollContainer_h6653778ded94aa4952a322efc1af425": {
        "id": "AS_FlexScrollContainer_h6653778ded94aa4952a322efc1af425",
        "type": "ACTION_SEQUENCE",
        "params": [{
            "datatype": "collection",
            "name": "eventobject"
        }],
        "language": "js",
        "actions": [{
            "id": "ADD_SNIPPET_ide_onScrolling_e22ea75fb18d43ce9b3b8bc107566e85",
            "type": "ADD_SNIPPET",
            "codeSnippet": " insightsPaging();",
            "callbackType": null
        }]
    }
}