{
    "AS_Form_ibedf2155eba41efa97a5d909a4d5a5e": {
        "id": "AS_Form_ibedf2155eba41efa97a5d909a4d5a5e",
        "type": "ACTION_SEQUENCE",
        "params": [{
            "datatype": "collection",
            "name": "eventobject"
        }],
        "contextObj": {
            "name": "frmConfirmPrePayBill",
            "type": "forms",
            "platform": null,
            "KUID": "a75e220839ea44a2b0654e6eee22b206"
        },
        "language": "js",
        "actions": [{
            "id": "ADD_SNIPPET_ide_preShow_iedcae62b50c48cc939714d6de1688a2",
            "type": "ADD_SNIPPET",
            "codeSnippet": "frmConfirmPrePayBill.flxMain.showFadingEdges = false;",
            "callbackType": null
        }]
    }
}