{
    "AS_FlexContainer_f1024260d62341c18e2385b991cee4b3": {
        "id": "AS_FlexContainer_f1024260d62341c18e2385b991cee4b3",
        "type": "ACTION_SEQUENCE",
        "params": [{
            "datatype": "collection",
            "name": "eventobject"
        }, {
            "datatype": "string",
            "name": "x"
        }, {
            "datatype": "string",
            "name": "y"
        }],
        "contextObj": {
            "name": "frmChatBots",
            "type": "forms",
            "platform": "",
            "KUID": "a5c82996d9864c6482f65cfffe81fda4"
        },
        "language": "js",
        "actions": [{
            "id": "ADD_SNIPPET__b39c434cf32046ae99cfc30a3de9e831",
            "type": "ADD_SNIPPET",
            "codeSnippet": "onTouchMove1(eventobject,x,y);",
            "parentId": null,
            "callbackType": null
        }]
    }
}