{
    "AS_FlexContainer_bc3597f91b4148dd9392fb1894bb098b": {
        "id": "AS_FlexContainer_bc3597f91b4148dd9392fb1894bb098b",
        "type": "ACTION_SEQUENCE",
        "params": [{
            "datatype": "collection",
            "name": "eventobject"
        }],
        "language": "js",
        "actions": [{
            "id": "ADD_SNIPPET_ide_onClick_af6fe1c2b07748f183b13b5ef6d66e85",
            "type": "ADD_SNIPPET",
            "codeSnippet": "kony.print(\"Removed\");",
            "callbackType": null
        }]
    }
}