{
    "AS_FlexContainer_ebb66cc116364099939195d181332d08": {
        "id": "AS_FlexContainer_ebb66cc116364099939195d181332d08",
        "type": "ACTION_SEQUENCE",
        "params": [{
            "datatype": "collection",
            "name": "eventobject"
        }],
        "contextObj": {
            "name": "frmNewBillDetails",
            "type": "forms",
            "platform": null,
            "KUID": "c2132c3b91ec4677ab952b729de9fc0e"
        },
        "language": "js",
        "actions": [{
            "id": "ADD_SNIPPET_ide_onClick_i5b2e79118b24aa39f06df0b4b0f5dff",
            "type": "ADD_SNIPPET",
            "codeSnippet": "if(gblQuickFlow === \"pre\")\n  frmNewBillKA.flxPopupOuter.setVisibility(true);",
            "callbackType": null
        }]
    }
}