{
    "AS_Label_febecbb6be924a1db9a9a91e6e58b1e0": {
        "id": "AS_Label_febecbb6be924a1db9a9a91e6e58b1e0",
        "type": "ACTION_SEQUENCE",
        "name": "AS_Label_onTouchEndNextPrePaidBillerDetails",
        "params": [{
            "datatype": "collection",
            "name": "eventobject"
        }, {
            "datatype": "string",
            "name": "x"
        }, {
            "datatype": "string",
            "name": "y"
        }],
        "contextObj": {
            "name": "frmPrePaidPayeeDetailsKA",
            "type": "forms",
            "platform": null,
            "KUID": "hbc20d29fae3473cbfa1d409f630e19b"
        },
        "language": "js",
        "actions": [{
            "id": "ADD_SNIPPET__e3b99a9d977846be96ad97b01afbc884",
            "type": "ADD_SNIPPET",
            "codeSnippet": "//navigate_PREPAID_PAYEE_DETAILS_CONFIRM();\nif(frmPrePaidPayeeDetailsKA.lblNext.skin === \"sknLblNextEnabled\"){\n  gblToOTPFrom = \"AddBiller\";\n  getBOJBillDetailsPrepaid();\n}",
            "parentId": null,
            "callbackType": null
        }]
    }
}