{
    "AS_ListBox_f5135af58303445ca48f02e40a713b41": {
        "id": "AS_ListBox_f5135af58303445ca48f02e40a713b41",
        "type": "ACTION_SEQUENCE",
        "params": [{
            "datatype": "collection",
            "name": "eventobject"
        }],
        "language": "js",
        "actions": [{
            "id": "ADD_SNIPPET_ide_onSelection_ebc8e25e64444ce4b543aeee53c5fdb9",
            "type": "ADD_SNIPPET",
            "codeSnippet": "frmAddExternalAccountKA.lblCountryNameKA.text = frmAddExternalAccountKA.ListCountryKA.selectedKeyValue[1];\nkony.boj.addBeneNextStatus();",
            "callbackType": null
        }]
    }
}