{
    "AS_Label_j818a1de1a7c4270b7ee322f068e6185": {
        "id": "AS_Label_j818a1de1a7c4270b7ee322f068e6185",
        "type": "ACTION_SEQUENCE",
        "params": [{
            "datatype": "collection",
            "name": "eventobject"
        }, {
            "datatype": "string",
            "name": "x"
        }, {
            "datatype": "string",
            "name": "y"
        }],
        "contextObj": {
            "name": "frmAccountDetailKA",
            "type": "forms",
            "platform": "",
            "KUID": "5ed703cad63c441882fc4a36f5ea0c28"
        },
        "language": "js",
        "actions": [{
            "id": "ADD_SNIPPET__i1805454575e450fa8cd0f7ce6e884c1",
            "type": "ADD_SNIPPET",
            "codeSnippet": "fromAccounts = true;\nfromCards = false;",
            "parentId": null,
            "callbackType": null
        }, {
            "id": "NAVIGATE_TO_FORM___d7207d38736340f3a512aedf3d3d86c7",
            "type": "NAVIGATE_TO_FORM",
            "formId": "frmFilterTransaction",
            "formKUID": "ff5ea79e22414b03ba4cca716d18a58c",
            "mappings": {},
            "mappingsOrder": [],
            "parentId": "",
            "callbackType": null,
            "enableMappingEditor": true
        }]
    }
}