{
    "AS_Map_ada5106531cf4aeba67b2c2194a78cd3": {
        "id": "AS_Map_ada5106531cf4aeba67b2c2194a78cd3",
        "type": "ACTION_SEQUENCE",
        "params": [{
            "datatype": "collection",
            "name": "eventobject"
        }, {
            "datatype": "string",
            "name": "location"
        }],
        "contextObj": {
            "name": "frmLocatorKA",
            "type": "forms",
            "platform": "",
            "KUID": "c471585baa904bb49278190a4437d425"
        },
        "language": "js",
        "actions": [{
            "id": "ADD_SNIPPET__ab69453a7b3546999768b4c25e993f6e",
            "type": "ADD_SNIPPET",
            "codeSnippet": "showMapCallout();",
            "parentId": null,
            "callbackType": null
        }]
    }
}