{
    "AS_Segment_cbea53edfa04491f8de259e5feb528ea": {
        "id": "AS_Segment_cbea53edfa04491f8de259e5feb528ea",
        "type": "ACTION_SEQUENCE",
        "name": "AS_onClickSegManagePayee",
        "params": [{
            "datatype": "collection",
            "name": "eventobject"
        }, {
            "datatype": "number",
            "name": "sectionNumber"
        }, {
            "datatype": "number",
            "name": "rowNumber"
        }],
        "contextObj": {
            "name": "frmManagePayeeKA",
            "type": "forms",
            "platform": "",
            "KUID": "794f84071c7c4320866cf3978ca5357e"
        },
        "language": "js",
        "actions": [{
            "id": "ADD_SNIPPET__b5a07da1db6c4b2ea10fbcbd2910edc5",
            "type": "ADD_SNIPPET",
            "codeSnippet": "kony.boj.deleteFlagPayee = false;\nkony.boj.onManagePayeeClick(frmManagePayeeKA.managepayeesegment.selectedItems[0]);",
            "parentId": null,
            "callbackType": null
        }]
    }
}