{
    "AS_TextField_c1d6821bab1844a2b51b4cd0d9a33d91": {
        "id": "AS_TextField_c1d6821bab1844a2b51b4cd0d9a33d91",
        "type": "ACTION_SEQUENCE",
        "name": "AS_onDoneBankDetailsAddBene",
        "params": [{
            "datatype": "collection",
            "name": "eventobject"
        }, {
            "datatype": "string",
            "name": "changedtext"
        }],
        "language": "js",
        "actions": [{
            "id": "ADD_SNIPPET_ide_onDone_af65c23a359b4ff7974f889c058b2133",
            "type": "ADD_SNIPPET",
            "codeSnippet": "kony.boj.addBeneficiaryAnimation(\"lblEmail\");",
            "callbackType": null
        }]
    }
}