{
    "AS_TextField_bd1a1df65be5427d9e44909204c14021": {
        "id": "AS_TextField_bd1a1df65be5427d9e44909204c14021",
        "type": "ACTION_SEQUENCE",
        "name": "AS_onEmailTouch",
        "params": [{
            "datatype": "collection",
            "name": "eventobject"
        }, {
            "datatype": "string",
            "name": "x"
        }, {
            "datatype": "string",
            "name": "y"
        }],
        "contextObj": {
            "name": "frmAddExternalAccountKA",
            "type": "forms",
            "platform": "",
            "KUID": "4943cca5d62d4f0ca6f2e9ab47274db5"
        },
        "language": "js",
        "actions": [{
            "id": "ADD_SNIPPET__j5c5f037356e4d6b904a41d8601e2d9a",
            "type": "ADD_SNIPPET",
            "codeSnippet": "kony.boj.addBeneficiaryAnimation(\"lblEmail\");\nfrmAddExternalAccountKA.flxUnderlineEmail.skin = \"sknFlxBlueLine\";",
            "parentId": null,
            "callbackType": null
        }]
    }
}