{
    "AS_TextField_gce130666ae24bdab90df8a9c3ec0200": {
        "id": "AS_TextField_gce130666ae24bdab90df8a9c3ec0200",
        "type": "ACTION_SEQUENCE",
        "name": "AS_onDoneAccountNumber",
        "params": [{
            "datatype": "collection",
            "name": "eventobject"
        }, {
            "datatype": "string",
            "name": "changedtext"
        }],
        "language": "js",
        "actions": [{
            "id": "ADD_SNIPPET_ide_onDone_f6da8b8353c64e32b703d83e8e0a5d13",
            "type": "ADD_SNIPPET",
            "codeSnippet": "kony.boj.addBeneficiaryAnimation(\"lblAddress1\");",
            "callbackType": null
        }]
    }
}