{
    "AS_Form_ef397d6d9bb6443cb3b48cc70926e84b": {
        "id": "AS_Form_ef397d6d9bb6443cb3b48cc70926e84b",
        "type": "ACTION_SEQUENCE",
        "name": "AS_onclickDeviceBackofOrderCheeckBook",
        "params": [{
            "datatype": "collection",
            "name": "eventobject"
        }],
        "contextObj": {
            "name": "frmOrderCheckBook",
            "type": "forms",
            "platform": null,
            "KUID": "a9c3490cbfe84fc2a395a9c7f12fb355"
        },
        "language": "js",
        "actions": [{
            "id": "ADD_SNIPPET__fdab98ab321e4416bcb13effd4b34b23",
            "type": "ADD_SNIPPET",
            "codeSnippet": "//frmAccountDetailKA.show();\n\n //gblsubaccBranchList =false;\n//frmAccountInfoKA.show();",
            "parentId": null
        }]
    }
}