{
    "AS_TextField_a4791ca534d5476d8725309f588bcff1": {
        "id": "AS_TextField_a4791ca534d5476d8725309f588bcff1",
        "type": "ACTION_SEQUENCE",
        "name": "AS_onTextChangeBillerNumberAddBiller",
        "params": [{
            "datatype": "collection",
            "name": "eventobject"
        }, {
            "datatype": "string",
            "name": "changedtext"
        }],
        "contextObj": {
            "name": "frmAddNewPayeeKA",
            "type": "forms",
            "platform": "",
            "KUID": "22b994296d374ff48427012b2b05feb7"
        },
        "language": "js",
        "actions": [{
            "id": "ADD_SNIPPET__a1f5e8ab37a7410392a8e6c3ca4c2e44",
            "type": "ADD_SNIPPET",
            "codeSnippet": "kony.boj.storeDetailsAddBiller(\"BillerNumber\", frmAddNewPayeeKA.tbxBillerNumber.text);\nif(kony.boj.isNextEnabledBiller())\n  frmAddNewPayeeKA.lblNext.skin = \"sknLblNextEnabled\";\nelse\n  frmAddNewPayeeKA.lblNext.skin = \"sknLblNextDisabled\";",
            "parentId": null,
            "callbackType": null
        }]
    }
}