{
    "AS_FlexContainer_b7bdbafdffb441bbba0a434b709527db": {
        "id": "AS_FlexContainer_b7bdbafdffb441bbba0a434b709527db",
        "type": "ACTION_SEQUENCE",
        "name": "AS_OnclickBackofAddNickname",
        "params": [{
            "datatype": "collection",
            "name": "eventobject"
        }],
        "contextObj": {
            "name": "frmCardsAddNickname",
            "type": "forms",
            "platform": null,
            "KUID": "d382c627ba0b45cfb446cc6dd8d8759e"
        },
        "language": "js",
        "actions": [{
            "id": "ADD_SNIPPET_ide_onClick_a0691e09f893402baa766ef42fe85f52",
            "type": "ADD_SNIPPET",
            "codeSnippet": "frmCardsListPreferences.show();",
            "callbackType": null
        }]
    }
}