{
    "AS_Form_fe2fdd9c0fc1424d9b41f0a4fa3f1942": {
        "id": "AS_Form_fe2fdd9c0fc1424d9b41f0a4fa3f1942",
        "type": "ACTION_SEQUENCE",
        "name": "AS_onClickDeviceBackofNewSubAccLanding",
        "params": [{
            "datatype": "collection",
            "name": "eventobject"
        }],
        "contextObj": {
            "name": "frmNewSubAccountLandingNew",
            "type": "forms",
            "platform": "",
            "KUID": "i277bc3c8d71465085f48b35ef80c31b"
        },
        "language": "js",
        "actions": [{
            "id": "ADD_SNIPPET__g53dba9632824e65b497e1ae619bac12",
            "type": "ADD_SNIPPET",
            "codeSnippet": "frmSettingsKA.show();",
            "parentId": null,
            "callbackType": null
        }]
    }
}