{
    "AS_FlexContainer_eb3dd40af05f4cf4b990ea19f4782bf2": {
        "id": "AS_FlexContainer_eb3dd40af05f4cf4b990ea19f4782bf2",
        "type": "ACTION_SEQUENCE",
        "name": "AS_onClickChangeUN",
        "params": [{
            "datatype": "collection",
            "name": "eventobject"
        }],
        "contextObj": {
            "name": "frmSettingsKA",
            "type": "forms",
            "platform": "",
            "KUID": "hb0fb66c0c224ed284a1334d78669bfa"
        },
        "language": "js",
        "actions": [{
            "id": "ADD_SNIPPET__e7a9800faf134af0b87dadd38b4f57d7",
            "type": "ADD_SNIPPET",
            "codeSnippet": "gblFromModule = \"ChangeUsername\";\ngblToOTPFrom = \"ChangeUsername\";\nShowLoadingScreen();\ninitialiseAndCallEnroll();",
            "parentId": null,
            "callbackType": null
        }]
    }
}