{
    "AS_FlexContainer_e93870c260c34328afae851ddbef8b56": {
        "id": "AS_FlexContainer_e93870c260c34328afae851ddbef8b56",
        "type": "ACTION_SEQUENCE",
        "name": "AS_onclickBackOfNewOrderCheckBook",
        "params": [{
            "datatype": "collection",
            "name": "eventobject"
        }],
        "language": "js",
        "actions": [{
            "id": "ADD_SNIPPET_ide_onClick_ff84c623dc2842968616838977eb5a24",
            "type": "ADD_SNIPPET",
            "codeSnippet": "//frmAccountDetailKA.show();\n\n //gblsubaccBranchList =false;\n//frmAccountInfoKA.show();",
            "callbackType": null
        }]
    }
}