{
    "AS_TextField_b33da6e7d5a548c29cd9a4f98442301b": {
        "id": "AS_TextField_b33da6e7d5a548c29cd9a4f98442301b",
        "type": "ACTION_SEQUENCE",
        "name": "AS_onDoneAddress2",
        "params": [{
            "datatype": "collection",
            "name": "eventobject"
        }, {
            "datatype": "string",
            "name": "changedtext"
        }],
        "contextObj": {
            "name": "frmAddExternalAccountKA",
            "type": "forms",
            "platform": "",
            "KUID": "4943cca5d62d4f0ca6f2e9ab47274db5"
        },
        "language": "js",
        "actions": [{
            "id": "ADD_SNIPPET_ide_onDone_b729de7309bd46b2ab9cc2936ade4a79",
            "type": "ADD_SNIPPET",
            "codeSnippet": "kony.boj.addBeneficiaryAnimation(\"lblSwiftCode\");",
            "callbackType": null
        }]
    }
}