{
    "AS_FlexContainer_c12b53f391f84ea7b80a649f74fe508b": {
        "id": "AS_FlexContainer_c12b53f391f84ea7b80a649f74fe508b",
        "type": "ACTION_SEQUENCE",
        "name": "AS_onclicknextofRequestPinCard",
        "params": [{
            "datatype": "collection",
            "name": "eventobject"
        }],
        "language": "js",
        "actions": [{
            "id": "ADD_SNIPPET_ide_onClick_j29973c6a97c4ecc86aadee773665259",
            "type": "ADD_SNIPPET",
            "codeSnippet": "kony.print(\"NextPin\")",
            "callbackType": null
        }]
    }
}