{
    "AS_TextField_f9e4b56de84c4e7586a4d5807b103085": {
        "id": "AS_TextField_f9e4b56de84c4e7586a4d5807b103085",
        "type": "ACTION_SEQUENCE",
        "name": "AS_onEndEditingBillerIDAddBillerAndroid",
        "params": [{
            "datatype": "collection",
            "name": "eventobject"
        }, {
            "datatype": "string",
            "name": "changedtext"
        }],
        "contextObj": {
            "name": "frmAddNewPayeeKA",
            "type": "forms",
            "platform": "",
            "KUID": "22b994296d374ff48427012b2b05feb7"
        },
        "language": "js",
        "actions": [{
            "id": "ADD_SNIPPET__g65f5269ba0e4af3945597252e1e424a",
            "type": "ADD_SNIPPET",
            "codeSnippet": "animateLabel(\"DOWN\", \"lblBillerID\",frmAddNewPayeeKA.tbxBillerID.text);",
            "parentId": null,
            "callbackType": null
        }]
    }
}