{
    "AS_FlexContainer_de92d10f0144468cb8be4e4793a762ae": {
        "id": "AS_FlexContainer_de92d10f0144468cb8be4e4793a762ae",
        "type": "ACTION_SEQUENCE",
        "name": "AS_onCountrySelectAddBene",
        "params": [{
            "datatype": "collection",
            "name": "eventobject"
        }],
        "contextObj": {
            "name": "frmAddExternalAccountKA",
            "type": "forms",
            "platform": "",
            "KUID": "4943cca5d62d4f0ca6f2e9ab47274db5"
        },
        "language": "js",
        "actions": [{
            "id": "ADD_SNIPPET__ee80068ce38741d3a947a02e9271b29f",
            "type": "ADD_SNIPPET",
            "codeSnippet": "kony.boj.showSelectedDetailsFromBene(\"Country\", \"lblCountryNameKA\", \"\");\n",
            "parentId": null,
            "callbackType": null
        }]
    }
}