{
    "AS_RadioButtonGroup_d162f66522bc40fc94856f564034ed86": {
        "id": "AS_RadioButtonGroup_d162f66522bc40fc94856f564034ed86",
        "type": "ACTION_SEQUENCE",
        "params": [{
            "datatype": "collection",
            "name": "eventobject"
        }],
        "language": "js",
        "actions": [{
            "id": "ADD_SNIPPET_ide_onSelection_cfe538169f614049881e3627af41f96c",
            "type": "ADD_SNIPPET",
            "codeSnippet": "onChangingradioBtnNewBillKA();",
            "callbackType": null
        }]
    }
}