{
    "AS_RadioButtonGroup_8fa4a5c1b848481bb87f624abc1ad067": {
        "id": "AS_RadioButtonGroup_8fa4a5c1b848481bb87f624abc1ad067",
        "type": "ACTION_SEQUENCE",
        "params": [{
            "datatype": "collection",
            "name": "eventobject"
        }],
        "contextObj": {
            "name": "frmDirectionsKA",
            "type": "forms",
            "platform": null,
            "KUID": "2a844aaae75b49948039c6e28c65dfcc"
        },
        "language": "js",
        "actions": [{
            "id": "INVOKE_FUNCTION__ide_onSelection_f4ded6df79e84ddb99f93ee25f20577f",
            "type": "INVOKE_FUNCTION",
            "sequenceKUID": "onLocatorSegmentedControllerSelected",
            "display": "onLocatorSegmentedControllerSelected",
            "inputparams": [],
            "callbackType": null
        }]
    }
}