{
    "AS_Segment_821842b07a5e44dabfdd44acbe3ef00e": {
        "id": "AS_Segment_821842b07a5e44dabfdd44acbe3ef00e",
        "type": "ACTION_SEQUENCE",
        "params": [{
            "datatype": "collection",
            "name": "eventobject"
        }, {
            "datatype": "number",
            "name": "sectionNumber"
        }, {
            "datatype": "number",
            "name": "rowNumber"
        }],
        "language": "js",
        "actions": [{
            "id": "ADD_SNIPPET_ide_onRowClick_3404b94ded1e479da382372151c443c5",
            "type": "ADD_SNIPPET",
            "codeSnippet": "var selRecord  = frmSearchResultsKA.segSearchResultsSevenDaysKA.selectedItems[0];\nnavigateToSearchTransactionDetails(selRecord);",
            "callbackType": null
        }]
    }
}