{
    "AS_Segment_j8aeb48863c64fb88d30c3a1a87ffae8": {
        "id": "AS_Segment_j8aeb48863c64fb88d30c3a1a87ffae8",
        "type": "ACTION_SEQUENCE",
        "params": [{
            "datatype": "collection",
            "name": "eventobject"
        }, {
            "datatype": "number",
            "name": "sectionNumber"
        }, {
            "datatype": "number",
            "name": "rowNumber"
        }],
        "contextObj": {
            "name": "frmBillerListForm",
            "type": "forms",
            "platform": null,
            "KUID": "ea8e3b3429354ea892f6614a6a6c11cd"
        },
        "language": "js",
        "actions": [{
            "id": "ADD_SNIPPET_ide_onRowClick_a24bdf74ac8d49d7aeb9a773ce6404a6",
            "type": "ADD_SNIPPET",
            "codeSnippet": "onClickDenom();\n",
            "callbackType": null
        }]
    }
}