{
    "AS_Segment_c0afed1a74334050a81745f4d38d5e6a": {
        "id": "AS_Segment_c0afed1a74334050a81745f4d38d5e6a",
        "type": "ACTION_SEQUENCE",
        "params": [{
            "datatype": "collection",
            "name": "seguiWidget"
        }, {
            "datatype": "number",
            "name": "sectionIndex"
        }, {
            "datatype": "number",
            "name": "rowIndex"
        }],
        "language": "js",
        "actions": [{
            "id": "ADD_SNIPPET_ide_onSwipe_gd62b2dee4644bb0ab557d688e06e398",
            "type": "ADD_SNIPPET",
            "codeSnippet": "//var index = frmManageCardsKAbottom.segCardsKA.selectedRowIndex;\nchangeCardsLableStatus(cardsList[rowIndex].cardStatus);\nselectedCardIndex = rowIndex;",
            "callbackType": null
        }]
    }
}