{
    "AS_Segment_f020107dd1a64a56ac49837480abd476": {
        "id": "AS_Segment_f020107dd1a64a56ac49837480abd476",
        "type": "ACTION_SEQUENCE",
        "params": [{
            "datatype": "collection",
            "name": "eventobject"
        }, {
            "datatype": "number",
            "name": "sectionNumber"
        }, {
            "datatype": "number",
            "name": "rowNumber"
        }],
        "contextObj": {
            "name": "frmNUOSelectAProductKA",
            "type": "forms",
            "platform": "",
            "KUID": "a7e7b33553484e9c83559a91d27212e3"
        },
        "language": "js",
        "actions": [{
            "id": "ADD_SNIPPET__cd7576247b854fe4b0afc574c4ec41b0",
            "type": "ADD_SNIPPET",
            "codeSnippet": "kony.print(\"deleted\");",
            "parentId": null,
            "callbackType": null
        }]
    }
}