{
    "AS_Segment_11f0471a726940429cd3709cb41d6a77": {
        "id": "AS_Segment_11f0471a726940429cd3709cb41d6a77",
        "type": "ACTION_SEQUENCE",
        "params": [{
            "datatype": "collection",
            "name": "eventobject"
        }, {
            "datatype": "number",
            "name": "sectionNumber"
        }, {
            "datatype": "number",
            "name": "rowNumber"
        }],
        "contextObj": {
            "name": "frmNewTransferKA",
            "type": "forms",
            "platform": "",
            "KUID": "2ac343500306428da0ceef91a3b44d18"
        },
        "language": "js",
        "actions": [{
            "id": "ADD_SNIPPET__b676dab22b3246d583c6f2df8e34bdcc",
            "type": "ADD_SNIPPET",
            "codeSnippet": "//Need Bank Name For External Account\nfrmNewTransferKA.lblToAccountBankNameKA.text= \"\";\nonclicksegment(\"to\");\nselectAccountCard(frmNewTransferKA, \"to\", 1);\nsetExtrenalToAccountTransfer(\"frmNewTransferKA\");",
            "parentId": null,
            "callbackType": null
        }]
    }
}