{
    "AS_Segment_06ad012068f1448cbecaabb7aeb5e130": {
        "id": "AS_Segment_06ad012068f1448cbecaabb7aeb5e130",
        "type": "ACTION_SEQUENCE",
        "params": [{
            "datatype": "collection",
            "name": "eventobject"
        }, {
            "datatype": "number",
            "name": "sectionNumber"
        }, {
            "datatype": "number",
            "name": "rowNumber"
        }],
        "language": "js",
        "actions": [{
            "id": "ADD_SNIPPET_ide_onRowClick_44f4b99391a240c7937cc8a02ab9a4fb",
            "type": "ADD_SNIPPET",
            "codeSnippet": "kony.print(\"Deleted\");",
            "callbackType": null
        }]
    }
}