{
    "AS_Segment_e1193f2d4b75464fb16533509fec4bbc": {
        "id": "AS_Segment_e1193f2d4b75464fb16533509fec4bbc",
        "type": "ACTION_SEQUENCE",
        "params": [{
            "datatype": "collection",
            "name": "eventobject"
        }, {
            "datatype": "number",
            "name": "sectionNumber"
        }, {
            "datatype": "number",
            "name": "rowNumber"
        }],
        "contextObj": {
            "name": "frmTransferMoneyToKA",
            "type": "forms",
            "platform": null,
            "KUID": "f1620f6e035b43a797bd646b22cf30e3"
        },
        "language": "js",
        "actions": [{
            "id": "ADD_SNIPPET_ide_onRowClick_e40f2f13208d441aa8b559ac5e164926",
            "type": "ADD_SNIPPET",
            "codeSnippet": "frmBillPayeeDetailsKASegmentOnRowClick();\n\t\t",
            "callbackType": null
        }]
    }
}