{
    "AS_TextField_828c299e1d87466c93ab5647311f8964": {
        "id": "AS_TextField_828c299e1d87466c93ab5647311f8964",
        "type": "ACTION_SEQUENCE",
        "params": [{
            "datatype": "collection",
            "name": "eventobject"
        }, {
            "datatype": "string",
            "name": "changedtext"
        }],
        "contextObj": {
            "name": "frmNewDepositKA",
            "type": "forms",
            "platform": "",
            "KUID": "3ef26f9acd5b475cb1fdad0f87db5781"
        },
        "language": "js",
        "actions": [{
            "id": "ADD_SNIPPET__e395a3c29f4a4a1593a1f1de4fcba113",
            "type": "ADD_SNIPPET",
            "codeSnippet": "onDoneAmountEntered();",
            "parentId": null,
            "callbackType": null
        }]
    }
}