{
    "AS_TextField_a2fe2a1edec549a39437f5b32bc231d2": {
        "id": "AS_TextField_a2fe2a1edec549a39437f5b32bc231d2",
        "type": "ACTION_SEQUENCE",
        "params": [{
            "datatype": "collection",
            "name": "eventobject"
        }, {
            "datatype": "string",
            "name": "changedtext"
        }],
        "language": "js",
        "actions": [{
            "id": "ADD_SNIPPET_ide_onTextChange_d5cc2263b7d844f29c9a01a34125d8a6",
            "type": "ADD_SNIPPET",
            "codeSnippet": "kony.boj.searchPayee(frmManagePayeeKA.tbxSearch.text);",
            "callbackType": null
        }]
    }
}