{
    "AS_TextField_jf26f8e7869840cf8bb7f2c89b793e63": {
        "id": "AS_TextField_jf26f8e7869840cf8bb7f2c89b793e63",
        "type": "ACTION_SEQUENCE",
        "params": [{
            "datatype": "collection",
            "name": "eventobject"
        }, {
            "datatype": "string",
            "name": "changedtext"
        }],
        "language": "js",
        "actions": [{
            "id": "ADD_SNIPPET_ide_onDone_d8455d41fa584447bcf3d926261d86d8",
            "type": "ADD_SNIPPET",
            "codeSnippet": "frmCardlessTransaction.flxBorderAmount.skin=\"skntextFieldDividerGreen\";\nfrmCardlessTransaction.lblHiddenAmount.text=frmCardlessTransaction.txtFieldAmount.text;\nfrmCardlessTransaction.txtFieldAmount.maxTextLength = 20;\nfrmCardlessTransaction.txtFieldAmount.text = formatAmountwithcomma(frmCardlessTransaction.lblHiddenAmount.text,getDecimalNumForCurr(frmCardlessTransaction.lblCurrencyCode.text));",
            "callbackType": null
        }]
    }
}