{
    "AS_TextField_g59610233d7a4562a2bb30b953a7956a": {
        "id": "AS_TextField_g59610233d7a4562a2bb30b953a7956a",
        "type": "ACTION_SEQUENCE",
        "params": [{
            "datatype": "collection",
            "name": "eventobject"
        }, {
            "datatype": "string",
            "name": "x"
        }, {
            "datatype": "string",
            "name": "y"
        }],
        "contextObj": {
            "name": "frmAddNewPrePayeeKA",
            "type": "forms",
            "platform": null,
            "KUID": "a843292d9c674ff7ba10a9b594b7e7e5"
        },
        "language": "js",
        "actions": [{
            "id": "ADD_SNIPPET_ide_onTouchEnd_b3cbdb5f76af47fbb2a0997edae386a2",
            "type": "ADD_SNIPPET",
            "codeSnippet": "animateLabel(\"DOWN\", \"lblBillerNumber\",frmAddNewPayeeKA.tbxBillerNumber.text);\nanimateLabel(\"UP\", \"lblBillerID\",frmAddNewPayeeKA.tbxBillerID.text);\nanimateLabel(\"DOWN\", \"lblAddress\",frmAddNewPayeeKA.tbxAddress.text);\nanimateLabel(\"DOWN\", \"lblNickName\",frmAddNewPayeeKA.tbxNickName.text);",
            "callbackType": null
        }]
    }
}