{
    "AS_TextField_j94675ad8b064115b551fd02d7116193": {
        "id": "AS_TextField_j94675ad8b064115b551fd02d7116193",
        "type": "ACTION_SEQUENCE",
        "name": "AS_TextField_passwordCardlessOnEndEditingAndroid",
        "params": [{
            "datatype": "collection",
            "name": "eventobject"
        }, {
            "datatype": "string",
            "name": "changedtext"
        }],
        "language": "js",
        "actions": [{
            "id": "ADD_SNIPPET_ide_onEndEditing_d5d195e7489a4729bfe6fbd181fdb2e8",
            "type": "ADD_SNIPPET",
            "codeSnippet": "animateLabel(\"DOWN\", \"lblPassword\",frmCardlessTransaction.tbxPassword.text);",
            "callbackType": null
        }]
    }
}