{
    "AS_TextField_g92d026c82524f0e920f4378c238e534": {
        "id": "AS_TextField_g92d026c82524f0e920f4378c238e534",
        "type": "ACTION_SEQUENCE",
        "name": "AS_TextField_OnBeginEditingIBANcliqIOS",
        "params": [{
            "datatype": "collection",
            "name": "eventobject"
        }, {
            "datatype": "string",
            "name": "changedtext"
        }],
        "contextObj": {
            "name": "frmEPS",
            "type": "forms",
            "platform": "",
            "KUID": "c49bbb3175be499d86d933cee301b3c4"
        },
        "language": "js",
        "actions": [{
            "id": "ADD_SNIPPET__af37ac9c7bde4a6a8891ac5de2cc83fd",
            "type": "ADD_SNIPPET",
            "codeSnippet": "animateLabel(\"UP\",\"lblIBANAlias\",frmEPS.txtIBANAlias.text);",
            "parentId": null,
            "callbackType": null
        }]
    }
}