{
    "AS_TextField_8697eb0b04304d4a8d3b42ad52ff3472": {
        "id": "AS_TextField_8697eb0b04304d4a8d3b42ad52ff3472",
        "type": "ACTION_SEQUENCE",
        "params": [{
            "datatype": "collection",
            "name": "eventobject"
        }, {
            "datatype": "string",
            "name": "changedtext"
        }],
        "language": "js",
        "actions": [{
            "id": "ADD_SNIPPET_ide_onDone_a1ea8ab72bea4e9ea40342dde86fee52",
            "type": "ADD_SNIPPET",
            "codeSnippet": "userEnteredSearchTerm();",
            "callbackType": null
        }]
    }
}