{
    "AS_TextField_da389a58176d4bdc8162b87bf2bbd137": {
        "id": "AS_TextField_da389a58176d4bdc8162b87bf2bbd137",
        "type": "ACTION_SEQUENCE",
        "params": [{
            "datatype": "collection",
            "name": "eventobject"
        }, {
            "datatype": "string",
            "name": "changedtext"
        }],
        "contextObj": {
            "name": "frmNewPayPersonKA",
            "type": "forms",
            "platform": "",
            "KUID": "1df7248b622b405fb1a73c4deef77bd8"
        },
        "language": "js",
        "actions": [{
            "id": "ADD_SNIPPET__56795d5c4b344b859fa63497424199e0",
            "type": "ADD_SNIPPET",
            "codeSnippet": "CanEnableSelPayeeBtn();",
            "parentId": null,
            "callbackType": null
        }]
    }
}