{
    "AS_TextField_jf64c673d56c46cc96567dd2c966fd7d": {
        "id": "AS_TextField_jf64c673d56c46cc96567dd2c966fd7d",
        "type": "ACTION_SEQUENCE",
        "name": "AS_TextField_jonEndEditAmtIp",
        "params": [{
            "datatype": "collection",
            "name": "eventobject"
        }, {
            "datatype": "string",
            "name": "changedtext"
        }],
        "contextObj": {
            "name": "frmNewTransferKA",
            "type": "forms",
            "platform": "",
            "KUID": "2ac343500306428da0ceef91a3b44d18"
        },
        "language": "js",
        "actions": [{
            "id": "ADD_SNIPPET__gf6b456159644ecca43ad8f2e7d70051",
            "type": "ADD_SNIPPET",
            "codeSnippet": "var amount = frmNewTransferKA.txtBox.text;\nif (amount === null || amount === \"\" || amount == \".\" || amount === 0.00) {\n  frmNewTransferKA.flxInvalidAmountField.setVisibility(true);\n  frmNewTransferKA.lblLine3.skin = \"sknFlxOrangeLine\";\n  frmNewTransferKA.lblNext.skin = sknLblNextDisabled;\n  frmNewTransferKA.lblNext.setEnabled(false);\n}\nelse{\n  frmNewTransferKA.txtBox.maxTextLength = 20;\n  frmNewTransferKA.txtBox.text=formatAmountwithcomma(frmNewTransferKA.lblHiddenAmount.text,getDecimalNumForCurr(frmNewTransferKA.lblFromAccCurr.text));\n}\ngetCommisionFee();\n",
            "parentId": null,
            "callbackType": null
        }]
    }
}