{
    "AS_TextField_a4e3f6711dd54af19d38906e17f82bb9": {
        "id": "AS_TextField_a4e3f6711dd54af19d38906e17f82bb9",
        "type": "ACTION_SEQUENCE",
        "params": [{
            "datatype": "collection",
            "name": "eventobject"
        }, {
            "datatype": "string",
            "name": "changedtext"
        }],
        "contextObj": {
            "name": "frmNewDepositKA",
            "type": "forms",
            "platform": "",
            "KUID": "3ef26f9acd5b475cb1fdad0f87db5781"
        },
        "language": "js",
        "actions": [{
            "id": "ADD_SNIPPET__6b556ce2f17e4622b4929bcdd68d0145",
            "type": "ADD_SNIPPET",
            "codeSnippet": "onDoneAmountEntered();",
            "parentId": null,
            "callbackType": null
        }]
    }
}