{
    "AS_TextField_fd00bfa60e764506992db2214c1f71e1": {
        "id": "AS_TextField_fd00bfa60e764506992db2214c1f71e1",
        "type": "ACTION_SEQUENCE",
        "params": [{
            "datatype": "collection",
            "name": "eventobject"
        }, {
            "datatype": "string",
            "name": "changedtext"
        }],
        "language": "js",
        "actions": [{
            "id": "ADD_SNIPPET_ide_onTextChange_e654dacd8f524dfba824b9bf89a10083",
            "type": "ADD_SNIPPET",
            "codeSnippet": "try{\n  if(frmEstatementLandingKA.lblEmail1 !== \"15%\")\n    animateLabel(\"UP\",\"lblEmail1\",frmEstatementLandingKA.txtEmail1.text); \n\n}catch(err){\n  kony.print( \"err:\"+err);\n}",
            "callbackType": null
        }]
    }
}