{
    "AS_TextField_e78e7f5651054c8986f4459fc040e786": {
        "id": "AS_TextField_e78e7f5651054c8986f4459fc040e786",
        "type": "ACTION_SEQUENCE",
        "params": [{
            "datatype": "collection",
            "name": "eventobject"
        }, {
            "datatype": "string",
            "name": "changedtext"
        }],
        "language": "js",
        "actions": [{
            "id": "ADD_SNIPPET_ide_onTextChange_b11b1b18d06d4eb48dc5b196733edb87",
            "type": "ADD_SNIPPET",
            "codeSnippet": "//kony.boj.storeDetailsAddBiller(\"NickName\", frmAddNewPrePayeeKA.tbxNickName.text); hassan \n/*if(kony.boj.isNextEnabledPreBiller())\n  frmAddNewPrePayeeKA.lblNext.skin = \"sknLblNextEnabled\";\nelse\n  frmAddNewPrePayeeKA.lblNext.skin = \"sknLblNextDisabled\";*/\nkony.print(\"add new prepaid ::\"+frmAddNewPrePayeeKA.tbxNickName.text.match(/\\s/g));\nif(frmAddNewPrePayeeKA.tbxNickName.text.match(/^[\\s]/g) !== null){\n\tfrmAddNewPrePayeeKA.tbxNickName.text = frmAddNewPrePayeeKA.tbxNickName.text.replace(/\\s/g,\"\");\n}\nif (frmAddNewPrePayeeKA.tbxNickName.text === \"\") {\n  frmAddNewPrePayeeKA.flxUnderlineNickName.skin = \"sknFlxOrangeLine\";\n} else {\n  frmAddNewPrePayeeKA.flxUnderlineNickName.skin = \"sknFlxGreenLine\";\n}\nnextFromNewPrepaidBene();",
            "callbackType": null
        }]
    }
}