{
    "AS_TextField_j2dce94c4d9444cc9ae47ab98bc1e43f": {
        "id": "AS_TextField_j2dce94c4d9444cc9ae47ab98bc1e43f",
        "type": "ACTION_SEQUENCE",
        "name": "AS_TextField_passwordCardlessOnEndEditing",
        "params": [{
            "datatype": "collection",
            "name": "eventobject"
        }, {
            "datatype": "string",
            "name": "changedtext"
        }],
        "language": "js",
        "actions": [{
            "id": "ADD_SNIPPET_ide_onEndEditing_ac2d2fde9b9a4cf68a4528956da33731",
            "type": "ADD_SNIPPET",
            "codeSnippet": "animateLabel(\"DOWN\", \"lblPassword\",frmCardlessTransaction.tbxPassword.text);",
            "callbackType": null
        }]
    }
}