{
    "AS_Button_j3cdada32d3e4eacafe1a82af0549c2f": {
        "id": "AS_Button_j3cdada32d3e4eacafe1a82af0549c2f",
        "type": "ACTION_SEQUENCE",
        "name": "asBtnEditMobileNumberProfile",
        "params": [{
            "datatype": "collection",
            "name": "eventobject"
        }],
        "contextObj": {
            "name": "frmUserSettingsMyProfileKA",
            "type": "forms",
            "platform": "",
            "KUID": "469d331305a541b8b65c6d8bdf903828"
        },
        "language": "js",
        "actions": [{
            "id": "ADD_SNIPPET__c8fd7efbaeee4389b8f193dc4ade3033",
            "type": "ADD_SNIPPET",
            "codeSnippet": "gblFromModule = \"UpdateSMSNumber\";\nfrmRegisterUser.show();\n",
            "parentId": null,
            "callbackType": null
        }]
    }
}