{
    "AS_Form_bf14ef6fec4e4876b2fefb84c0b03a37": {
        "id": "AS_Form_bf14ef6fec4e4876b2fefb84c0b03a37",
        "type": "ACTION_SEQUENCE",
        "name": "asDevicebackoffrmFxRate",
        "params": [{
            "datatype": "collection",
            "name": "eventobject"
        }],
        "contextObj": {
            "name": "frmFxRate",
            "type": "forms",
            "platform": null,
            "KUID": "hecd02a154084a89904bda155d565470"
        },
        "language": "js",
        "actions": [{
            "id": "ADD_SNIPPET__a57d0de03a3c40269f4e36d22be942ef",
            "type": "ADD_SNIPPET",
            "codeSnippet": "gblCalculateFXLeft = false;\ngblCalculateFXRight = false;\ngblExchangeRatesFlag = false;\nfrmMore.show();",
            "parentId": null
        }]
    }
}