{
    "AS_Button_j80a0dc1aca940e2a7ed951e287093ec": {
        "id": "AS_Button_j80a0dc1aca940e2a7ed951e287093ec",
        "type": "ACTION_SEQUENCE",
        "name": "backfromInfoiPhone",
        "params": [{
            "datatype": "collection",
            "name": "eventobject"
        }],
        "contextObj": {
            "name": "frmInformationKA",
            "type": "forms",
            "platform": null,
            "KUID": "f18169832ba24ba09c8780278abfc207"
        },
        "language": "js",
        "actions": [{
            "id": "ADD_SNIPPET_ide_onClick_c44f13f316fd4079a487637fe35ee539",
            "type": "ADD_SNIPPET",
            "codeSnippet": "if(isLoggedIn){\n  frmMore.show();  \n}else{\n  frmLoginKA.show();\n}\n//kony.application.getPreviousForm().show();",
            "callbackType": null
        }]
    }
}