{
    "AS_Label_i73926b10f1c4a2d85420208ccba54e0": {
        "id": "AS_Label_i73926b10f1c4a2d85420208ccba54e0",
        "type": "ACTION_SEQUENCE",
        "name": "BackFromAccDetails",
        "params": [{
            "datatype": "collection",
            "name": "eventobject"
        }, {
            "datatype": "string",
            "name": "x"
        }, {
            "datatype": "string",
            "name": "y"
        }],
        "contextObj": {
            "name": "frmAccountDetailsScreen",
            "type": "forms",
            "platform": "",
            "KUID": "fed0ec30912249989a34e309123440c9"
        },
        "language": "js",
        "actions": [{
            "id": "ADD_SNIPPET__f5bb9b858978480db9718cff4e7deff9",
            "type": "ADD_SNIPPET",
            "codeSnippet": "backFromAccDetails()",
            "parentId": null,
            "callbackType": null
        }]
    }
}