{
    "AS_TextField_j8f53be97bf04fdcbd55901c41740ccb": {
        "id": "AS_TextField_j8f53be97bf04fdcbd55901c41740ccb",
        "type": "ACTION_SEQUENCE",
        "name": "begineditingAndiodOfPwd",
        "params": [{
            "datatype": "collection",
            "name": "eventobject"
        }, {
            "datatype": "string",
            "name": "changedtext"
        }],
        "contextObj": {
            "name": "frmLoginKA",
            "type": "forms",
            "platform": "",
            "KUID": "7b1aa8fceb6b4070833e9eab879b0e5e"
        },
        "language": "js",
        "actions": [{
            "id": "ADD_SNIPPET__b30a4a26ca934f1f8d2b64eb2e6e3402",
            "type": "ADD_SNIPPET",
            "codeSnippet": "try{\n  frmLoginKA.flxbdrpwd.skin=\"skntextFieldDividerBlue\";\n}catch(err){\n  kony.print( \"err in pwd::\"+err);\n}",
            "parentId": null
        }]
    }
}