{
    "AS_Button_53decc07f347491c93521520794d177c": {
        "id": "AS_Button_53decc07f347491c93521520794d177c",
        "type": "ACTION_SEQUENCE",
        "name": "btn4_frmLoginKA",
        "params": [{
            "datatype": "collection",
            "name": "eventobject"
        }],
        "contextObj": {
            "name": "frmLoginKA",
            "type": "forms",
            "platform": "",
            "KUID": "7b1aa8fceb6b4070833e9eab879b0e5e"
        },
        "language": "js",
        "actions": [{
            "id": "ADD_SNIPPET__824a1920b5b846e69567bc9bcf7dbd2e",
            "type": "ADD_SNIPPET",
            "codeSnippet": "check_Login_Pin(4);",
            "parentId": null,
            "callbackType": null
        }]
    }
}