{
    "AS_Button_e0e8753db08148c695e998aee1f07bb8": {
        "id": "AS_Button_e0e8753db08148c695e998aee1f07bb8",
        "type": "ACTION_SEQUENCE",
        "name": "btn5_frmPinLoginSuccessKA",
        "params": [{
            "datatype": "collection",
            "name": "eventobject"
        }],
        "contextObj": {
            "name": "frmPINLoginSettingsKA",
            "type": "forms",
            "platform": "",
            "KUID": "4dc207cd9ba542e880a7fee434e24ecb"
        },
        "language": "js",
        "actions": [{
            "id": "ADD_SNIPPET__9cac3c440e784d8e8c9fc3b01cce2eac",
            "type": "ADD_SNIPPET",
            "codeSnippet": "check_updated(5);",
            "parentId": null,
            "callbackType": null
        }]
    }
}