{
    "AS_Button_28dbaec57daf4f039d5ba389e3784d0a": {
        "id": "AS_Button_28dbaec57daf4f039d5ba389e3784d0a",
        "type": "ACTION_SEQUENCE",
        "name": "btnBackSettingsTouchId",
        "params": [{
            "datatype": "collection",
            "name": "eventobject"
        }],
        "language": "js",
        "actions": [{
            "id": "ADD_SNIPPET__h891d99cc5744234bc60192b3498b36a",
            "type": "ADD_SNIPPET",
            "codeSnippet": "kony.print(\"diffFlowFlag :: \"+ diffFlowFlag);\nif(diffFlowFlag == \"LOGINFLOW\"){\nfrmAuthorizationAlternatives.show();\n}else{\nfrmSettingsKA.show();\n}",
            "parentId": null,
            "callbackType": null
        }]
    }
}