{
    "AS_Button_e37f48203e78436c909c93b531a88c8c": {
        "id": "AS_Button_e37f48203e78436c909c93b531a88c8c",
        "type": "ACTION_SEQUENCE",
        "name": "btnEditScheduleTransactionClick",
        "params": [{
            "datatype": "collection",
            "name": "eventobject"
        }],
        "language": "js",
        "actions": [{
            "id": "ADD_SNIPPET_ide_onClick_cdd97e015a284376adc81915477b1d3a",
            "type": "ADD_SNIPPET",
            "codeSnippet": "scheduleEditOnClick();",
            "callbackType": null
        }]
    }
}