{
    "AS_TextField_e641eff7c5b64c5c9de88a49e397e698": {
        "id": "AS_TextField_e641eff7c5b64c5c9de88a49e397e698",
        "type": "ACTION_SEQUENCE",
        "name": "CopyAS_onTouchEndFullNameAddBene",
        "params": [{
            "datatype": "collection",
            "name": "eventobject"
        }, {
            "datatype": "string",
            "name": "x"
        }, {
            "datatype": "string",
            "name": "y"
        }],
        "contextObj": {
            "KUID": "4943cca5d62d4f0ca6f2e9ab47274db5",
            "name": "frmAddExternalAccountKA",
            "platform": "",
            "type": "forms"
        },
        "language": "js",
        "actions": [{
            "id": "ADD_SNIPPET__gfca003eb3df45f9b94cc8e84496e7fc",
            "type": "ADD_SNIPPET",
            "codeSnippet": "// kony.boj.addBeneficiaryAnimation(\"lblBenficiryNameKA\");\n// frmAddExternalAccountKA.flxUnderlineBenficiryNameKA.skin = \"sknFlxBlueLine\";\nanimateLabel(\"UP\", \"lblIBAN\",frmEPS.lblIBAN.text);\n",
            "parentId": null,
            "callbackType": null
        }]
    }
}