{
    "AS_Form_cb4e502943ee4513a459e6b223b2f880": {
        "id": "AS_Form_cb4e502943ee4513a459e6b223b2f880",
        "type": "ACTION_SEQUENCE",
        "name": "disablingbackbuttonjomopay",
        "params": [{
            "datatype": "collection",
            "name": "eventobject"
        }],
        "contextObj": {
            "name": "frmJomopayContacts",
            "type": "forms",
            "platform": "",
            "KUID": "e87eb38e1ea54c6586c26f1aee3e02d4"
        },
        "language": "js",
        "actions": [{
            "id": "ADD_SNIPPET__c0bee3aed50946cc9a644c3a51fc5e7a",
            "type": "ADD_SNIPPET",
            "codeSnippet": "frmJoMoPay.show();",
            "parentId": null,
            "callbackType": null
        }]
    }
}