{
    "AS_Form_46436bbe18f84abe9f63a73e3230bcb7": {
        "id": "AS_Form_46436bbe18f84abe9f63a73e3230bcb7",
        "type": "ACTION_SEQUENCE",
        "name": "frmAccountDetailKAedeviceback",
        "params": [{
            "datatype": "collection",
            "name": "eventobject"
        }],
        "contextObj": {
            "name": "frmAccountDetailKA",
            "type": "forms",
            "platform": "",
            "KUID": "5ed703cad63c441882fc4a36f5ea0c28"
        },
        "language": "js",
        "actions": [{
            "id": "ADD_SNIPPET__03e4499cd5724527aafc371ece69ab17",
            "type": "ADD_SNIPPET",
            "codeSnippet": "frmAccountsLandingKA.flxAccountsMain.setVisibility(true);\nfrmAccountsLandingKA.flxDeals.setVisibility(false);\nfrmAccountsLandingKA.flxLoans.setVisibility(false);\nfrmAccountsLandingKA.forceLayout();\nkony.retailBanking.globalData.globals.accountDashboardFlowFlag = false;\nif(frmAccountDetailKA.flxAccountdetailsSortContainer.top != \"100%\"){\n\tanimatePopup_Sort();\n}\nfrmAccountDetailKA.imgSortDateAsc.src = \"map_arrow_straight_nonselected.png\";\nfrmAccountDetailKA.imgSortDateDesc.src = \"map_arrow_down_nonselected.png\";\nfrmAccountDetailKA.imgSortAmountAsc.src = \"map_arrow_straight_nonselected.png\";\nfrmAccountDetailKA.imgSortAmountDesc.src = \"map_arrow_down_nonselected.png\";\naccountDashboardDataCall();\nkony.print(\"Nav transaction to Dadhboard:::\");",
            "parentId": null,
            "callbackType": null
        }]
    }
}