{
    "AS_Form_d38739d3139b488c82f7da5fa2db9efd": {
        "id": "AS_Form_d38739d3139b488c82f7da5fa2db9efd",
        "type": "ACTION_SEQUENCE",
        "name": "frmFrequencyListPreshow",
        "params": [{
            "datatype": "collection",
            "name": "eventobject"
        }],
        "contextObj": {
            "name": "frmFrequencyList",
            "type": "forms",
            "platform": null,
            "KUID": "g0d1e2711c2c41b3b485f9bbdce5d771"
        },
        "language": "js",
        "actions": [{
            "id": "ADD_SNIPPET__i8f7b696b712482d92392343539e7b15",
            "type": "ADD_SNIPPET",
            "codeSnippet": "frequencyListPreshow();",
            "parentId": null,
            "callbackType": null
        }]
    }
}