{
    "AS_Form_dcf7811eb4334e99aca48222cc2f6eb3": {
        "id": "AS_Form_dcf7811eb4334e99aca48222cc2f6eb3",
        "type": "ACTION_SEQUENCE",
        "name": "frmInformationKA_postshow",
        "params": [{
            "datatype": "collection",
            "name": "eventobject"
        }],
        "contextObj": {
            "name": "frmInformationKA",
            "type": "forms",
            "platform": "",
            "KUID": "f18169832ba24ba09c8780278abfc207"
        },
        "language": "js",
        "actions": [{
            "id": "ADD_SNIPPET__b56e082967a34301beda4c0d8d3403ab",
            "type": "ADD_SNIPPET",
            "codeSnippet": "frmInformationKApostshow();",
            "parentId": null,
            "callbackType": null
        }]
    }
}