{
    "AS_Button_ffb791fd498b4342b211b3227e0f9eb1": {
        "id": "AS_Button_ffb791fd498b4342b211b3227e0f9eb1",
        "type": "ACTION_SEQUENCE",
        "name": "gotofrmMessageReplyKA",
        "params": [{
            "datatype": "collection",
            "name": "eventobject"
        }],
        "contextObj": {
            "name": "frmNewMessageKA",
            "type": "forms",
            "platform": null,
            "KUID": "f1f50acb935b44c48aa69538538bfb28"
        },
        "language": "js",
        "actions": [{
            "id": "ADD_SNIPPET__7f3019f4c9884add9fd14366a77bf9b1",
            "type": "ADD_SNIPPET",
            "codeSnippet": "kony.print(\"Deleted\");",
            "parentId": null,
            "callbackType": null
        }]
    }
}