{
    "AS_TextField_jea7df8c20a04520a9d9fd405b2d38a8": {
        "id": "AS_TextField_jea7df8c20a04520a9d9fd405b2d38a8",
        "type": "ACTION_SEQUENCE",
        "name": "jomopaybegineditingoftextphone",
        "params": [{
            "datatype": "collection",
            "name": "eventobject"
        }, {
            "datatype": "string",
            "name": "changedtext"
        }],
        "contextObj": {
            "name": "frmJoMoPay",
            "type": "forms",
            "platform": "",
            "KUID": "d41a38dfc97d4e0a8f3b1db96d6a1ca0"
        },
        "language": "js",
        "actions": [{
            "id": "ADD_SNIPPET__idb19ab696694a08befb796e6fc9c510",
            "type": "ADD_SNIPPET",
            "codeSnippet": "frmJoMoPay.flxBorderBenificiary.skin=\"skntextFieldDividerBlue\";",
            "parentId": null,
            "callbackType": null
        }]
    }
}