{
    "AS_TextField_a1134be04aea41d2bfc20ab6e2183ebe": {
        "id": "AS_TextField_a1134be04aea41d2bfc20ab6e2183ebe",
        "type": "ACTION_SEQUENCE",
        "name": "jomopayonendeditingphonetextiphone",
        "params": [{
            "datatype": "collection",
            "name": "eventobject"
        }, {
            "datatype": "string",
            "name": "changedtext"
        }],
        "contextObj": {
            "name": "frmJoMoPay",
            "type": "forms",
            "platform": "",
            "KUID": "d41a38dfc97d4e0a8f3b1db96d6a1ca0"
        },
        "language": "js",
        "actions": [{
            "id": "ADD_SNIPPET_ide_onEndEditing_d0ef521abe514d8fbc4c67230f128a8f",
            "type": "ADD_SNIPPET",
            "codeSnippet": "animate_NEWCARDSOPTIOS(\"DOWN\",\"lblBeneficiaryStaticText\",frmJoMoPay.txtPhoneNo.text);\nfrmJoMoPay.flxBorderBenificiary.skin=\"skntextFieldDividerGreen\";",
            "callbackType": null
        }]
    }
}