{
    "AS_Button_99012586285d4090870332cef101ce50": {
        "id": "AS_Button_99012586285d4090870332cef101ce50",
        "type": "ACTION_SEQUENCE",
        "name": "loginonclicklocationicon",
        "params": [{
            "datatype": "collection",
            "name": "eventobject"
        }],
        "language": "js",
        "actions": [{
            "id": "ADD_SNIPPET__746cf7214a7c4c5f977b8c180db352bb",
            "type": "ADD_SNIPPET",
            "codeSnippet": " onClickLocateUS(false,\"frmLoginKA\");",
            "parentId": null,
            "callbackType": null
        }]
    }
}