{
    "AS_Button_ha6bc39e6b094af48c63cc551324dfcb": {
        "id": "AS_Button_ha6bc39e6b094af48c63cc551324dfcb",
        "type": "ACTION_SEQUENCE",
        "name": "navigateToContactUs",
        "params": [{
            "datatype": "collection",
            "name": "eventobject"
        }],
        "contextObj": {
            "name": "frmInformationKA",
            "type": "forms",
            "platform": "",
            "KUID": "f18169832ba24ba09c8780278abfc207"
        },
        "language": "js",
        "actions": [{
            "id": "ADD_SNIPPET__eca931c42d8246068bcb34c8d665af59",
            "type": "ADD_SNIPPET",
            "codeSnippet": "frmInformationKA.flxFAQ.setVisibility(true);\nfrmInformationKA.flxFAQSearch.setVisibility(false);\nfrmInformationKA.searchField.text=\"\";\nswitchToContactDetailsTab();\ncloseAll();\nfromForm = \"otp\";\nkony.print(\"appconfig ::\"+JSON.stringify(appConfig));\nvar currentAppVersion = appConfig.appVersion;\nfrmInformationKA.lblVersion.text = \"V \" + currentAppVersion;",
            "parentId": null,
            "callbackType": null
        }]
    }
}