{
    "AS_Button_cc5ee0400e374c95a6ee7161050e2d5e": {
        "id": "AS_Button_cc5ee0400e374c95a6ee7161050e2d5e",
        "type": "ACTION_SEQUENCE",
        "name": "navigatetoFrmpaymentdashboard",
        "params": [{
            "datatype": "collection",
            "name": "eventobject"
        }],
        "contextObj": {
            "name": "frmJoMoPay",
            "type": "forms",
            "platform": "",
            "KUID": "d41a38dfc97d4e0a8f3b1db96d6a1ca0"
        },
        "language": "js",
        "actions": [{
            "id": "ADD_SNIPPET__ac9a360a67eb45a3b7505c3534511ef0",
            "type": "ADD_SNIPPET",
            "codeSnippet": "frmJoMoPayLanding.txtSearch.text=\"\";\nfrmJoMoPayLanding.show();\nfrmJoMoPay.destroy();",
            "parentId": null,
            "callbackType": null
        }]
    }
}