{
    "AS_FlexContainer_e70fdb18e17b4e03b4526a94d1343562": {
        "id": "AS_FlexContainer_e70fdb18e17b4e03b4526a94d1343562",
        "type": "ACTION_SEQUENCE",
        "name": "navtofrmMorefromCards",
        "params": [{
            "datatype": "collection",
            "name": "eventobject"
        }],
        "language": "js",
        "actions": [{
            "id": "ADD_SNIPPET__c2e17196b45c4743ac19f394027b3670",
            "type": "ADD_SNIPPET",
            "codeSnippet": "frmMore.show();",
            "parentId": null,
            "callbackType": null
        }]
    }
}