{
    "AS_TextField_aedadc3617a44f70b3b6192768f3bea8": {
        "id": "AS_TextField_aedadc3617a44f70b3b6192768f3bea8",
        "type": "ACTION_SEQUENCE",
        "name": "NewBillKATextchangeAmnt",
        "params": [{
            "datatype": "collection",
            "name": "eventobject"
        }, {
            "datatype": "string",
            "name": "changedtext"
        }],
        "contextObj": {
            "name": "frmNewBillKA",
            "type": "forms",
            "platform": "",
            "KUID": "94b57de480514c9f98e1f6979b71a37b"
        },
        "language": "js",
        "actions": [{
            "id": "ADD_SNIPPET__fdadec609a144e5596667a40e485c02b",
            "type": "ADD_SNIPPET",
            "codeSnippet": "frmNewBillKA.tbxAmount.text = fixDecimal(frmNewBillKA.tbxAmount.text, \"3\" );\nfrmNewBillKA.lblHiddenAmount.text = frmNewBillKA.tbxAmount.text;\nnextFromNewBillScreen();\nchangeUnderlineskin();",
            "parentId": null,
            "callbackType": null
        }]
    }
}