{
    "AS_FlexContainer_i4a8d5dce2214594bbd5a03d0100e6c9": {
        "id": "AS_FlexContainer_i4a8d5dce2214594bbd5a03d0100e6c9",
        "type": "ACTION_SEQUENCE",
        "name": "onBackFromsAccreorder",
        "params": [{
            "datatype": "collection",
            "name": "eventobject"
        }],
        "contextObj": {
            "name": "frmAccountsReorderKA",
            "type": "forms",
            "platform": "",
            "KUID": "faf034034ee04f5ba0dd968734633b01"
        },
        "language": "js",
        "actions": [{
            "id": "ADD_SNIPPET__f2ded3c56ea04b76839f80e794a07d56",
            "type": "ADD_SNIPPET",
            "codeSnippet": "gblCardReorder = false;\ngblCardAddNickname = false;\nfrmSettingsKA.show();",
            "parentId": null,
            "callbackType": null
        }]
    }
}