{
    "AS_TextField_ibb81040a82c42d08b8f0484f4de7c24": {
        "id": "AS_TextField_ibb81040a82c42d08b8f0484f4de7c24",
        "type": "ACTION_SEQUENCE",
        "name": "onBeginEditingJomopayNameAndroid",
        "params": [{
            "datatype": "collection",
            "name": "eventobject"
        }, {
            "datatype": "string",
            "name": "changedtext"
        }],
        "contextObj": {
            "name": "frmJOMOPayAddBiller",
            "type": "forms",
            "platform": null,
            "KUID": "df7e7935cb6a4e5c8a9dad110f300c3c"
        },
        "language": "js",
        "actions": [{
            "id": "ADD_SNIPPET__g2715053546d4b95833efbd24b6b2cf3",
            "type": "ADD_SNIPPET",
            "codeSnippet": "animate_NEWCARDSOPTIOS(\"UP\", \"lblNameTitle\", frmJOMOPayAddBiller.txtName.text);",
            "parentId": null
        }]
    }
}