{
    "AS_Button_8c79404b03704c189ae9c6c932014173": {
        "id": "AS_Button_8c79404b03704c189ae9c6c932014173",
        "type": "ACTION_SEQUENCE",
        "name": "onclickbtnbasicinfo",
        "params": [{
            "datatype": "collection",
            "name": "eventobject"
        }],
        "language": "js",
        "actions": [{
            "id": "ADD_SNIPPET_ide_onClick_1d48b2b000f944519ead45e73be5416c",
            "type": "ADD_SNIPPET",
            "codeSnippet": "basicInfotabSelected();",
            "callbackType": null
        }]
    }
}