{
    "AS_Button_5924a25173914bee9891c526b61c7095": {
        "id": "AS_Button_5924a25173914bee9891c526b61c7095",
        "type": "ACTION_SEQUENCE",
        "name": "onclickbtncancelbasicinfo",
        "params": [{
            "datatype": "collection",
            "name": "eventobject"
        }],
        "language": "js",
        "actions": [{
            "id": "NAVIGATE_TO_FORM__ide_onClick_34d746ba109d4cb98eab4a2c37da5cbb",
            "type": "NAVIGATE_TO_FORM",
            "formId": "frmLoginKA",
            "formKUID": "7b1aa8fceb6b4070833e9eab879b0e5e",
            "mappings": {},
            "mappingsOrder": [],
            "parentId": "",
            "callbackType": null,
            "enableMappingEditor": true
        }]
    }
}