{
    "AS_FlexContainer_d21c6ccb47a04204823befbf63db9b1e": {
        "id": "AS_FlexContainer_d21c6ccb47a04204823befbf63db9b1e",
        "type": "ACTION_SEQUENCE",
        "name": "onClickToggleDisabledSMSALERT",
        "params": [{
            "datatype": "collection",
            "name": "eventobject"
        }, {
            "datatype": "collection",
            "name": "context"
        }],
        "contextObj": {
            "name": "tmpAccountSMSEnabled",
            "type": "templates",
            "platform": "",
            "KUID": "c4de9b07bcbf4d75b7fb8ea905d7e7d3"
        },
        "language": "js",
        "actions": [{
            "id": "ADD_SNIPPET__icf26ae99088440085eb112da047f6e8",
            "type": "ADD_SNIPPET",
            "codeSnippet": "optAll = false;\nactivateordeactivate_SMSNOTIFICATION(eventobject,context);",
            "parentId": null,
            "callbackType": null
        }]
    }
}