{
    "AS_Button_aff539101b0f496388ef9b750fbe0704": {
        "id": "AS_Button_aff539101b0f496388ef9b750fbe0704",
        "type": "ACTION_SEQUENCE",
        "name": "onclickconfirmbuttonjomopay",
        "params": [{
            "datatype": "collection",
            "name": "eventobject"
        }],
        "contextObj": {
            "name": "frmJoMoPayConfirmation",
            "type": "forms",
            "platform": "",
            "KUID": "d9e9a2bc27fc446d95ef70dfedcdf330"
        },
        "language": "js",
        "actions": [{
            "id": "ADD_SNIPPET__jaefbf7fcb594ed092c54e1d920d2516",
            "type": "ADD_SNIPPET",
            "codeSnippet": "confirmjomopay();",
            "parentId": null,
            "callbackType": null
        }]
    }
}