{
    "AS_FlexContainer_eddecb81c3d84122b1ea0c0a4187da39": {
        "id": "AS_FlexContainer_eddecb81c3d84122b1ea0c0a4187da39",
        "type": "ACTION_SEQUENCE",
        "name": "onClickDisableDailyBalanceAlert",
        "params": [{
            "datatype": "collection",
            "name": "eventobject"
        }],
        "contextObj": {
            "name": "frmAlertsKA",
            "type": "forms",
            "platform": "",
            "KUID": "8f4fb6ef80f34f5f861f12908e1a5309"
        },
        "language": "js",
        "actions": [{
            "id": "ADD_SNIPPET__e8b972e6f49f41c4823018c5846b9b07",
            "type": "ADD_SNIPPET",
            "codeSnippet": "show_optalert(\"dailybalance\",frmAlertsKA.lblDailyBalanceFlag);",
            "parentId": null
        }]
    }
}