{
    "AS_Button_b65be723cbf74d12bc5a68f760b4c102": {
        "id": "AS_Button_b65be723cbf74d12bc5a68f760b4c102",
        "type": "ACTION_SEQUENCE",
        "name": "onclickJomopayRegJP",
        "params": [{
            "datatype": "collection",
            "name": "eventobject"
        }],
        "contextObj": {
            "name": "frmJoMoPayLanding",
            "type": "forms",
            "platform": "",
            "KUID": "d298f6fe5af04a4dbf76c2b5625a9f8c"
        },
        "language": "js",
        "actions": [{
            "id": "ADD_SNIPPET__aa385f119aed494d8b5a64219e1a261b",
            "type": "ADD_SNIPPET",
            "codeSnippet": "resetJomoPayRegistationSaveData();",
            "parentId": null,
            "callbackType": null
        }]
    }
}