{
    "AS_Button_b3c5b14bf22744e89ea309bdc25cbf40": {
        "id": "AS_Button_b3c5b14bf22744e89ea309bdc25cbf40",
        "type": "ACTION_SEQUENCE",
        "name": "onclickpayperson",
        "params": [{
            "datatype": "collection",
            "name": "eventobject"
        }],
        "language": "js",
        "actions": [{
            "id": "ADD_SNIPPET__978f7d79d6654bfeb0647c3103e210fc",
            "type": "ADD_SNIPPET",
            "codeSnippet": "kony.print(\"Removed\");",
            "parentId": null,
            "callbackType": null
        }]
    }
}