{
    "AS_Button_5ed1fe84eaf14c8285872fb57d8141b9": {
        "id": "AS_Button_5ed1fe84eaf14c8285872fb57d8141b9",
        "type": "ACTION_SEQUENCE",
        "name": "onclickacceptcontinueenroll",
        "params": [{
            "datatype": "collection",
            "name": "eventobject"
        }],
        "contextObj": {
            "name": "frmTANDCforEnroll",
            "type": "forms",
            "platform": null,
            "KUID": "4b4204e832a54ea3abf1cbb0a2c48717"
        },
        "language": "js",
        "actions": [{
            "id": "ADD_SNIPPET__23722691cacd4340b9a11690f912e77a",
            "type": "ADD_SNIPPET",
            "codeSnippet": "kony.print(\"REmoved\");",
            "parentId": null,
            "callbackType": null
        }]
    }
}