{
    "AS_FlexContainer_g789ccbfa863445e9de0c2ba654826bb": {
        "id": "AS_FlexContainer_g789ccbfa863445e9de0c2ba654826bb",
        "type": "ACTION_SEQUENCE",
        "name": "onClickFilterTimePeriod",
        "params": [{
            "datatype": "collection",
            "name": "eventobject"
        }],
        "contextObj": {
            "name": "frmFilterTransaction",
            "type": "forms",
            "platform": null,
            "KUID": "ff5ea79e22414b03ba4cca716d18a58c"
        },
        "language": "js",
        "actions": [{
            "id": "ADD_SNIPPET__f711642d108b47bab56d16123f3851c1",
            "type": "ADD_SNIPPET",
            "codeSnippet": "frmFilterTransaction.flxDatePicker.isVisible = true;\nfrmFilterTransaction.flxFilterTransaction.isVisible = false;\nset_DateRange();\nfrmFilterTransaction.lblFilterHeader.text = kony.i18n.getLocalizedString(\"i18n.common.settimeperiod\");",
            "parentId": null,
            "callbackType": null
        }]
    }
}