{
    "AS_FlexContainer_d3b6dca0e8b847618115df872d8ef8cb": {
        "id": "AS_FlexContainer_d3b6dca0e8b847618115df872d8ef8cb",
        "type": "ACTION_SEQUENCE",
        "name": "onClickThisMonth",
        "params": [{
            "datatype": "collection",
            "name": "eventobject"
        }],
        "contextObj": {
            "name": "frmFilterTransaction",
            "type": "forms",
            "platform": "",
            "KUID": "ff5ea79e22414b03ba4cca716d18a58c"
        },
        "language": "js",
        "actions": [{
            "id": "ADD_SNIPPET__b1112de48dc84683a11ec4d52bfd8319",
            "type": "ADD_SNIPPET",
            "codeSnippet": "setTimePeriod(frmFilterTransaction.lblThisMonth,frmFilterTransaction.lblCurrentMonth.text);",
            "parentId": null,
            "callbackType": null
        }]
    }
}