{
    "AS_FlexContainer_f886c30dfe664bcbaec73e5b0b270b12": {
        "id": "AS_FlexContainer_f886c30dfe664bcbaec73e5b0b270b12",
        "type": "ACTION_SEQUENCE",
        "name": "onClickManageCardsATMPOSLimit",
        "params": [{
            "datatype": "collection",
            "name": "eventobject"
        }],
        "language": "js",
        "actions": [{
            "id": "ADD_SNIPPET_ide_onClick_h29a2d91e74f4d758989f19add37d1aa",
            "type": "ADD_SNIPPET",
            "codeSnippet": "navigate_TO_ATMPOSLIMITS();",
            "callbackType": null
        }]
    }
}