{
    "AS_Button_g2072f5db2ef478595e6b416c684512e": {
        "id": "AS_Button_g2072f5db2ef478595e6b416c684512e",
        "type": "ACTION_SEQUENCE",
        "name": "onClickInwardsTransactionStatus",
        "params": [{
            "datatype": "collection",
            "name": "eventobject"
        }],
        "contextObj": {
            "name": "frmTransferStatus",
            "type": "forms",
            "platform": "",
            "KUID": "cb53baea48874043a47d535a2e20ccc3"
        },
        "language": "js",
        "actions": [{
            "id": "ADD_SNIPPET__e1e2f1a6faea4fb197347573ddd763ca",
            "type": "ADD_SNIPPET",
            "codeSnippet": "frmTransferStatus.btnInwards.skin = \"slButtonWhiteTab\";\nfrmTransferStatus.btnOutwards.skin = \"slButtonWhiteTabDisabled\";\nserv_INREMIT_TRANSACTIONSTATUS();",
            "parentId": null,
            "callbackType": null
        }]
    }
}