{
    "AS_TextField_d89cd9d4d9804a29b8b9d35051f88f18": {
        "id": "AS_TextField_d89cd9d4d9804a29b8b9d35051f88f18",
        "type": "ACTION_SEQUENCE",
        "name": "onClickTbxAmount",
        "params": [{
            "datatype": "collection",
            "name": "eventobject"
        }, {
            "datatype": "string",
            "name": "changedtext"
        }],
        "contextObj": {
            "name": "frmNewTransferKA",
            "type": "forms",
            "platform": "",
            "KUID": "2ac343500306428da0ceef91a3b44d18"
        },
        "language": "js",
        "actions": [{
            "id": "ADD_SNIPPET__e30bcd850d2f478ba8c2351c14537891",
            "type": "ADD_SNIPPET",
            "codeSnippet": "//frmNewTransferKA.txtBox.text=formatAmountwithcomma(frmNewTransferKA.txtBox.text,3);\ngblFeesFrom = \"fromAmt\";\nif((frmNewTransferKA.lblFromAccCurr.text !== frmNewTransferKA.lblToAccCurr.text) && !isEmpty(frmNewTransferKA.lblCurrency.text)){\n\tgetCommisionFee();\n}\nvar amount = frmNewTransferKA.txtBox.text;\nif (amount === null || amount === \"\" || amount == \".\" || ((Number(amount) < 0.01) && frmNewTransferKA.lblCurrency.text !== \"JOD\") || ((Number(amount) < 0.001) && frmNewTransferKA.lblCurrency.text === \"JOD\") || amount === 0.00) {\n   frmNewTransferKA.flxInvalidAmountField.setVisibility(true);\n  frmNewTransferKA.lblLine3.skin = \"sknFlxOrangeLine\";\n  \tfrmNewTransferKA.lblNext.skin = sknLblNextDisabled;\n    frmNewTransferKA.lblNext.setEnabled(false);\n  kony.print(\"Amount is either null or empty\");\n} else {\n  frmNewTransferKA.flxInvalidAmountField.setVisibility(false);\n  frmNewTransferKA.lblLine3.skin = \"lblLine0h8b99d8a85f649\";\n  frmNewTransferKA.lblHiddenAmount.text=frmNewTransferKA.txtBox.text;\n  frmNewTransferKA.txtBox.maxTextLength = 20;\n    frmNewTransferKA.txtBox.text = formatAmountwithcomma(amount,getDecimalNumForCurr(frmNewTransferKA.lblFromAccCurr.text));\n}\nvar Text=frmNewTransferKA.txtDesc.text;\nif(frmNewTransferKA.lblFre.text == \"Instant\")\nanimateLabel(\"UP\",\"lblDescription\",Text);\nelse{\n  animateLabel(\"UP\",\"lblNumRecurr\", frmNewTransferKA.txtNumRecurrences.text);\n}\n",
            "parentId": null,
            "callbackType": null
        }]
    }
}