{
    "AS_FlexContainer_e6e65f3f3888459f919c4be864a6c858": {
        "id": "AS_FlexContainer_e6e65f3f3888459f919c4be864a6c858",
        "type": "ACTION_SEQUENCE",
        "name": "onclickbackconfirmcards",
        "params": [{
            "datatype": "collection",
            "name": "eventobject"
        }],
        "language": "js",
        "actions": [{
            "id": "ADD_SNIPPET_ide_onClick_fe3fc6de2f6f42e0bfadfad8dbcbf6b9",
            "type": "ADD_SNIPPET",
            "codeSnippet": "customAlertPopup(geti18Value(\"i18n.cards.Confirmation\"), geti18nkey(\"i18n.common.sureExit\"), popupCommonAlertDimiss, cancelconfirm,geti18nkey(\"i18n.common.NO\"),geti18nkey(\"i18n.common.YES\"));",
            "callbackType": null
        }]
    }
}