{
    "AS_Button_1922d50e915240f5ae9c944bdf451b1e": {
        "id": "AS_Button_1922d50e915240f5ae9c944bdf451b1e",
        "type": "ACTION_SEQUENCE",
        "name": "onclicksubmitforgotpwd",
        "params": [{
            "datatype": "collection",
            "name": "eventobject"
        }],
        "language": "js",
        "actions": [{
            "id": "ADD_SNIPPET__e92201d53a5040ae8cfac77158fe50a7",
            "type": "ADD_SNIPPET",
            "codeSnippet": "kony.print(\"Removed\");",
            "parentId": null,
            "callbackType": null
        }]
    }
}