{
    "AS_Form_be1171dcbb78496280152f99c9b83081": {
        "id": "AS_Form_be1171dcbb78496280152f99c9b83081",
        "type": "ACTION_SEQUENCE",
        "name": "onDeviceBackBulkPaymentAndroid",
        "params": [{
            "datatype": "collection",
            "name": "eventobject"
        }],
        "contextObj": {
            "name": "frmBulkPaymentKA",
            "type": "forms",
            "platform": "",
            "KUID": "a03d9f2c684c4a609513e3446a2ec3e9"
        },
        "language": "js",
        "actions": [{
            "id": "ADD_SNIPPET__c0d6038adf9b4b079497d869b883d238",
            "type": "ADD_SNIPPET",
            "codeSnippet": "//frmManagePayeeKA.show();\nvar INSTANCE = kony.sdk.mvvm.KonyApplicationContext.getAppInstance();\nvar controller = INSTANCE.getFormController(\"frmManagePayeeKA\");\nvar navObject = new kony.sdk.mvvm.NavigationObject();\nnavObject.setRequestOptions(\"managepayeesegment\",{\"headers\":{},\"queryParams\":{\"custId\": custid,\n                                                                              \"P_BENE_TYPE\": \"PRE\",\n                                                                              \"lang\":(kony.store.getItem(\"langPrefObj\")===\"en\")?\"eng\":\"ara\"}});\ncontroller.loadDataAndShowForm(navObject);",
            "parentId": null
        }]
    }
}