{
    "AS_Form_g53cc23ca45343a68b0346061ed6ec57": {
        "id": "AS_Form_g53cc23ca45343a68b0346061ed6ec57",
        "type": "ACTION_SEQUENCE",
        "name": "ondeviceBackRegisterUser",
        "params": [{
            "datatype": "collection",
            "name": "eventobject"
        }],
        "contextObj": {
            "name": "frmRegisterUser",
            "type": "forms",
            "platform": "",
            "KUID": "cd7432ec5087404590338186c94e35d2"
        },
        "language": "js",
        "actions": [{
            "id": "ADD_SNIPPET__a4502bc95bdd466fbce73eef5fb85442",
            "type": "ADD_SNIPPET",
            "codeSnippet": "kony.print(\"gblFromModule::\"+gblFromModule);\nif(gblFromModule == \"RegisterUser\"){\n  frmLoginKA.show();\n  frmRegisterUser.destroy();\n}else if(gblFromModule == \"UpdateSMSNumber\"){\n  callMyProfileData();\n  gblToOTPFrom = \"\";\n  gblFromModule = \"\";\n  \n}else if(gblFromModule == \"UpdateMobileNumber\"){\n    frmManageCardsKA.show();\n    gblToOTPFrom = \"\";\n    gblFromModule = \"\";\n}\nelse{\n  gblFromModule = \"ForgotPassword\";\n  gblReqField=\"Username\";\n  initialiseAndCallEnroll();\n  frmRegisterUser.destroy();\n}\n\n",
            "parentId": null,
            "callbackType": null
        }]
    }
}