{
    "AS_TextField_f2676044bfae42839bafd6abcbe3e782": {
        "id": "AS_TextField_f2676044bfae42839bafd6abcbe3e782",
        "type": "ACTION_SEQUENCE",
        "name": "onendeditingiphoneweb",
        "params": [{
            "datatype": "collection",
            "name": "eventobject"
        }, {
            "datatype": "string",
            "name": "changedtext"
        }],
        "language": "js",
        "actions": [{
            "id": "ADD_SNIPPET_ide_onEndEditing_bc9a35305386455b9de39d1923789649",
            "type": "ADD_SNIPPET",
            "codeSnippet": "frmWebCharge.flxBorderAmount.skin=\"skntextFieldDividerGreen\";\nif(frmWebCharge.lblCurrencyCode.text===\"JOD\")\n{\n  if (frmWebCharge.txtFieldAmount.text !== \"\" && frmWebCharge.txtFieldAmount.text !== \"0\" && frmWebCharge.txtFieldAmount.text !== 0) \n\t{\n       var amount = Number.parseFloat(frmWebCharge.txtFieldAmount.text).toFixed(3);\n       frmWebCharge.txtFieldAmount.text = amount;\n  \t}\n}\nelse\n  {\n    if (frmWebCharge.txtFieldAmount.text !== \"\" && frmWebCharge.txtFieldAmount.text !== \"0\" && frmWebCharge.txtFieldAmount.text !== 0) \n\t{\n       var amount = Number.parseFloat(frmWebCharge.txtFieldAmount.text).toFixed(2);\n       frmWebCharge.txtFieldAmount.text = amount;\n    }\n  }",
            "callbackType": null
        }]
    }
}