{
    "AS_Segment_efe741d62b2d40ba9bab8c4a6bbaf03a": {
        "id": "AS_Segment_efe741d62b2d40ba9bab8c4a6bbaf03a",
        "type": "ACTION_SEQUENCE",
        "name": "onRowClickSISegment",
        "params": [{
            "datatype": "collection",
            "name": "eventobject"
        }, {
            "datatype": "number",
            "name": "sectionNumber"
        }, {
            "datatype": "number",
            "name": "rowNumber"
        }],
        "contextObj": {
            "name": "frmStandingInstructions",
            "type": "forms",
            "platform": null,
            "KUID": "cf89335dd93d4b46a77376646c7657ea"
        },
        "language": "js",
        "actions": [{
            "id": "ADD_SNIPPET__f200c0def1644887b8b4a0ffd502e64e",
            "type": "ADD_SNIPPET",
            "codeSnippet": "// alert(JSON.stringify());\n// frmConfirmStandingInstructions.show();\nvar x = frmStandingInstructions.segSIList.selectedItems[0].instruction_number;\nvar INSTANCE = kony.sdk.mvvm.KonyApplicationContext.getAppInstance();\nvar controller = INSTANCE.getFormController(\"frmConfirmStandingInstructions\");\nvar navObject = new kony.sdk.mvvm.NavigationObject();\nnavObject.setRequestOptions(\"segSIDetails\",{\"headers\":{},\"queryParams\":{\"InstructionNum\" : x}});\ncontroller.loadDataAndShowForm(navObject);",
            "parentId": null,
            "callbackType": null
        }]
    }
}