{
    "AS_Calendar_ba360bf6fc8045dda03c706a890d5753": {
        "id": "AS_Calendar_ba360bf6fc8045dda03c706a890d5753",
        "type": "ACTION_SEQUENCE",
        "name": "onSelectionCalToRecurrenceDateTransfer",
        "params": [{
            "datatype": "collection",
            "name": "eventobject"
        }, {
            "datatype": "boolean",
            "name": "isValidDateSelected"
        }],
        "contextObj": {
            "name": "frmNewTransferKA",
            "type": "forms",
            "platform": "",
            "KUID": "2ac343500306428da0ceef91a3b44d18"
        },
        "language": "js",
        "actions": [{
            "id": "ADD_SNIPPET__abda07d36ef24386aedf2370e7c09a2a",
            "type": "ADD_SNIPPET",
            "codeSnippet": "recurrence_DATE_SELECTION(frmNewTransferKA.lblFre.text);",
            "parentId": null,
            "callbackType": null
        }]
    }
}