{
    "AS_Calendar_d333c285dde444c5a69bb5d7dee0d11d": {
        "id": "AS_Calendar_d333c285dde444c5a69bb5d7dee0d11d",
        "type": "ACTION_SEQUENCE",
        "name": "onSelectionCardsToDate",
        "params": [{
            "datatype": "collection",
            "name": "eventobject"
        }, {
            "datatype": "boolean",
            "name": "isValidDateSelected"
        }],
        "contextObj": {
            "name": "frmFilterTransaction",
            "type": "forms",
            "platform": "",
            "KUID": "ff5ea79e22414b03ba4cca716d18a58c"
        },
        "language": "js",
        "actions": [{
            "id": "ADD_SNIPPET__f2ec13bd02334bafb52ea9f37f95d470",
            "type": "ADD_SNIPPET",
            "codeSnippet": "calendar_DateRange(frmFilterTransaction.calDateToCards,\"To\",\"Cards\");",
            "parentId": null,
            "callbackType": null
        }]
    }
}