{
    "AS_TextField_j5263505cb7740ada2114f998a54fc55": {
        "id": "AS_TextField_j5263505cb7740ada2114f998a54fc55",
        "type": "ACTION_SEQUENCE",
        "name": "onTextChangeAmntNewDetails",
        "params": [{
            "datatype": "collection",
            "name": "eventobject"
        }, {
            "datatype": "string",
            "name": "changedtext"
        }],
        "contextObj": {
            "name": "frmNewBillDetails",
            "type": "forms",
            "platform": "",
            "KUID": "c2132c3b91ec4677ab952b729de9fc0e"
        },
        "language": "js",
        "actions": [{
            "id": "ADD_SNIPPET__aa95c04cfad44fbeacd6fc27ff3342ef",
            "type": "ADD_SNIPPET",
            "codeSnippet": "frmNewBillDetails.tbxAmount.text = restrictoThreeDecimals(frmNewBillDetails.tbxAmount.text);\n//frmNewBillDetails.txtBox.text = fixDecimal(frmNewBillDetails.tbxAmount.text,getDecimalNumForCurr(billerDetails.currencyCode));\nfrmNewBillDetails.lblHiddenAmount.text = frmNewBillKA.tbxAmount.text;\n//frmNewBillDetails.lblHiddenAmount.text = frmNewBillDetails.txtBox.text;\nnextFromNewDetailsScreen();",
            "parentId": null,
            "callbackType": null
        }]
    }
}