{
    "AS_TextField_gc6bca232df948a594ad3893c77789c0": {
        "id": "AS_TextField_gc6bca232df948a594ad3893c77789c0",
        "type": "ACTION_SEQUENCE",
        "name": "onTouchEndSecondaryPhoneNo",
        "params": [{
            "datatype": "collection",
            "name": "eventobject"
        }, {
            "datatype": "string",
            "name": "x"
        }, {
            "datatype": "string",
            "name": "y"
        }],
        "contextObj": {
            "name": "frmUserSettingsMyProfileKA",
            "type": "forms",
            "platform": "",
            "KUID": "469d331305a541b8b65c6d8bdf903828"
        },
        "language": "js",
        "actions": [{
            "id": "ADD_SNIPPET__cda2f307473f4bab9c828961a34b5513",
            "type": "ADD_SNIPPET",
            "codeSnippet": "animateLabel(\"UP\",\"lblSecondaryPhoneNo\",frmUserSettingsMyProfileKA.txtSecondaryPhoneNo.text);",
            "parentId": null
        }]
    }
}