{
    "AS_TextField_aed902da642c4309b1f59a07dabb139a": {
        "id": "AS_TextField_aed902da642c4309b1f59a07dabb139a",
        "type": "ACTION_SEQUENCE",
        "name": "onTouchendMobileJomopay",
        "params": [{
            "datatype": "collection",
            "name": "eventobject"
        }, {
            "datatype": "string",
            "name": "x"
        }, {
            "datatype": "string",
            "name": "y"
        }],
        "contextObj": {
            "name": "frmJoMoPay",
            "type": "forms",
            "platform": "",
            "KUID": "d41a38dfc97d4e0a8f3b1db96d6a1ca0"
        },
        "language": "js",
        "actions": [{
            "id": "ADD_SNIPPET__g1c5570c43514919b28334f0c23c7ced",
            "type": "ADD_SNIPPET",
            "codeSnippet": "// animateLabel(\"UP\",\"lblBeneficiaryStaticText\",frmJoMoPay.txtPhoneNo.text);\nanimate_NEWCARDSOPTIOS(\"UP\",\"lblBeneficiaryStaticText\",frmJoMoPay.txtPhoneNo.text);",
            "parentId": null,
            "callbackType": null
        }]
    }
}