{
    "AS_Label_f330c2e5c5de446db41adde60324fa92": {
        "id": "AS_Label_f330c2e5c5de446db41adde60324fa92",
        "type": "ACTION_SEQUENCE",
        "name": "onTouchEndCloseConfirmBill",
        "params": [{
            "datatype": "collection",
            "name": "eventobject"
        }, {
            "datatype": "string",
            "name": "x"
        }, {
            "datatype": "string",
            "name": "y"
        }],
        "contextObj": {
            "name": "frmConfirmPayBill",
            "type": "forms",
            "platform": "",
            "KUID": "9244958e3f364c6b9e342b6d7ea74555"
        },
        "language": "js",
        "actions": [{
            "id": "ADD_SNIPPET__b78c06052b394251aaefce5030591e02",
            "type": "ADD_SNIPPET",
            "codeSnippet": "customAlertPopup(geti18Value(\"i18n.cards.Confirmation\"), \n                   geti18Value(\"i18n.bills.BillPaymentExit\"),\n                   onClickYesClose, onClickNoClose, \n                   geti18Value(\"i18n.login.continue\"),\n                   geti18Value(\"i18n.cashWithdraw.cancel\"));\n\nfunction onClickYesClose(){\n  popupCommonAlertDimiss();\n  frmPaymentDashboard.show();;\n}\n\nfunction onClickNoClose(){\n  popupCommonAlertDimiss();\n}",
            "parentId": null,
            "callbackType": null
        }]
    }
}