{
    "AS_Form_bf083fa7c2994523b5153b393c91bab9": {
        "id": "AS_Form_bf083fa7c2994523b5153b393c91bab9",
        "type": "ACTION_SEQUENCE",
        "name": "preshowNewDetailsScreen",
        "params": [{
            "datatype": "collection",
            "name": "eventobject"
        }],
        "contextObj": {
            "name": "frmNewBillDetails",
            "type": "forms",
            "platform": null,
            "KUID": "c2132c3b91ec4677ab952b729de9fc0e"
        },
        "language": "js",
        "actions": [{
            "id": "ADD_SNIPPET_ide_preShow_d71c1412be424619bae7446fe5b5192e",
            "type": "ADD_SNIPPET",
            "codeSnippet": "//kony.print(\"#$: Executing form pre-show\");\n//frmNewTransferKA.fromCard.doLayout = onFromCardLayoutCallback;\n//newBillPayPreShow();\n//kony.print(\"#$: Executed newTransferPreShow\");\n//frmNewBillDetails.tbxAmount.text = \"\";\nif(frmNewBillDetails.lblPaymentMode.text ==  \"Accounts\"){\n  frmNewBillDetails.lblPaymentMode.skin = \"sknLblNextDisabled\"\n}\nnextFromNewDetailsScreen();",
            "callbackType": null
        }]
    }
}