{
    "AS_Segment_b9668e445a204f98b62cbad18adf9dc0": {
        "id": "AS_Segment_b9668e445a204f98b62cbad18adf9dc0",
        "type": "ACTION_SEQUENCE",
        "name": "ProductOnselect",
        "params": [{
            "datatype": "collection",
            "name": "eventobject"
        }, {
            "datatype": "number",
            "name": "sectionNumber"
        }, {
            "datatype": "number",
            "name": "rowNumber"
        }],
        "language": "js",
        "actions": [{
            "id": "ADD_SNIPPET__a80140f2649f4bdf9f8c0b4f4da9e7f2",
            "type": "ADD_SNIPPET",
            "codeSnippet": "onProductSelect();",
            "parentId": null,
            "callbackType": null
        }]
    }
}