{
    "AS_Button_3d65bbd843c24bd2b9c8aec41e7d7b66": {
        "id": "AS_Button_3d65bbd843c24bd2b9c8aec41e7d7b66",
        "type": "ACTION_SEQUENCE",
        "name": "showSuccessForm",
        "params": [{
            "datatype": "collection",
            "name": "eventobject"
        }],
        "language": "js",
        "actions": [{
            "id": "ADD_SNIPPET__370f27a0dff24bf985e031e348682ab1",
            "type": "ADD_SNIPPET",
            "codeSnippet": "    var INSTANCE = kony.sdk.mvvm.KonyApplicationContext.getAppInstance();\n    var frmName = kony.application.getCurrentForm().id;\n    var listController = INSTANCE.getFormController(frmName);\n    listController.performAction(\"validateNewAccountMobile\");",
            "parentId": null,
            "callbackType": null
        }]
    }
}