{
    "AS_Label_j76804916a684eac8bb8143cd101e9cf": {
        "id": "AS_Label_j76804916a684eac8bb8143cd101e9cf",
        "type": "ACTION_SEQUENCE",
        "name": "testActionnnn",
        "params": [{
            "datatype": "collection",
            "name": "eventobject"
        }, {
            "datatype": "string",
            "name": "x"
        }, {
            "datatype": "string",
            "name": "y"
        }],
        "contextObj": {
            "name": "frmUserSettingsMyProfileKA",
            "type": "forms",
            "platform": "",
            "KUID": "469d331305a541b8b65c6d8bdf903828"
        },
        "language": "js",
        "actions": []
    }
}