{
    "AS_Button_157dcaa7bded4063b89950b77c1378ab": {
        "id": "AS_Button_157dcaa7bded4063b89950b77c1378ab",
        "type": "ACTION_SEQUENCE",
        "name": "TransferConfirmScreen_IOSbtnBack",
        "params": [{
            "datatype": "collection",
            "name": "eventobject"
        }],
        "contextObj": {
            "name": "frmConfirmTransferKA",
            "type": "forms",
            "platform": "",
            "KUID": "79e9f0ae27394db6b3b371dc6ca4520b"
        },
        "language": "js",
        "actions": [{
            "id": "ADD_SNIPPET__886b97f3013a4f829da35b183acbfc7c",
            "type": "ADD_SNIPPET",
            "codeSnippet": "if(gblTModule == \"web\"){\n  frmWebCharge.show();\n}\nelse{\n  frmNewTransferKA.show();\n}\n\n",
            "parentId": null,
            "callbackType": null
        }]
    }
}