{
    "AS_Form_fb09bee9f67c46a0b9c1ca1a1b333432": {
        "id": "AS_Form_fb09bee9f67c46a0b9c1ca1a1b333432",
        "type": "ACTION_SEQUENCE",
        "params": [{
            "datatype": "FormController",
            "name": "form"
        }],
        "contextObj": {
            "name": "frmWatLaunch",
            "type": "forms",
            "platform": "",
            "KUID": "d314e06c5daa42ba9122f942d81605b2"
        },
        "language": "swift",
        "actions": [{
            "id": "ADD_SNIPPET__fd43bd14f05245dd9e6271fdb021c580",
            "type": "ADD_SNIPPET",
            "codeSnippet": "initFrmLaunch(form: form)",
            "parentId": null,
            "callbackType": null
        }]
    }
}