{
    "AS_Form_c2b12af5b4e64a759dfbc256cfeadbba": {
        "id": "AS_Form_c2b12af5b4e64a759dfbc256cfeadbba",
        "type": "ACTION_SEQUENCE",
        "params": [{
            "datatype": "FormController",
            "name": "form"
        }, {
            "datatype": "AnyObject?",
            "name": "context"
        }],
        "contextObj": {
            "name": "frmWatLaunch",
            "type": "forms",
            "platform": "",
            "KUID": "d314e06c5daa42ba9122f942d81605b2"
        },
        "language": "swift",
        "actions": [{
            "id": "ADD_SNIPPET__ac3c073949c44d6ca01a9e9129628dd6",
            "type": "ADD_SNIPPET",
            "codeSnippet": "let obj = [\"key\": \"\"]\nonFrmSplashAwake(form: form, context: obj as AnyObject)",
            "parentId": null,
            "callbackType": null
        }]
    }
}