{
    "AS_Form_bb302fb7f0a44cd39d41307fc0d00e6b": {
        "id": "AS_Form_bb302fb7f0a44cd39d41307fc0d00e6b",
        "type": "ACTION_SEQUENCE",
        "params": [{
            "datatype": "FormController",
            "name": "form"
        }],
        "contextObj": {
            "name": "frmWatMenu",
            "type": "forms",
            "platform": null,
            "KUID": "ea59f4de6a074958ad1b469a50249501"
        },
        "language": "swift",
        "actions": [{
            "id": "ADD_SNIPPET__f6ac543ce754488abb64f4b34f766991",
            "type": "ADD_SNIPPET",
            "codeSnippet": "initFrmMenu(form: form)",
            "parentId": null,
            "callbackType": null
        }]
    }
}