{
    "@class": "com.kony.gen.viz.model.component.KVizLabel", 
    "DNDConfig": null, 
    "__parentReadjusting__": false, 
    "_height_": {
        "type": "ref", 
        "value": "preferred"
    }, 
    "_left_": {
        "type": "string", 
        "value": "15dp"
    }, 
    "_margin_": [
        1, 
        1, 
        1, 
        1
    ], 
    "_padding_": [
        0, 
        0, 
        0, 
        0
    ], 
    "_skin_": "s2be1ed2589b428b95ab2222f72682cf", 
    "_text_": "Deposits", 
    "_top_": {
        "type": "string", 
        "value": "12dp"
    }, 
    "_width_": {
        "type": "ref", 
        "value": "preferred"
    }, 
    "_wrapping_": 2, 
    "canUpdateUI": true, 
    "centery": {
        "type": "string", 
        "value": "50%"
    }, 
    "containerweight": 100, 
    "contentalignment": 4, 
    "enabled": false, 
    "id": "nameAccount4", 
    "info": null, 
    "ipad": {
        "psp": {
            "wrapping": 2
        }
    }, 
    "iphone": {
        "psp": {
            "wrapping": 2
        }
    }, 
    "isvisible": true, 
    "kuid": "c914a5a23e2545859b60447e82c200ee", 
    "maxwidth": {
        "type": "string", 
        "value": "90%"
    }, 
    "name": "kony.ui.Label", 
    "parent": "CopynameContainer09cd63430de2f4b", 
    "pf": "frmPickAProductKA", 
    "texti18n": "i18n.common.deposits", 
    "tooltip": "", 
    "wType": "Label", 
    "zindex": 1
}