{
    "@class": "com.kony.gen.viz.model.component.KVizTextBox2",
    "DNDConfig": null,
    "__parentReadjusting__": false,
    "_bottom_": {
        "type": "string",
        "value": "4.00%"
    },
    "_height_": {
        "type": "string",
        "value": "50%"
    },
    "_margin_": [
        0,
        0,
        0,
        0
    ],
    "_padding_": [
        3,
        0,
        0,
        0
    ],
    "_placeholder_": "",
    "_skin_": "s029998596d3421892d0917ea7492e1d",
    "_text_": "",
    "_width_": {
        "type": "string",
        "value": "100%"
    },
    "accessibilityconfig": {
        "a11yLabel": "Enter your Username"
    },
    "android": {
        "ide_onBeginEditing": "AS_TextField_acb5c1faa2584742b622f861b4907d12",
        "ide_onEndEditing": "AS_TextField_c03066f8e8724cb4ae31c985e6cdf82e",
        "psp": {
            "keyboardActionLabel": 12
        }
    },
    "autocapitalize": "all",
    "autocomplete": false,
    "autocorrect": false,
    "autofilter": false,
    "canUpdateUI": true,
    "centerx": {
        "type": "string",
        "value": "50%"
    },
    "containerheight": "",
    "containerheightmode": 1,
    "containerweight": 100,
    "contentalignment": 4,
    "disabledSkins": {},
    "focusskin": "s029998596d3421892d0917ea7492e1d",
    "id": "txtAddressAlias",
    "ide_onDone": "AS_TextField_b002c944fe4148aab6030510b2b41ced",
    "ide_onTextChange": "AS_TextField_a47a540d44684d0f99eb0ce952ec724c",
    "ide_onTouchEnd": "AS_TextField_b801087c581b40cea58a07516e2b7337",
    "info": null,
    "iphone": {
        "ide_onBeginEditing": "AS_TextField_e34d184f6cc149198507b7b25364dc17",
        "ide_onEndEditing": "AS_TextField_e2b4722045e043ccaa6b4866efe852de",
        "psp": {
            "keyboardActionLabel": 1
        }
    },
    "isvisible": true,
    "keyboardactionlabel": 4,
    "keyboardtype": "A",
    "kuid": "je4662e720f244f2a7595c52ac2e68e2",
    "maxtextlength": 35,
    "mode": "A",
    "name": "kony.ui.TextBox2",
    "parent": "flxAddress",
    "pf": "frmEPS",
    "securetextentry": false,
    "textinputmode": "A",
    "viewtype": "default",
    "wType": "TextField",
    "zindex": 1
}