{
    "DNDConfig": null,
    "__parentReadjusting__": false,
    "_height_": {
        "type": "string",
        "value": "70dp"
    },
    "_left_": {
        "type": "string",
        "value": "5%"
    },
    "_margin_": [
        0,
        0,
        0,
        0
    ],
    "_padding_": [
        0,
        0,
        0,
        0
    ],
    "_skin_": "s5449e85b7e0472ba7d4939096f3873d",
    "_top_": {
        "type": "string",
        "value": "40%"
    },
    "_width_": {
        "type": "string",
        "value": "90%"
    },
    "allboxes": [],
    "autogrowmode": 0,
    "canUpdateUI": true,
    "children": [
        "lblEmail2",
        "txtEmail2",
        "lblClose2",
        "borderBottom2"
    ],
    "clipbounds": true,
    "containerweight": 100,
    "defaultunit": 3,
    "enabled": false,
    "enablescrolling": true,
    "id": "FlxEmail2",
    "info": null,
    "isvisible": true,
    "kuid": "f8545e52ee5b4fe79e4bc929fed0c7d7",
    "layouttype": 2,
    "name": "kony.ui.FlexContainer",
    "orientation": 6,
    "parent": "frmEstatementLandingKA",
    "percent": true,
    "pf": "frmEstatementLandingKA",
    "snapgridsize": "20",
    "snaptogrid": true,
    "wType": "FlexContainer",
    "widgetalignment": 1,
    "zindex": 1
}