{
    "@class": "com.kony.gen.viz.model.container.KVizScrollFlexForm",
    "DNDConfig": null,
    "_footers_": [
        null
    ],
    "_margin_": [
        0,
        0,
        0,
        0
    ],
    "_padding_": [
        0,
        0,
        0,
        0
    ],
    "_skin_": "saccb95b58984589af381140b9870839",
    "_title_": "",
    "addWidgetsdone": false,
    "allboxes": [],
    "android": {
        "ide_onDeviceBack": "AS_Form_ca9aa70092e34bb68076e32c5efdfd80",
        "inTransitionConfig": {
            "formAnimation": 0
        },
        "needAppMenu": false,
        "outTransitionConfig": {
            "formAnimation": 0
        },
        "psp": {
            "onDeviceMenu": "AS_Form_2a642f10bd8d409288f98d64ee84ffaa"
        }
    },
    "bounces": false,
    "canUpdateUI": true,
    "children": [
        "topWrapper",
        "bottomContainer",
        "flxCheckDepositNavOptKA"
    ],
    "configurestatusbarstyle": true,
    "containerweight": 100,
    "currentLocale": "en",
    "desktopweb": {
        "needAppMenu": false
    },
    "device": "iPhone6",
    "displayorientation": 1,
    "enabled": false,
    "enabledforidletimeout": true,
    "footer": "frmDepositPayLandingKA_footer",
    "footersId": "5fc13b6bbe69451a84b41ce39703d431",
    "id": "frmDepositPayLandingKA",
    "ide_init": "AS_Form_9e12fd31e41c42368c6b96405c1ca672",
    "ide_preShow": "AS_Form_766c40a00e5c4b11a360358469dc89e9",
    "info": null,
    "initdone": false,
    "inputaccessoryviewtype": 4,
    "invokedProperty": "footers",
    "ipad": {
        "psp": {
            "inputAccessoryViewType": 4
        }
    },
    "iphone": {
        "inTransitionConfig": {
            "transitionDirection": "none",
            "transitionEffect": "transitionFade"
        },
        "needAppMenu": false,
        "outTransitionConfig": {
            "transitionDirection": "none",
            "transitionEffect": "transitionFade"
        },
        "psp": {
            "bouncesZoom": true,
            "configureStatusBarStyle": true,
            "inputAccessoryViewType": 4,
            "statusBarHidden": false,
            "statusBarStyle": "STATUS_BAR_STYLE_LIGHT_CONTENT",
            "titleBarConfig": {
                "buttonText": "Edit",
                "leftButtonText": "Back",
                "leftTitle": "Back",
                "prevFormTitle": false,
                "renderTitleText": true,
                "rightTitle": "Edit",
                "titleBarLeftSideView": "none",
                "titleBarRightSideView": "none",
                "titleClosureLeftSideView": "",
                "titleClosureRightSideView": "",
                "visible": false
            }
        },
        "titleBar": false
    },
    "isvisible": true,
    "kuid": "dd44156e890e4ee28360f50ee6c67184",
    "layouttype": 2,
    "name": "kony.ui.Form2",
    "needappmenu": true,
    "orientation": 1,
    "paddinginpixel": false,
    "percent": true,
    "platform": "iphone",
    "preshow": "AS_Form_cd9d80a085cb4750875e29b270c305a7",
    "prevDevice": "GalaxyS5",
    "prevPlatform": "android",
    "retainscrollposition": false,
    "shellCSS": "iOS_iPhone6",
    "snapgridsize": 10,
    "snaptogrid": true,
    "spa": {
        "inTransitionConfig": {
            "formTransition": "none"
        },
        "outTransitionConfig": {
            "formTransition": "none"
        }
    },
    "spaan": {
        "needAppMenu": false
    },
    "spabb": {
        "needAppMenu": false
    },
    "spaip": {
        "needAppMenu": false
    },
    "spawinphone8": {
        "needAppMenu": false
    },
    "statusbarstyle": "STATUS_BAR_STYLE_LIGHT_CONTENT",
    "titleBarSkin": "sf9d12b1e1d546169560d8b1b80caf35",
    "titlebar": true,
    "type": 3,
    "wType": "Form",
    "winphone8": {
        "inTransitionConfig": {
            "inTransition": "none",
            "transitionMode": "none",
            "transitionSpeed": 0
        },
        "needAppMenu": false,
        "outTransitionConfig": {
            "outTransition": "none",
            "transitionMode": "none",
            "transitionSpeed": 0
        }
    }
}