{
    "DNDConfig": null,
    "_height_": {
        "type": "string",
        "value": "280dp"
    },
    "_margin_": [
        0,
        0,
        0,
        0
    ],
    "_orientation_": 6,
    "_padding_": [
        0,
        0,
        0,
        0
    ],
    "_percent_": true,
    "_skin_": "sf5d9bfdbf034265b30a3db0026c0bc7",
    "_width_": {
        "type": "string",
        "value": "80%"
    },
    "allboxes": [],
    "autogrowmode": 0,
    "canUpdateUI": true,
    "children": [
        "flxTopDetails"
    ],
    "clipbounds": true,
    "containerId": true,
    "containerweight": 100,
    "disabledSkins": {
        "focusSkin": "s0a5765d00e7438ab2541bb39d029708"
    },
    "enablescrolling": true,
    "id": "flxMapATMBranchWithoutLocation",
    "info": null,
    "isvisible": true,
    "kuid": "ce7047d2e0144d12aeda1eccad402705",
    "layouttype": 4,
    "name": "kony.ui.FlexContainer",
    "parent": "mapATMBranchWithoutLocation",
    "pf": "mapATMBranchWithoutLocation",
    "snapgridsize": 10,
    "snaptogrid": true,
    "wType": "FlexContainer",
    "widgetalignment": 5
}