{
    "DNDConfig": null,
    "_height_": {
        "type": "string",
        "value": "6%"
    },
    "_margin_": [
        0,
        0,
        0,
        0
    ],
    "_orientation_": 6,
    "_padding_": [
        0,
        0,
        0,
        0
    ],
    "_percent_": true,
    "_skin_": "s942fa7f07cb4101be2034e97dd1a163",
    "allboxes": [],
    "autogrowmode": 0,
    "canUpdateUI": true,
    "children": [
        "lblTitle"
    ],
    "clipbounds": true,
    "containerId": true,
    "containerweight": 100,
    "enablescrolling": true,
    "id": "FlexContainer06d150d0ad52f42",
    "info": null,
    "isTemplate": true,
    "isvisible": true,
    "kuid": "d626015b2f174994b9160110cd60e69e",
    "layouttype": 2,
    "name": "kony.ui.FlexContainer",
    "parent": "segmentheadertmplt",
    "pf": "segmentheadertmplt",
    "snapgridsize": 10,
    "snaptogrid": true,
    "wType": "FlexContainer",
    "widgetalignment": 1
}