{
    "@class": "com.kony.gen.viz.model.component.KVizButton",
    "DNDConfig": null,
    "__markedForDelete__": true,
    "__parentReadjusting__": false,
    "_height_": {
        "type": "string",
        "value": "50%"
    },
    "_left_": {
        "type": "string",
        "value": "30%"
    },
    "_margin_": [
        6,
        6,
        6,
        6
    ],
    "_padding_": [
        0,
        0,
        0,
        0
    ],
    "_skin_": "s51be37cda7245ce9923161f93f488eb",
    "_text_": "Stop Card",
    "_top_": {
        "type": "string",
        "value": "4%"
    },
    "_width_": {
        "type": "string",
        "value": "60%"
    },
    "canUpdateUI": true,
    "centerx": {
        "type": "string",
        "value": "50%"
    },
    "centery": {
        "type": "string",
        "value": "50%"
    },
    "containerweight": 100,
    "contentalignment": 5,
    "disabledSkins": {},
    "displaytext": true,
    "focusskin": "s6e8459b84e349d98629a088bbfe1304",
    "id": "btnActivateKA",
    "ide_onClick": "AS_Button_a804ae36132e488e80cd8f80f302ea68",
    "info": null,
    "isvisible": false,
    "kuid": "06f44d96a727444db9b4d7f270f0f5d1",
    "name": "kony.ui.Button",
    "parent": "flxDeactivateKA",
    "pf": "frmManageCardsKA",
    "wType": "Button",
    "zindex": 1
}