{
    "@class": "com.kony.gen.viz.model.component.KVizButton",
    "DNDConfig": null,
    "__markedForDelete__": true,
    "__parentReadjusting__": false,
    "_height_": {
        "type": "string",
        "value": "50%"
    },
    "_left_": {
        "type": "string",
        "value": "30%"
    },
    "_margin_": [
        6,
        6,
        6,
        6
    ],
    "_padding_": [
        0,
        0,
        0,
        0
    ],
    "_skin_": "s51be37cda7245ce9923161f93f488eb",
    "_text_": "Replace Card",
    "_top_": {
        "type": "string",
        "value": "4%"
    },
    "_width_": {
        "type": "string",
        "value": "60%"
    },
    "canUpdateUI": true,
    "centerx": {
        "type": "string",
        "value": "50%"
    },
    "centery": {
        "type": "string",
        "value": "50%"
    },
    "containerweight": 100,
    "contentalignment": 5,
    "disabledSkins": {},
    "displaytext": true,
    "focusskin": "s6e8459b84e349d98629a088bbfe1304",
    "id": "btnReplaceKA",
    "ide_onClick": "AS_Button_bb30844208e5400ebee11459de7b7cf6",
    "info": null,
    "isvisible": false,
    "kuid": "38160a86144746fdbab37721a0eca9c1",
    "name": "kony.ui.Button",
    "parent": "flxReplaceKA",
    "pf": "frmManageCardsKA",
    "texti18n": "i18n.cards.ReplaceCard",
    "wType": "Button",
    "zindex": 1
}