{
    "@class": "com.kony.gen.viz.model.component.KVizButton",
    "DNDConfig": null,
    "__parentReadjusting__": false,
    "_height_": {
        "type": "string",
        "value": "100%"
    },
    "_left_": {
        "type": "string",
        "value": "2%"
    },
    "_margin_": [
        6,
        6,
        6,
        6
    ],
    "_padding_": [
        0,
        0,
        0,
        0
    ],
    "_skin_": "see3e5af693d42b5a9703374402e1a39",
    "_text_": ")",
    "_width_": {
        "type": "string",
        "value": "15%"
    },
    "canUpdateUI": true,
    "centery": {
        "type": "string",
        "value": "50%"
    },
    "containerweight": 100,
    "contentalignment": 5,
    "disabledSkins": {},
    "displaytext": true,
    "focusskin": "see3e5af693d42b5a9703374402e1a39",
    "id": "CopybtnInfo0f7307994311842",
    "info": null,
    "isvisible": true,
    "kuid": "d0ee655c09ec49c6af555d45ca038be7",
    "name": "kony.ui.Button",
    "parent": "flxDeactivateKA",
    "pf": "frmManageCardsKA",
    "wType": "Button",
    "zindex": 1
}