{
    "@class": "com.kony.gen.viz.model.component.KVizButton",
    "DNDConfig": null,
    "__parentReadjusting__": false,
    "_height_": {
        "type": "string",
        "value": "100%"
    },
    "_left_": {
        "type": "string",
        "value": "2%"
    },
    "_margin_": [
        6,
        6,
        6,
        6
    ],
    "_padding_": [
        0,
        0,
        0,
        0
    ],
    "_skin_": "see3e5af693d42b5a9703374402e1a39",
    "_text_": "7",
    "_width_": {
        "type": "string",
        "value": "15%"
    },
    "canUpdateUI": true,
    "centery": {
        "type": "string",
        "value": "50%"
    },
    "containerweight": 100,
    "contentalignment": 5,
    "disabledSkins": {
        "focusSkin": "s10149300144466da99cbf92f4fdacc8"
    },
    "displaytext": true,
    "id": "CopybtnInfo0a9b4efdd06314b",
    "info": null,
    "isvisible": true,
    "kuid": "a751d06a10dc48a6a39c3f95a41e828e",
    "name": "kony.ui.Button",
    "parent": "flxReplaceKA",
    "pf": "frmManageCardsKA",
    "wType": "Button",
    "zindex": 1
}