{
    "DNDConfig": null,
    "__parentReadjusting__": false,
    "_height_": {
        "type": "string",
        "value": "25dp"
    },
    "_margin_": [
        0,
        0,
        0,
        0
    ],
    "_orientation_": 6,
    "_padding_": [
        0,
        0,
        0,
        0
    ],
    "_percent_": true,
    "_right_": {
        "type": "string",
        "value": "3%"
    },
    "_skin_": "s8cee9ddcb344024afcc0f0e0d2a9e37",
    "_width_": {
        "type": "string",
        "value": "44dp"
    },
    "allboxes": [],
    "autogrowmode": 0,
    "canUpdateUI": true,
    "centery": {
        "type": "string",
        "value": "50%"
    },
    "children": [
        "CopyflxRoundDBlue0he9e8c75e3e142",
        "Copyflxlakeer0i27246f817e24a"
    ],
    "clipbounds": true,
    "containerweight": 100,
    "enablescrolling": true,
    "id": "flxcancelSwitchOn",
    "info": null,
    "isvisible": false,
    "kuid": "cd991e2dc30b4a1cae70625da7850065",
    "layouttype": 2,
    "name": "kony.ui.FlexContainer",
    "parent": "flxCancelKA",
    "pf": "frmManageCardsKA",
    "snapgridsize": 10,
    "snaptogrid": true,
    "wType": "FlexContainer",
    "widgetalignment": 1,
    "zindex": 1
}