{
    "@class": "com.kony.gen.viz.model.component.KVizLabel",
    "DNDConfig": null,
    "__markedForDelete__": true,
    "__parentReadjusting__": false,
    "_height_": {
        "type": "string",
        "value": "100%"
    },
    "_margin_": [
        1,
        1,
        1,
        1
    ],
    "_padding_": [
        0,
        0,
        0,
        0
    ],
    "_right_": {
        "type": "string",
        "value": "32%"
    },
    "_skin_": "s54bf0258815482d9431de67438bfce0",
    "_text_": "x",
    "_top_": {
        "type": "string",
        "value": "0%"
    },
    "_width_": {
        "type": "string",
        "value": "8%"
    },
    "_wrapping_": 2,
    "android": {
        "textStyle": {
            "letterSpacing": 0,
            "strikeThrough": false
        }
    },
    "canUpdateUI": true,
    "centery": "50%",
    "containerweight": 100,
    "contentalignment": 5,
    "id": "lblCardStatmentDownload",
    "ide_onTouchEnd": "AS_Label_f60afc5c97b84b23ab5b01c7b5f0c849",
    "info": null,
    "ipad": {
        "psp": {
            "wrapping": 2
        }
    },
    "iphone": {
        "psp": {
            "wrapping": 2
        }
    },
    "isvisible": true,
    "kuid": "h466dcace7ee447eb8ce30e29ae9b1b5",
    "name": "kony.ui.Label",
    "parent": "flxExtraIcons",
    "pf": "frmManageCardsKA",
    "tooltip": "",
    "wType": "Label",
    "zindex": 1
}