{
    "@class": "com.kony.gen.viz.model.component.KVizLabel",
    "DNDConfig": null,
    "__parentReadjusting__": false,
    "_height_": {
        "type": "ref",
        "value": "preferred"
    },
    "_margin_": [
        1,
        1,
        1,
        1
    ],
    "_padding_": [
        0,
        0,
        0,
        0
    ],
    "_skin_": "s25eaab7a17f44c2a4d4448a03130788",
    "_text_": "",
    "_top_": {
        "type": "string",
        "value": "11dp"
    },
    "_width_": {
        "type": "string",
        "value": "90%"
    },
    "_wrapping_": 2,
    "android": {
        "textStyle": {
            "letterSpacing": 0,
            "strikeThrough": false
        }
    },
    "canUpdateUI": true,
    "centerx": {
        "type": "string",
        "value": "49.45%"
    },
    "containerweight": 100,
    "contentalignment": 5,
    "id": "lblFingerprint",
    "info": null,
    "ipad": {
        "psp": {
            "wrapping": 2
        }
    },
    "iphone": {
        "psp": {
            "wrapping": 2
        }
    },
    "isvisible": true,
    "kuid": "e114ce0c2e4d4cc4860efc170c0278d6",
    "name": "kony.ui.Label",
    "parent": "flxTouchIdheader",
    "pf": "frmUserSettingsTouchIdKA",
    "texti18n": "i18n.common.touchText",
    "tooltip": "",
    "wType": "Label",
    "zindex": 9
}