{
    "@class": "com.kony.gen.viz.model.component.KVizImage2",
    "DNDConfig": null,
    "__markedForDelete__": true,
    "__parentReadjusting__": false,
    "_base64_": null,
    "_height_": {
        "type": "string",
        "value": "30dp"
    },
    "_left_": {
        "type": "string",
        "value": "15dp"
    },
    "_margin_": [
        0,
        0,
        0,
        0
    ],
    "_padding_": [
        0,
        0,
        0,
        0
    ],
    "_skin_": "sa625024fef740fea5133ed43bbfac5f",
    "_src_": "logo03.png",
    "_top_": {
        "type": "string",
        "value": "5dp"
    },
    "_width_": {
        "type": "ref",
        "value": "preferred"
    },
    "canUpdateUI": true,
    "containerweight": 100,
    "context": {
        "channel": "mobile",
        "formID": "frmCardsLandingKA",
        "platform": "android",
        "templateType": "forms",
        "topLevelBox": null
    },
    "id": "Image0c5157670502748",
    "imagescalemode": 1,
    "info": null,
    "isvisible": false,
    "kuid": "c21888fe2ff64984aa93ad3b6fbdbe80",
    "name": "kony.ui.Image2",
    "parent": "flxHeaderDashboard",
    "pf": "frmCardsLandingKA",
    "srcType": 1,
    "wType": "Image",
    "widgetalignment": 5,
    "zindex": 1
}