{
    "DNDConfig": null,
    "__parentReadjusting__": false,
    "_height_": {
        "type": "string",
        "value": "92%"
    },
    "_left_": {
        "type": "string",
        "value": "0dp"
    },
    "_margin_": [
        0,
        0,
        0,
        0
    ],
    "_padding_": [
        0,
        0,
        0,
        0
    ],
    "_skin_": "s01b43455c784618993d1942f98358cd",
    "_top_": {
        "type": "string",
        "value": "0dp"
    },
    "_width_": {
        "type": "string",
        "value": "100%"
    },
    "allboxes": [],
    "autogrowmode": 0,
    "canUpdateUI": true,
    "children": [
        "flxHeaderDashboard",
        "flxTabAccounts",
        "flxScrollMain",
        "btnApplyNewCard",
        "flxApplyNewCards"
    ],
    "clipbounds": true,
    "containerweight": 100,
    "disabledSkins": {},
    "enabled": false,
    "enablescrolling": true,
    "id": "overview",
    "info": null,
    "isvisible": true,
    "kuid": "ee8002bb09ad4567b936bd29912b48f9",
    "layouttype": 4,
    "name": "kony.ui.FlexContainer",
    "orientation": 6,
    "parent": "frmCardsLandingKA",
    "percent": true,
    "pf": "frmCardsLandingKA",
    "snapgridsize": 10,
    "snaptogrid": true,
    "vizProps": {
        "hide": false
    },
    "wType": "FlexContainer",
    "widgetalignment": 1,
    "zindex": 1
}