{
    "AS_Form_b4159a33f3c34e47a68ea7cf72b365e5": {
        "id": "AS_Form_b4159a33f3c34e47a68ea7cf72b365e5",
        "type": "ACTION_SEQUENCE",
        "language": "js",
        "actions": [{
            "id": "ADD_SNIPPET__891522a93788411faeb3df7e2751ca03",
            "type": "ADD_SNIPPET",
            "codeSnippet": "depositPreShow();",
            "parentId": null,
            "callbackType": null
        }]
    }
}