{
    "@class": "com.kony.gen.viz.model.component.KVizLabel", 
    "DNDConfig": null, 
    "__parentReadjusting__": false, 
    "_height_": {
        "type": "string", 
        "value": "32dp"
    }, 
    "_left_": {
        "type": "string", 
        "value": "5%"
    }, 
    "_margin_": [
        1, 
        1, 
        1, 
        1
    ], 
    "_padding_": [
        0, 
        0, 
        0, 
        0
    ], 
    "_skin_": "scec492f4de846a6a0fc0cafc7d6fe2e", 
    "_text_": "Your Location", 
    "_top_": {
        "type": "string", 
        "value": "10dp"
    }, 
    "_width_": {
        "type": "ref", 
        "value": "preferred"
    }, 
    "_wrapping_": 2, 
    "canUpdateUI": true, 
    "containerweight": 100, 
    "contentalignment": 6, 
    "enabled": false, 
    "id": "lblQuestion", 
    "info": null, 
    "ipad": {
        "psp": {
            "wrapping": 2
        }
    }, 
    "iphone": {
        "psp": {
            "wrapping": 2
        }
    }, 
    "isvisible": true, 
    "kuid": "4eae7350c9554e3c848ab2adbf8b38bf", 
    "name": "kony.ui.Label", 
    "parent": "challengeQuestionContainer", 
    "pf": "frmEnterLocationKA", 
    "texti18n": "i18n.opening_account.yourLocation", 
    "tooltip": "", 
    "wType": "Label", 
    "zindex": 1
}