{
    "@class": "com.kony.gen.viz.model.component.KVizDateField",
    "DNDConfig": null,
    "Image": "calendar.png",
    "__id": "frmNewTransferKA_calDateKA",
    "__input": "calDateKA",
    "__parentReadjusting__": false,
    "_data_": null,
    "_date_": [
        null,
        null,
        null
    ],
    "_height_": {
        "type": "ref",
        "value": "preferred"
    },
    "_left_": {
        "type": "string",
        "value": "13dp"
    },
    "_margin_": [
        0,
        0,
        0,
        0
    ],
    "_mode_": 0,
    "_padding_": [
        0,
        0,
        0,
        0
    ],
    "_placeholder_": "",
    "_skin_": "se5f6c7161ab46dc91f737f067c09255",
    "_width_": {
        "type": "string",
        "value": "90%"
    },
    "advview": "default",
    "android": {
        "calendarIcon": "calendar.png"
    },
    "calendaricon": "calendar.png",
    "canUpdateUI": true,
    "centery": {
        "type": "string",
        "value": "65%"
    },
    "containerheight": 100,
    "containerheightreference": 2,
    "containerweight": 100,
    "contentalignment": 4,
    "datecomponents": null,
    "dateeditable": true,
    "dateformat": "dd/MMM/yyyy",
    "datesGroup": [],
    "datesState": 0,
    "day": null,
    "daytextalignmentincell": 5,
    "disabledSkins": {},
    "displayedMonths": [
        5,
        2016
    ],
    "enabled": false,
    "enddate": [
        1,
        6,
        2017
    ],
    "entereddate": null,
    "format": "dd/MMM/yyyy",
    "formatteddate": null,
    "hidedaysheader": false,
    "hidemonthsheader": false,
    "hour": null,
    "id": "calDateKA",
    "info": null,
    "invokedProperty": "leftNavigationImage",
    "iphone": {
        "calendarIcon": "calendar.png",
        "psp": {
            "containerHeight": 100,
            "containerHeightReference": 2,
            "hideDaysHeader": false,
            "hideMonthsHeader": false,
            "mode": 0
        }
    },
    "isvisible": true,
    "kuid": "ef72c5d4c83f4caea21d49247ba915ab",
    "luadate": [
        "31",
        "5",
        "2016"
    ],
    "minutes": null,
    "month": null,
    "monthsinrow": 3,
    "name": "kony.ui.Calendar",
    "navigatorAlert": "Invalid Selection",
    "noofmonths": 1,
    "paddinginpixel": false,
    "pagedate": "/2016",
    "parent": "datePickContainer",
    "pf": "frmNewBillDetails",
    "popupHeight": "auto",
    "popupWidth": "auto",
    "seconds": null,
    "selectdate": "//2016",
    "startDay": 0,
    "startdate": [
        31,
        5,
        2016
    ],
    "validenddate": [
        1,
        6,
        2017
    ],
    "validstartdate": [
        31,
        5,
        2016
    ],
    "viewconfig": {
        "gridConfig": {},
        "gridconfig": ""
    },
    "viewtype": "default",
    "wType": "Calendar",
    "widgetalignment": 5,
    "widths": [
        "14.2857%;",
        "14.2857%;",
        "14.2857%;",
        "14.2857%;",
        "14.2857%;",
        "14.2857%;",
        "14.2857%;"
    ],
    "year": null,
    "zindex": 1
}